Final Project/PHYS605-FinalProj-SineOpampVoltage-HardClipSymmLED.csv

#Digilent WaveForms Oscilloscope Acquisition
#Device Name: Alan
#Serial Number: SN:210321A3716A
#Date Time: 2024-05-02 16:58:52.395
#Sample rate: 1.5873e+06Hz
#Samples: 8192
#Trigger: Source: Channel 1 Type: Edge Condition: Rising Level: -150 mV Hyst.: Auto HoldOff: 0 s
#Channel 1: Range: 200 mV/div Offset: 0 V
#Channel 2: Range: 200 mV/div Offset: 0 V

Time (s),Channel 1 (V),Channel 2 (V)
-0.00058085999999999988,0.095363401975696399,-0.10763956424295153
-0.00058023000000000016,0.094701643352169976,-0.11030334514658675
-0.00057959999999999999,0.095032522663933028,-0.11263415343726983
-0.00057896999999999983,0.093709005416879584,-0.11463198911499793
-0.0005783400000000001,0.093709005416879584,-0.11629685217976994
-0.00057770999999999994,0.094370764040406299,-0.1179617152445427
-0.00057708000000000021,0.09370900541687989,-0.11995955092226913
-0.00057645000000000005,0.092716367481589498,-0.1216244139870428
-0.00057581999999999989,0.093047246793352856,-0.12328927705181557
-0.00057519000000000016,0.093047246793352856,-0.12528711272954199
-0.00057456,0.092385488169826127,-0.12628603056840657
-0.00057392999999999984,0.091723729546299093,-0.1276179210202254
-0.00057330000000000011,0.091061970922772684,-0.12894981147204299
-0.00057266999999999995,0.091392850234536041,-0.13128061976272487
-0.00057203999999999979,0.091392850234535736,-0.13261251021454401
-0.00057141000000000006,0.090731091611009312,-0.13461034589227042
-0.0005707799999999999,0.090400212299245955,-0.13560926373113408
-0.00057015000000000017,0.090400212299245955,-0.13694115418295169
-0.00056952000000000001,0.089076695052192498,-0.13794007202181596
-0.00056888999999999985,0.08874581574042914,-0.1392719624736351
-0.00056826000000000012,0.08874581574042914,-0.14126979815136151
-0.00056762999999999996,0.08874581574042914,-0.14226871599022517
-0.0005669999999999998,0.088084057116902106,-0.14360060644204412
-0.00056637000000000007,0.087422298493375683,-0.14526546950681615
-0.00056573999999999991,0.086760539869848968,-0.14626438734567981
-0.00056511000000000018,0.086760539869848968,-0.14792925041045182
-0.00056448000000000002,0.087091419181612326,-0.14892816824931623
-0.00056384999999999985,0.086429660558085444,-0.14959411347522597
-0.00056322000000000013,0.08609878124632224,-0.15092600392704358
-0.00056258999999999997,0.085767901934558882,-0.15159194915295268
-0.0005619599999999998,0.086098781246321782,-0.15292383960477104
-0.00056133000000000008,0.085106143311032154,-0.15325681221772544
-0.00056069999999999991,0.084444384687505425,-0.15458870266954367
-0.00056007000000000019,0.084444384687505425,-0.15558762050840688
-0.00055944000000000002,0.084444384687505425,-0.15658653834727099
-0.00055880999999999986,0.083451746752215339,-0.15725248357318011
-0.00055818000000000013,0.083451746752215339,-0.15858437402499831
-0.00055754999999999997,0.083120867440451968,-0.15925031925090744
-0.00055691999999999981,0.082459108816924656,-0.15958329186386241
-0.00055629000000000008,0.081135591569871796,-0.16058220970272563
-0.00055565999999999992,0.082128229505161882,-0.16224707276749842
-0.00055503000000000019,0.081466470881635472,-0.16324599060636164
-0.00055440000000000003,0.082128229505161882,-0.16424490844522574
-0.00055376999999999987,0.081797350193398524,-0.16491085367113484
-0.00055314000000000014,0.081135591569871796,-0.16491085367113484
-0.00055250999999999998,0.080473832946345067,-0.16657571673590763
-0.00055187999999999982,0.079812074322817894,-0.16757463457477173
-0.00055125000000000009,0.078819436387528252,-0.16857355241363495
-0.00055061999999999993,0.078819436387528252,-0.16923949763954405
-0.0005499900000000002,0.079150315699291471,-0.17023841547840726
-0.00054936000000000004,0.079150315699291623,-0.17123733331727137
-0.00054872999999999988,0.077826798452238166,-0.17190327854318049
-0.00054810000000000015,0.077826798452238166,-0.17256922376908929
-0.00054746999999999999,0.077165039828711451,-0.17356814160795325
-0.00054683999999999983,0.076834160516947927,-0.17423408683386282
-0.0005462100000000001,0.076503281205184723,-0.17523300467272604
-0.00054557999999999994,0.076172401893421351,-0.17656489512454424
-0.00054495000000000021,0.07650328120518457,-0.17689786773749866
-0.00054432000000000005,0.076503281205184723,-0.17789678557636246
-0.00054368999999999989,0.075510643269894637,-0.17789678557636246
-0.00054306000000000016,0.075510643269894637,-0.17856273080227125
-0.00054243,0.074848884646367908,-0.17922867602818068
-0.00054179999999999983,0.074518005334604703,-0.18022759386704448
-0.00054117000000000011,0.074848884646367908,-0.18056056647999891
-0.00054053999999999994,0.073525367399314451,-0.18155948431886257
-0.00053991000000000022,0.074187126022840874,-0.18222542954477136
-0.00053928000000000005,0.073194488087551093,-0.18289137477068076
-0.00053864999999999989,0.072863608775787736,-0.18355731999658989
-0.00053802000000000016,0.073194488087550941,-0.18389029260954429
-0.00053739,0.073194488087551093,-0.18455623783545355
-0.00053675999999999984,0.072863608775787278,-0.18488921044840853
-0.00053613000000000011,0.071870970840497636,-0.18588812828727178
-0.00053549999999999995,0.071870970840497636,-0.18622110090022631
-0.00053486999999999979,0.070878332905207092,-0.18688704612613588
-0.00053424000000000006,0.069885694969917464,-0.1878859639649991
-0.0005336099999999999,0.070216574281680835,-0.18821893657795363
-0.00053298000000000017,0.07054745359344404,-0.18888488180386245
-0.00053235000000000001,0.070216574281680835,-0.18921785441681729
-0.00053171999999999985,0.06922393634639043,-0.1902167722556814
-0.00053109000000000012,0.068562177722864021,-0.19121569009454464
-0.00053045999999999996,0.067900419099337292,-0.19154866270749918
-0.0005298299999999998,0.066907781164047511,-0.19188163532045405
-0.00052920000000000007,0.067569539787573921,-0.19254758054636284
-0.00052856999999999991,0.067569539787573921,-0.19254758054636284
-0.00052794000000000018,0.066907781164047511,-0.19321352577227166
-0.00052731000000000002,0.066576901852283835,-0.19421244361113563
-0.00052667999999999986,0.066907781164047206,-0.19487838883704472
-0.00052605000000000013,0.066907781164047206,-0.19521136144999929
-0.00052541999999999997,0.06591514322875712,-0.19554433406295382
-0.00052478999999999981,0.065584263916993443,-0.19654325190181779
-0.00052416000000000008,0.06492250529346702,-0.19720919712772661
-0.00052352999999999992,0.064260746669940305,-0.19754216974068117
-0.00052290000000000019,0.063929867358177087,-0.19820811496658997
-0.00052227000000000003,0.063598988046413577,-0.19887406019249937
-0.00052163999999999986,0.063929867358176934,-0.19954000541840849
-0.00052101000000000014,0.063598988046413577,-0.20053892325727216
-0.00052037999999999997,0.06260635011112349,-0.20120486848318125
-0.00051974999999999981,0.061944591487596762,-0.20153784109613596
-0.00051912000000000008,0.061944591487596762,-0.20187081370909035
-0.00051848999999999992,0.062275470799360119,-0.20220378632204491
-0.0005178600000000002,0.061282832864070484,-0.20320270416090813
-0.00051723000000000003,0.060290194928779947,-0.20353567677386314
-0.00051659999999999987,0.060951953552306676,-0.2038686493868177
-0.00051597000000000014,0.060621074240543464,-0.20486756722568092
-0.00051533999999999998,0.060621074240543311,-0.2052005398386359
-0.00051470999999999982,0.059628436305253225,-0.20586648506454516
-0.00051408000000000009,0.059628436305253225,-0.20619945767749956
-0.00051344999999999993,0.059297556993489861,-0.20653243029045412
-0.0005128200000000002,0.059297556993489861,-0.20719837551636291
-0.00051219000000000004,0.058635798369963132,-0.20753134812931778
-0.00051155999999999988,0.057974039746436411,-0.20786432074227235
-0.00051093000000000015,0.058635798369962834,-0.20886323858113556
-0.00051029999999999999,0.057974039746436411,-0.20886323858113601
-0.00050966999999999983,0.057312281122909529,-0.20952918380704541
-0.0005090400000000001,0.056981401811146318,-0.21019512903295423
-0.00050840999999999994,0.05665052249938296,-0.21086107425886333
-0.00050778000000000021,0.055327005252330114,-0.21086107425886333
-0.00050715000000000005,0.054996125940566146,-0.21152701948477243
-0.00050651999999999989,0.054996125940566146,-0.21219296471068155
-0.00050589000000000016,0.054334367317039715,-0.21285890993659035
-0.00050526,0.053341729381749331,-0.21352485516249975
-0.00050462999999999984,0.053672608693512848,-0.21452377300136372
-0.00050400000000000011,0.05400348800527606,-0.21518971822727254
-0.00050336999999999995,0.053341729381749331,-0.2155226908402271
-0.00050273999999999978,0.053010850069985668,-0.21618863606613634
-0.00050211000000000006,0.052349091446459245,-0.21652160867909076
-0.00050147999999999989,0.052679970758222602,-0.2168545812920453
-0.00050085000000000017,0.052018212134696179,-0.21718755390499972
-0.00050022,0.052349091446459245,-0.21752052651795442
-0.00049958999999999984,0.051687332822932364,-0.21818647174386352
-0.00049896000000000012,0.051356453511169152,-0.21818647174386352
-0.00049832999999999995,0.050363815575879066,-0.21851944435681808
-0.00049769999999999979,0.050363815575878768,-0.21885241696977276
-0.00049707000000000006,0.049702056952352344,-0.21918538958272718
-0.0004964399999999999,0.049702056952352344,-0.22018430742159084
-0.00049581000000000017,0.049702056952352344,-0.22051728003454527
-0.00049518000000000001,0.049702056952352344,-0.2211832252604545
-0.00049454999999999985,0.049371177640588682,-0.22218214309931816
-0.00049392000000000012,0.048709419017062251,-0.22218214309931816
-0.00049328999999999996,0.04804766039353553,-0.22284808832522729
-0.0004926599999999998,0.047716781081771714,-0.22384700616409109
-0.00049203000000000007,0.046724143146482079,-0.22417997877704549
-0.00049139999999999991,0.046393263834718715,-0.22417997877704549
-0.00049077000000000018,0.046062384522955503,-0.22484592400295431
-0.00049014000000000002,0.045069746587665264,-0.22517889661590915
-0.00048950999999999986,0.0447388672759019,-0.22617781445477281
-0.00048888000000000013,0.045069746587665264,-0.22684375968068193
-0.00048824999999999997,0.045069746587665264,-0.22651078706772737
-0.00048761999999999981,0.044407987964138085,-0.22750970490659117
-0.00048699000000000008,0.04341535002884845,-0.22784267751954559
-0.00048635999999999992,0.044077108652375178,-0.22817565013250016
-0.00048573000000000019,0.043415350028848748,-0.22784267751954573
-0.00048510000000000003,0.04341535002884845,-0.22850862274545469
-0.00048446999999999987,0.04341535002884845,-0.22917456797136382
-0.00048384000000000014,0.042753591405321728,-0.23017348581022748
-0.00048320999999999998,0.042753591405321728,-0.23050645842318201
-0.00048257999999999981,0.042422712093557913,-0.23083943103613672
-0.00048195000000000009,0.041430074158268271,-0.23117240364909114
-0.00048131999999999992,0.040768315534741549,-0.23117240364909114
-0.0004806900000000002,0.041099194846504761,-0.23217132148795436
-0.00048006000000000004,0.040437436222978185,-0.2321713214879548
-0.00047942999999999987,0.041099194846504913,-0.2328372667138639
-0.00047880000000000015,0.040768315534741702,-0.23350321193977272
-0.00047816999999999998,0.039775677599451463,-0.23317023932681846
-0.00047753999999999982,0.039444798287687946,-0.23350321193977333
-0.00047691000000000009,0.039113918975924734,-0.23416915716568212
-0.00047627999999999993,0.038121281040634648,-0.23416915716568212
-0.0004756500000000002,0.03845216035239786,-0.23483510239159092
-0.00047502000000000004,0.037790401728871284,-0.23616699284340945
-0.00047438999999999988,0.037790401728871284,-0.23649996545636401
-0.00047376000000000015,0.037128643105344861,-0.23649996545636401
-0.00047312999999999999,0.036797763793581198,-0.23683293806931854
-0.00047249999999999983,0.035805125858291258,-0.2378318559081822
-0.0004718700000000001,0.036136005170054469,-0.2378318559081822
-0.00047123999999999994,0.035805125858291105,-0.23849780113409133
-0.00047061000000000021,0.0354742465465279,-0.23883077374704575
-0.00046998000000000005,0.035143367234764383,-0.23916374636000043
-0.00046934999999999989,0.035143367234764383,-0.23949671897295499
-0.00046872000000000016,0.034481608611237953,-0.24016266419886378
-0.00046809,0.033158091364184204,-0.24049563681181865
-0.00046745999999999984,0.033158091364184052,-0.2404956368118191
-0.00046683000000000011,0.032827212052420847,-0.24149455465068231
-0.00046619999999999995,0.032827212052420847,-0.24149455465068231
-0.00046556999999999979,0.033488970675946965,-0.24182752726363688
-0.00046494000000000006,0.032165453428894118,-0.24182752726363688
-0.0004643099999999999,0.031172815493604032,-0.24282644510250054
-0.00046368000000000017,0.031503694805367244,-0.24382536294136375
-0.00046305000000000001,0.031834574117130754,-0.2438253629413642
-0.00046241999999999985,0.031172815493603883,-0.2438253629413645
-0.00046179000000000012,0.030841936181840668,-0.2444913081672733
-0.00046115999999999996,0.030511056870077304,-0.24515725339318242
-0.00046052999999999979,0.029187539623023853,-0.24582319861909166
-0.00045990000000000007,0.029187539623023853,-0.24615617123204608
-0.0004592699999999999,0.028856660311260492,-0.24648914384500062
-0.00045864000000000018,0.029187539623023704,-0.24682211645795504
-0.00045801000000000001,0.029518418934787218,-0.24748806168386428
-0.00045737999999999985,0.028856660311260492,-0.24815400690977341
-0.00045675000000000012,0.028194901687733767,-0.24782103429681884
-0.00045611999999999996,0.028194901687733767,-0.24815400690977341
-0.0004554899999999998,0.027533143064206893,-0.24848697952272825
-0.00045486000000000007,0.027202263752443678,-0.24915292474863707
-0.00045422999999999991,0.027864022375970403,-0.2494858973615916
-0.00045360000000000018,0.027202263752443979,-0.24981886997454603
-0.00045297000000000002,0.026871384440680317,-0.24981886997454616
-0.00045233999999999986,0.025878746505390227,-0.25048481520045529
-0.00045171000000000013,0.025216987881863502,-0.25048481520045529
-0.00045107999999999997,0.024224349946573413,-0.25081778781340985
-0.00045044999999999981,0.024886108570099836,-0.25148373303931909
-0.00044982000000000008,0.024224349946573413,-0.25181670565227349
-0.00044918999999999992,0.024224349946573413,-0.25214967826522805
-0.00044856000000000019,0.024555229258336628,-0.2528156234911369
-0.00044793000000000003,0.023562591323046687,-0.25314859610409174
-0.00044729999999999987,0.022569953387756601,-0.25314859610409174
-0.00044667000000000014,0.022569953387756601,-0.25348156871704608
-0.00044603999999999998,0.022239074075993237,-0.25414751394295537
-0.00044540999999999982,0.022239074075992935,-0.2544804865559101
-0.00044478000000000009,0.021577315452466512,-0.2548134591688645
-0.00044414999999999993,0.021246436140703151,-0.2548134591688645
-0.0004435200000000002,0.020584677517176724,-0.25581237700772769
-0.00044289000000000004,0.019922918893649697,-0.25647832223363726
-0.00044225999999999988,0.020253798205413062,-0.25681129484659182
-0.00044163000000000015,0.019922918893649846,-0.25747724007250061
-0.00044099999999999999,0.019261160270122972,-0.25781021268545545
-0.00044036999999999982,0.018599401646596247,-0.25747724007250106
-0.0004397400000000001,0.018599401646596247,-0.25781021268545545
-0.00043910999999999993,0.018930280958359611,-0.25814318529841002
-0.00043848000000000021,0.018599401646596396,-0.25914210313727326
-0.00043785000000000004,0.018268522334832886,-0.25947507575022827
-0.00043721999999999988,0.017606763711306161,-0.25980804836318278
-0.00043659000000000016,0.017606763711306161,-0.26014102097613717
-0.00043595999999999999,0.017275884399542796,-0.26014102097613734
-0.00043532999999999983,0.015952367152489197,-0.2601410209761375
-0.0004347000000000001,0.015621487840725985,-0.2604739935890919
-0.00043406999999999994,0.015621487840725985,-0.2618058840409101
-0.00043343999999999978,0.015290608528962321,-0.26213885665386494
-0.00043281000000000005,0.014628849905435896,-0.26280480187977379
-0.00043217999999999989,0.013967091281909171,-0.26247182926681922
-0.00043155000000000016,0.013636211970145959,-0.26213885665386483
-0.00043092,0.013967091281909171,-0.26213885665386466
-0.00043028999999999984,0.013636211970145808,-0.26280480187977406
-0.00042966000000000011,0.013636211970145808,-0.26347074710568291
-0.00042902999999999995,0.012974453346619081,-0.26380371971863742
-0.00042839999999999979,0.01297445334661893,-0.26446966494454655
-0.00042777000000000006,0.012643574034855718,-0.26446966494454655
-0.0004271399999999999,0.011650936099565631,-0.26480263755750111
-0.00042651000000000017,0.011650936099565631,-0.2651356101704555
-0.00042588000000000001,0.010989177476038905,-0.2658015553963648
-0.00042524999999999985,0.010989177476038755,-0.26613452800931947
-0.00042462000000000012,0.010658298164275543,-0.26646750062227387
-0.00042398999999999996,0.010658298164275543,-0.26680047323522843
-0.0004233599999999998,0.0099965395407483667,-0.26680047323522871
-0.00042273000000000007,0.0090039016054587299,-0.26746641846113756
-0.00042209999999999991,0.0093347809172220925,-0.26779939107409212
-0.00042147000000000018,0.0096656602289853042,-0.26846533630000091
-0.00042084000000000002,0.0090039016054587299,-0.26846533630000119
-0.00042020999999999985,0.0086730222936953674,-0.26846533630000119
-0.00041958000000000013,0.0086730222936953674,-0.26913128152591032
-0.00041894999999999996,0.0073495050466419161,-0.26979722675181944
-0.0004183199999999998,0.0070186257348782526,-0.26979722675181972
-0.00041769000000000008,0.0063568671113518275,-0.27046317197772851
-0.00041705999999999991,0.0063568671113518275,-0.27046317197772851
-0.00041643000000000019,0.0063568671113518275,-0.27112911720363736
-0.00041580000000000002,0.0060259877995884649,-0.27179506242954676
-0.00041516999999999986,0.0053642291760617397,-0.27246100765545583
-0.00041454000000000013,0.0047024705525350145,-0.27212803504250133
-0.00041390999999999997,0.0053642291760617397,-0.27246100765545583
-0.00041327999999999981,0.0047024705525348645,-0.27279398026841084
-0.00041265000000000008,0.0043715912407716519,-0.27379289810727409
-0.00041201999999999992,0.0040407119290082893,-0.27445884333318316
-0.00041139000000000019,0.0037098326172450772,-0.27412587072022881
-0.00041076000000000003,0.0043715912407716519,-0.27412587072022865
-0.00041012999999999987,0.0030480739937182007,-0.27445884333318316
-0.00040950000000000014,0.0020554360584285644,-0.2754577611720464
-0.00040886999999999998,0.0013936774349013873,-0.27612370639795597
-0.00040823999999999982,0.0013936774349012368,-0.27645667901091037
-0.00040761000000000009,0.0010627981231380247,-0.27612370639795597
-0.00040697999999999993,0.00073191881137466214,-0.27645667901091053
-0.0004063500000000002,0.00040103949961144982,-0.27678965162386487
-0.00040572000000000004,-0.00026071912391542607,-0.27745559684977417
-0.00040508999999999988,-0.00059159843567878876,-0.27778856946272873
-0.00040446000000000015,-0.00059159843567878876,-0.27812154207568313
-0.00040382999999999999,-0.00092247774744215146,-0.27845451468863786
-0.00040319999999999983,-0.00026071912391572699,-0.27878748730159253
-0.0004025700000000001,-0.00092247774744215146,-0.27912045991454693
-0.00040193999999999994,-0.0015842363709688769,-0.27912045991454693
-0.00040131000000000021,-0.0029077536180217257,-0.27978640514045577
-0.00040068000000000005,-0.0029077536180223277,-0.28045235036636518
-0.00040004999999999988,-0.0025768743062589651,-0.28045235036636518
-0.00039942000000000016,-0.0032386329297853893,-0.28078532297931952
-0.00039879,-0.0039003915533124159,-0.28111829559227425
-0.00039815999999999983,-0.0039003915533127168,-0.28145126820522898
-0.00039753000000000011,-0.0045621501768391415,-0.28178424081818337
-0.00039689999999999994,-0.0058856674238925918,-0.28211721343113794
-0.00039626999999999978,-0.0062165467356555034,-0.28245018604409278
-0.00039564000000000005,-0.0052239088003658667,-0.28311613127000157
-0.00039500999999999989,-0.0048930294886025041,-0.28344910388295613
-0.00039438000000000016,-0.0048930294886025041,-0.28378207649591053
-0.00039375,-0.006547426047419317,-0.28411504910886526
