Final Project/PHYS605-FinalProj-SineOpampVoltage-HardClipSymm.csv

#Digilent WaveForms Oscilloscope Acquisition
#Device Name: Alan
#Serial Number: SN:210321A3716A
#Date Time: 2024-05-02 16:40:29.888
#Sample rate: 1.5873e+06Hz
#Samples: 8192
#Trigger: Source: Channel 1 Type: Edge Condition: Rising Level: -150 mV Hyst.: Auto HoldOff: 0 s
#Channel 1: Range: 200 mV/div Offset: 0 V
#Channel 2: Range: 200 mV/div Offset: 0 V

Time (s),Channel 1 (V),Channel 2 (V)
-0.00058085999999999988,0.19098752307530822,0.20235793841773844
-0.00058023000000000016,0.19065664376354499,0.20235793841773844
-0.00057959999999999999,0.19065664376354485,0.20202496580478388
-0.00057896999999999983,0.19098752307530867,0.20169199319182932
-0.0005783400000000001,0.19198016101059831,0.20169199319182932
-0.00057770999999999994,0.19164928169883494,0.20202496580478388
-0.00057708000000000021,0.19198016101059817,0.20202496580478388
-0.00057645000000000005,0.19131840238707157,0.20235793841773844
-0.00057581999999999989,0.19198016101059831,0.20202496580478388
-0.00057519000000000016,0.19297279894588795,0.20202496580478388
-0.00057456,0.1929727989458884,0.20169199319182932
-0.00057392999999999984,0.19297279894588826,0.20202496580478402
-0.00057330000000000011,0.19264191963412503,0.20235793841773844
-0.00057266999999999995,0.19231104032236165,0.20202496580478388
-0.00057203999999999979,0.1929727989458887,0.20202496580478402
-0.00057141000000000006,0.19363455756941511,0.20235793841773844
-0.0005707799999999999,0.19396543688117848,0.20235793841773844
-0.00057015000000000017,0.19462719550470489,0.20235793841773844
-0.00056952000000000001,0.1946271955047052,0.20235793841773844
-0.00056888999999999985,0.1946271955047055,0.20235793841773844
-0.00056826000000000012,0.19528895412823194,0.20235793841773844
-0.00056762999999999996,0.19495807481646857,0.20269091103069298
-0.0005669999999999998,0.19528895412823208,0.20269091103069298
-0.00056637000000000007,0.19561983343999528,0.20269091103069298
-0.00056573999999999991,0.19595071275175865,0.20269091103069298
-0.00056511000000000018,0.19528895412823224,0.20235793841773858
-0.00056448000000000002,0.19561983343999528,0.20235793841773844
-0.00056384999999999985,0.19661247137528567,0.20235793841773858
-0.00056322000000000013,0.19727422999881211,0.20269091103069298
-0.00056258999999999997,0.19694335068704874,0.20269091103069298
-0.0005619599999999998,0.19661247137528581,0.2030238836436474
-0.00056133000000000008,0.19760510931057546,0.20269091103069298
-0.00056069999999999991,0.19793598862233883,0.20269091103069298
-0.00056007000000000019,0.19793598862233883,0.2030238836436474
-0.00055944000000000002,0.19727422999881211,0.2033568562566021
-0.00055880999999999986,0.19727422999881211,0.20302388364364754
-0.00055818000000000013,0.19793598862233883,0.20235793841773844
-0.00055754999999999997,0.19859774724586557,0.20269091103069298
-0.00055691999999999981,0.19959038518115566,0.20302388364364754
-0.00055629000000000008,0.19959038518115566,0.20302388364364754
-0.00055565999999999992,0.19925950586939228,0.20269091103069298
-0.00055503000000000019,0.19925950586939228,0.2030238836436474
-0.00055440000000000003,0.19959038518115566,0.20269091103069298
-0.00055376999999999987,0.199921264492919,0.20269091103069298
-0.00055314000000000014,0.20091390242820908,0.20302388364364754
-0.00055250999999999998,0.20091390242820908,0.20302388364364754
-0.00055187999999999982,0.20058302311644588,0.2030238836436474
-0.00055125000000000009,0.20091390242820908,0.20269091103069298
-0.00055061999999999993,0.20124478173997246,0.20302388364364754
-0.0005499900000000002,0.20091390242820922,0.20269091103069312
-0.00054936000000000004,0.20091390242820908,0.20269091103069298
-0.00054872999999999988,0.20091390242820908,0.20235793841773844
-0.00054810000000000015,0.20157566105173552,0.20269091103069284
-0.00054746999999999999,0.20190654036349917,0.20302388364364754
-0.00054683999999999983,0.20190654036349948,0.20302388364364754
-0.0005462100000000001,0.20256829898702591,0.20302388364364754
-0.00054557999999999994,0.20289917829878928,0.20269091103069298
-0.00054495000000000021,0.20323005761055249,0.20269091103069298
-0.00054432000000000005,0.20289917829878928,0.20302388364364754
-0.00054368999999999989,0.20289917829878928,0.20302388364364754
-0.00054306000000000016,0.20323005761055249,0.20302388364364754
-0.00054243,0.20323005761055263,0.20269091103069298
-0.00054179999999999983,0.20389181623407951,0.20335685625660196
-0.00054117000000000011,0.20422269554584271,0.20302388364364754
-0.00054053999999999994,0.20455357485760609,0.20269091103069298
-0.00053991000000000022,0.20455357485760609,0.2033568562566018
-0.00053928000000000005,0.2052153334811328,0.2040228014825112
-0.00053864999999999989,0.2052153334811328,0.2033568562566021
-0.00053802000000000016,0.2048844541693696,0.2033568562566021
-0.00053739,0.20488445416936946,0.20302388364364754
-0.00053675999999999984,0.20521533348113324,0.20302388364364754
-0.00053613000000000011,0.20620797141642289,0.20302388364364754
-0.00053549999999999995,0.20686973003994963,0.20302388364364754
-0.00053486999999999979,0.20620797141642289,0.2030238836436474
-0.00053424000000000006,0.20620797141642289,0.20269091103069298
-0.0005336099999999999,0.20686973003994963,0.20302388364364754
-0.00053298000000000017,0.20720060935171286,0.20302388364364754
-0.00053235000000000001,0.207200609351713,0.20302388364364754
-0.00053171999999999985,0.20720060935171286,0.20302388364364768
-0.00053109000000000012,0.20686973003994963,0.2033568562566021
-0.00053045999999999996,0.20786236797523971,0.20368982886955667
-0.0005298299999999998,0.20786236797523958,0.20335685625660196
-0.00052920000000000007,0.20753148866347634,0.20302388364364754
-0.00052856999999999991,0.20753148866347634,0.2033568562566021
-0.00052794000000000018,0.20852412659876599,0.2033568562566021
-0.00052731000000000002,0.20918588522229317,0.20302388364364754
-0.00052667999999999986,0.20918588522229317,0.20302388364364754
-0.00052605000000000013,0.20918588522229317,0.20368982886955667
-0.00052541999999999997,0.2088550059105298,0.20302388364364754
-0.00052478999999999981,0.20885500591053011,0.20302388364364754
-0.00052416000000000008,0.20951676453405652,0.20302388364364754
-0.00052352999999999992,0.20951676453405652,0.20302388364364754
-0.00052290000000000019,0.21017852315758295,0.20335685625660196
-0.00052227000000000003,0.21017852315758326,0.20368982886955667
-0.00052163999999999986,0.21017852315758326,0.2033568562566021
-0.00052101000000000014,0.2105094024693466,0.2033568562566021
-0.00052037999999999997,0.20984764384581989,0.2040228014825112
-0.00051974999999999981,0.21050940246934674,0.20368982886955653
-0.00051912000000000008,0.21084028178110997,0.2033568562566021
-0.00051848999999999992,0.21117116109287334,0.20368982886955667
-0.0005178600000000002,0.21117116109287334,0.20368982886955667
-0.00051723000000000003,0.21117116109287334,0.20302388364364754
-0.00051659999999999987,0.2105094024693466,0.20302388364364754
-0.00051597000000000014,0.21183291971639945,0.20368982886955636
-0.00051533999999999998,0.21216379902816343,0.20368982886955667
-0.00051470999999999982,0.21249467833992694,0.20368982886955667
-0.00051408000000000009,0.21282555765169014,0.20368982886955667
-0.00051344999999999993,0.21315643696345352,0.20368982886955667
-0.0005128200000000002,0.21249467833992711,0.20368982886955667
-0.00051219000000000004,0.2124946783399268,0.2033568562566021
-0.00051155999999999988,0.21315643696345352,0.2033568562566021
-0.00051093000000000015,0.21447995421050636,0.20302388364364768
-0.00051029999999999999,0.21514171283403369,0.20302388364364754
-0.00050966999999999983,0.21414907489874374,0.2030238836436474
-0.0005090400000000001,0.21447995421050697,0.20269091103069298
-0.00050840999999999994,0.21447995421050697,0.20368982886955667
-0.00050778000000000021,0.21414907489874374,0.20335685625660224
-0.00050715000000000005,0.21447995421050697,0.2033568562566021
-0.00050651999999999989,0.21481083352227032,0.2033568562566021
-0.00050589000000000016,0.21514171283403355,0.2033568562566021
-0.00050526,0.21447995421050697,0.20368982886955667
-0.00050462999999999984,0.21447995421050728,0.20402280148251134
-0.00050400000000000011,0.21514171283403369,0.20435577409546576
-0.00050336999999999995,0.21613435076932377,0.2040228014825112
-0.00050273999999999978,0.21613435076932391,0.2040228014825112
-0.00050211000000000006,0.21646523008108715,0.2040228014825112
-0.00050147999999999989,0.21613435076932377,0.20368982886955667
-0.00050085000000000017,0.21613435076932377,0.20368982886955667
-0.00050022,0.21646523008108715,0.20368982886955667
-0.00049958999999999984,0.217126988704614,0.2036898288695568
-0.00049896000000000012,0.21745786801637723,0.2040228014825112
-0.00049832999999999995,0.21745786801637723,0.20368982886955667
-0.00049769999999999979,0.21745786801637723,0.2040228014825109
-0.00049707000000000006,0.21745786801637723,0.2033568562566021
-0.0004964399999999999,0.2177887473281406,0.20368982886955667
-0.00049581000000000017,0.2177887473281406,0.20368982886955667
-0.00049518000000000001,0.21811962663990395,0.2040228014825112
-0.00049454999999999985,0.21811962663990395,0.2040228014825112
-0.00049392000000000012,0.21811962663990395,0.2040228014825112
-0.00049328999999999996,0.2177887473281406,0.2040228014825112
-0.0004926599999999998,0.21745786801637754,0.20402280148251106
-0.00049203000000000007,0.21811962663990395,0.20368982886955667
-0.00049139999999999991,0.21878138526343069,0.2033568562566021
-0.00049077000000000018,0.21911226457519389,0.20302388364364768
-0.00049014000000000002,0.21977402319872077,0.20368982886955667
-0.00048950999999999986,0.22010490251048412,0.2040228014825112
-0.00048888000000000013,0.21977402319872077,0.2040228014825112
-0.00048824999999999997,0.21977402319872077,0.20435577409546576
-0.00048761999999999981,0.21977402319872091,0.20435577409546563
-0.00048699000000000008,0.22010490251048412,0.2040228014825112
-0.00048635999999999992,0.22076666113401086,0.20435577409546576
-0.00048573000000000019,0.22076666113401086,0.20435577409546576
-0.00048510000000000003,0.22010490251048412,0.20435577409546576
-0.00048446999999999987,0.22043578182224749,0.2040228014825112
-0.00048384000000000014,0.22043578182224749,0.2040228014825112
-0.00048320999999999998,0.22010490251048412,0.2040228014825112
-0.00048257999999999981,0.220766661134011,0.2036898288695568
-0.00048195000000000009,0.22109754044577423,0.2040228014825112
-0.00048131999999999992,0.22076666113401086,0.2040228014825112
-0.0004806900000000002,0.22209017838106371,0.2040228014825112
-0.00048006000000000004,0.22242105769282766,0.20368982886955667
-0.00047942999999999987,0.22209017838106432,0.20368982886955667
-0.00047880000000000015,0.22242105769282752,0.20368982886955667
-0.00047816999999999998,0.22275193700459103,0.2040228014825112
-0.00047753999999999982,0.22175929906930095,0.20368982886955667
-0.00047691000000000009,0.22175929906930095,0.20368982886955667
-0.00047627999999999993,0.22209017838106432,0.2040228014825112
-0.0004756500000000002,0.22341369562811714,0.2040228014825112
-0.00047502000000000004,0.22341369562811775,0.20368982886955667
-0.00047438999999999988,0.22341369562811775,0.2040228014825112
-0.00047376000000000015,0.22374457493988098,0.20335685625660241
-0.00047312999999999999,0.22407545425164449,0.20368982886955667
-0.00047249999999999983,0.22440633356340769,0.20435577409546563
-0.0004718700000000001,0.22407545425164449,0.2040228014825112
-0.00047123999999999994,0.22506809218693458,0.2040228014825112
-0.00047061000000000021,0.22539897149869781,0.2040228014825112
-0.00046998000000000005,0.22506809218693458,0.20468874670842033
-0.00046934999999999989,0.22506809218693458,0.20435577409546576
-0.00046872000000000016,0.22473721287517134,0.20468874670842019
-0.00046809,0.22440633356340783,0.20435577409546576
-0.00046745999999999984,0.22440633356340814,0.20435577409546576
-0.00046683000000000011,0.22506809218693458,0.20435577409546576
-0.00046619999999999995,0.22572985081046129,0.2040228014825112
-0.00046556999999999979,0.22639160943398773,0.20402280148251106
-0.00046494000000000006,0.22572985081046129,0.20368982886955667
-0.0004643099999999999,0.22572985081046129,0.20368982886955667
-0.00046368000000000017,0.22506809218693488,0.20402280148251106
-0.00046305000000000001,0.22539897149869795,0.2040228014825112
-0.00046241999999999985,0.22572985081046174,0.20368982886955653
-0.00046179000000000012,0.22672248874575138,0.2033568562566021
-0.00046115999999999996,0.22606073012222466,0.2040228014825112
-0.00046052999999999979,0.22639160943398803,0.20435577409546563
-0.00045990000000000007,0.22639160943398803,0.2040228014825112
-0.0004592699999999999,0.22606073012222466,0.2040228014825112
-0.00045864000000000018,0.22639160943398789,0.2036898288695568
-0.00045801000000000001,0.22672248874575138,0.20368982886955667
-0.00045737999999999985,0.22705336805751475,0.20368982886955667
-0.00045675000000000012,0.22804600599280483,0.2033568562566021
-0.00045611999999999996,0.22771512668104146,0.20368982886955667
-0.0004554899999999998,0.22738424736927812,0.20402280148251151
-0.00045486000000000007,0.22738424736927812,0.20468874670842033
-0.00045422999999999991,0.22771512668104146,0.20468874670842033
-0.00045360000000000018,0.22771512668104146,0.20402280148251151
-0.00045297000000000002,0.22804600599280483,0.2040228014825112
-0.00045233999999999986,0.22870776461633155,0.20435577409546576
-0.00045171000000000013,0.22936952323985829,0.20435577409546576
-0.00045107999999999997,0.22903864392809492,0.20435577409546576
-0.00045044999999999981,0.22903864392809506,0.20468874670842002
-0.00044982000000000008,0.22936952323985829,0.2040228014825112
-0.00044918999999999992,0.22936952323985829,0.20435577409546576
-0.00044856000000000019,0.22936952323985829,0.20435577409546576
-0.00044793000000000003,0.22903864392809492,0.20435577409546576
-0.00044729999999999987,0.22903864392809492,0.20435577409546576
-0.00044667000000000014,0.22936952323985815,0.20435577409546576
-0.00044603999999999998,0.22903864392809492,0.2040228014825112
-0.00044540999999999982,0.22903864392809553,0.20402280148251106
-0.00044478000000000009,0.23036216117514838,0.20368982886955667
-0.00044414999999999993,0.23036216117514838,0.2040228014825112
-0.0004435200000000002,0.23069304048691161,0.2040228014825112
-0.00044289000000000004,0.22903864392809492,0.20368982886955667
-0.00044225999999999988,0.23003128186338501,0.20368982886955667
-0.00044163000000000015,0.2297004025516218,0.20368982886955667
-0.00044099999999999999,0.23069304048691175,0.20368982886955667
-0.00044036999999999982,0.23003128186338515,0.20402280148251134
-0.0004397400000000001,0.23036216117514838,0.20435577409546576
-0.00043910999999999993,0.23102391979867509,0.20435577409546576
-0.00043848000000000021,0.23069304048691189,0.20435577409546576
-0.00043785000000000004,0.23036216117514838,0.20435577409546576
-0.00043721999999999988,0.23102391979867509,0.2040228014825112
-0.00043659000000000016,0.23168567842220153,0.2036898288695568
-0.00043595999999999999,0.23201655773396518,0.20368982886955667
-0.00043532999999999983,0.23234743704572841,0.20368982886955667
-0.0004347000000000001,0.23201655773396518,0.20368982886955667
-0.00043406999999999994,0.23201655773396518,0.20435577409546576
-0.00043343999999999978,0.23201655773396504,0.2040228014825112
-0.00043281000000000005,0.23168567842220184,0.2040228014825112
-0.00043217999999999989,0.23267831635749192,0.2033568562566021
-0.00043155000000000016,0.23400183360454477,0.2033568562566021
-0.00043092,0.23334007498101864,0.20368982886955667
-0.00043028999999999984,0.23300919566925526,0.20335685625660224
-0.00042966000000000011,0.23300919566925526,0.20368982886955667
-0.00042902999999999995,0.23367095429278201,0.2040228014825112
-0.00042839999999999979,0.23334007498101864,0.2043557740954659
-0.00042777000000000006,0.23334007498101864,0.20468874670842033
-0.0004271399999999999,0.23300919566925526,0.20468874670842033
-0.00042651000000000017,0.23300919566925526,0.20468874670842033
-0.00042588000000000001,0.23300919566925526,0.20468874670842033
-0.00042524999999999985,0.23367095429278201,0.20435577409546576
-0.00042462000000000012,0.23367095429278201,0.20435577409546576
-0.00042398999999999996,0.23433271291630872,0.20368982886955667
-0.0004233599999999998,0.23433271291630842,0.20435577409546576
-0.00042273000000000007,0.23367095429278201,0.20435577409546576
-0.00042209999999999991,0.23300919566925526,0.20435577409546576
-0.00042147000000000018,0.2333400749810185,0.20468874670842019
-0.00042084000000000002,0.23367095429278201,0.20435577409546576
-0.00042020999999999985,0.23367095429278201,0.2040228014825112
-0.00041958000000000013,0.23466359222807209,0.20368982886955667
-0.00041894999999999996,0.23466359222807209,0.20368982886955667
-0.0004183199999999998,0.23433271291630858,0.20368982886955667
-0.00041769000000000008,0.23400183360454538,0.20368982886955667
-0.00041705999999999991,0.23367095429278201,0.20368982886955667
-0.00041643000000000019,0.23466359222807165,0.20402280148251106
-0.00041580000000000002,0.23466359222807209,0.20368982886955667
-0.00041516999999999986,0.23499447153983546,0.20368982886955667
-0.00041454000000000013,0.23598710947512555,0.20368982886955667
-0.00041390999999999997,0.23598710947512555,0.20435577409546576
-0.00041327999999999981,0.23565623016336218,0.20435577409546576
-0.00041265000000000008,0.23565623016336218,0.20435577409546576
-0.00041201999999999992,0.23565623016336218,0.2040228014825112
-0.00041139000000000019,0.23631798878688859,0.2040228014825112
-0.00041076000000000003,0.23664886809865227,0.2040228014825112
-0.00041012999999999987,0.23697974741041564,0.20435577409546576
-0.00040950000000000014,0.2363179887868892,0.20435577409546576
-0.00040886999999999998,0.23598710947512555,0.2040228014825112
-0.00040823999999999982,0.23565623016336187,0.2040228014825112
-0.00040761000000000009,0.23499447153983546,0.2040228014825112
-0.00040697999999999993,0.23598710947512555,0.20435577409546576
-0.0004063500000000002,0.23697974741041519,0.20435577409546576
-0.00040572000000000004,0.23731062672217898,0.2040228014825112
-0.00040508999999999988,0.23697974741041564,0.2040228014825112
-0.00040446000000000015,0.2366488680986524,0.2040228014825112
-0.00040382999999999999,0.23598710947512555,0.2040228014825112
-0.00040319999999999983,0.23697974741041578,0.2040228014825112
-0.0004025700000000001,0.23731062672217898,0.2040228014825112
-0.00040193999999999994,0.23697974741041564,0.20435577409546576
-0.00040131000000000021,0.23697974741041564,0.20402280148251134
-0.00040068000000000005,0.23697974741041564,0.20368982886955667
-0.00040004999999999988,0.23731062672217898,0.2040228014825112
-0.00039942000000000016,0.23797238534570542,0.2040228014825112
-0.00039879,0.23764150603394235,0.20368982886955667
-0.00039815999999999983,0.23797238534570558,0.20368982886955667
-0.00039753000000000011,0.23764150603394235,0.20368982886955667
-0.00039689999999999994,0.23797238534570572,0.2033568562566021
-0.00039626999999999978,0.23830326465746879,0.20335685625660224
-0.00039564000000000005,0.23764150603394235,0.20368982886955667
-0.00039500999999999989,0.23797238534570572,0.2040228014825112
-0.00039438000000000016,0.23797238534570572,0.20435577409546563
-0.00039375,0.23797238534570572,0.2040228014825112
-0.00039311999999999984,0.23797238534570572,0.2040228014825112
-0.00039249000000000011,0.23797238534570572,0.2040228014825112
-0.00039185999999999995,0.23830326465746909,0.2040228014825112
-0.00039122999999999979,0.23896502328099625,0.2040228014825112
-0.00039060000000000006,0.23995766121628589,0.2040228014825112
-0.0003899699999999999,0.23995766121628589,0.20368982886955667
-0.00038934000000000017,0.23995766121628589,0.20402280148251106
-0.00038871000000000001,0.23995766121628589,0.20435577409546576
-0.00038807999999999985,0.23929590259275887,0.2040228014825112
-0.00038745000000000012,0.23863414396923244,0.2040228014825112
-0.00038681999999999996,0.23863414396923244,0.20368982886955667
-0.0003861899999999998,0.23896502328099581,0.20368982886955667
