Final Project/PHYS605-FinalProj-SineOpampVoltageAsymm.csv

#Digilent WaveForms Oscilloscope Acquisition
#Device Name: Alan
#Serial Number: SN:210321A3716A
#Date Time: 2024-05-02 16:04:05.052
#Sample rate: 1.5873e+06Hz
#Samples: 8192
#Trigger: Source: Channel 1 Type: Edge Condition: Rising Level: -150 mV Hyst.: Auto HoldOff: 0 s
#Channel 1: Range: 200 mV/div Offset: 0 V
#Channel 2: Range: 200 mV/div Offset: 0 V

Time (s),Channel 1 (V),Channel 2 (V)
-0.00058085999999999988,-0.021436995076770639,-0.33239607798727561
-0.00058023000000000016,-0.022429633012060277,-0.33306202321318445
-0.00057959999999999999,-0.023091391635587454,-0.33406094105204837
-0.00057896999999999983,-0.022760512323824238,-0.33306202321318518
-0.0005783400000000001,-0.023091391635587454,-0.33406094105204837
-0.00057770999999999994,-0.02408402957087754,-0.33472688627795749
-0.00057708000000000021,-0.02408402957087754,-0.33539283150386634
-0.00057645000000000005,-0.024414908882640904,-0.33572580411682118
-0.00057581999999999989,-0.024745788194404265,-0.33505985889091205
-0.00057519000000000016,-0.024745788194404265,-0.3357258041168209
-0.00057456,-0.025738426129694354,-0.33672472195568481
-0.00057392999999999984,-0.026400184753221229,-0.33705769456863999
-0.00057330000000000011,-0.02673106406498444,-0.33838958502045757
-0.00057266999999999995,-0.025738426129694354,-0.3377236397945485
-0.00057203999999999979,-0.026731064064984891,-0.3387225576334123
-0.00057141000000000006,-0.02772370200027453,-0.3390555302463667
-0.0005707799999999999,-0.02772370200027453,-0.3390555302463667
-0.00057015000000000017,-0.027061943376748106,-0.33705769456864026
-0.00056952000000000001,-0.027392822688511169,-0.33805661240750301
-0.00056888999999999985,-0.028054581312038043,-0.33905553024636625
-0.00056826000000000012,-0.028385460623801255,-0.33805661240750301
-0.00056762999999999996,-0.028385460623801255,-0.33872255763341214
-0.0005669999999999998,-0.029708977870854556,-0.34005444808523078
-0.00056637000000000007,-0.029378098559091344,-0.34105336592409402
-0.00056573999999999991,-0.029378098559091344,-0.34038742069818489
-0.00056511000000000018,-0.029378098559091344,-0.3400544480852305
-0.00056448000000000002,-0.029708977870854705,-0.34038742069818489
-0.00056384999999999985,-0.030701615806145097,-0.34138633853704875
-0.00056322000000000013,-0.03136337442967152,-0.34171931115000315
-0.00056258999999999997,-0.031032495117908156,-0.34138633853704858
-0.0005619599999999998,-0.031363374429671818,-0.34171931115000359
-0.00056133000000000008,-0.032025133053198249,-0.34271822898886678
-0.00056069999999999991,-0.032025133053198249,-0.34238525637591222
-0.00056007000000000019,-0.031363374429671818,-0.34171931115000342
-0.00055944000000000002,-0.033017770988488335,-0.34238525637591222
-0.00055880999999999986,-0.033017770988488335,-0.34338417421477591
-0.00055818000000000013,-0.033348650300251699,-0.34338417421477591
-0.00055754999999999997,-0.034010408923778421,-0.34405011944068503
-0.00055691999999999981,-0.034010408923779024,-0.3440501194406852
-0.00055629000000000008,-0.035333926170831871,-0.34438309205363954
-0.00055565999999999992,-0.035664805482595235,-0.34504903727954866
-0.00055503000000000019,-0.035664805482595235,-0.34571498250545751
-0.00055440000000000003,-0.0359956847943586,-0.34604795511841235
-0.00055376999999999987,-0.036657443417885321,-0.34638092773136686
-0.00055314000000000014,-0.036657443417885321,-0.34604795511841235
-0.00055250999999999998,-0.036326564106121957,-0.34671390034432142
-0.00055187999999999982,-0.036988322729648838,-0.34704687295727599
-0.00055125000000000009,-0.03731920204141205,-0.34704687295727599
-0.00055061999999999993,-0.037650081353175414,-0.34737984557023055
-0.0005499900000000002,-0.037980960664938619,-0.34771281818318495
-0.00054936000000000004,-0.038311839976702136,-0.34771281818318511
-0.00054872999999999988,-0.038311839976702136,-0.34704687295727599
-0.00054810000000000015,-0.038973598600228566,-0.34837876340909363
-0.00054746999999999999,-0.038973598600228865,-0.34771281818318511
-0.00054683999999999983,-0.039635357223755885,-0.34904470863500359
-0.0005462100000000001,-0.040297115847282315,-0.34971065386091243
-0.00054557999999999994,-0.039635357223755587,-0.34937768124795787
-0.00054495000000000021,-0.039635357223755587,-0.35004362647386672
-0.00054432000000000005,-0.040627995159045673,-0.350043626473867
-0.00054368999999999989,-0.040958874470809037,-0.35070957169977607
-0.00054306000000000016,-0.039966236535519402,-0.35037659908682173
-0.00054243,-0.040627995159045673,-0.35037659908682156
-0.00054179999999999983,-0.041951512406099276,-0.35004362647386744
-0.00054117000000000011,-0.042282391717862487,-0.35104254431273063
-0.00054053999999999994,-0.041951512406099123,-0.35137551692568519
-0.00053991000000000022,-0.041951512406099123,-0.35070957169977635
-0.00053928000000000005,-0.042613271029625852,-0.35137551692568519
-0.00053864999999999989,-0.042613271029625852,-0.35170848953863976
-0.00053802000000000016,-0.04228239171786264,-0.35170848953863976
-0.00053739,-0.04327502965315258,-0.35237443476454888
-0.00053675999999999984,-0.043936788276679753,-0.35304037999045823
-0.00053613000000000011,-0.044929426211969388,-0.35370632521636708
-0.00053549999999999995,-0.045260305523732752,-0.35403929782932164
-0.00053486999999999979,-0.044267667588442819,-0.35370632521636708
-0.00053424000000000006,-0.044598546900206031,-0.35370632521636708
-0.0005336099999999999,-0.045260305523732752,-0.35370632521636708
-0.00053298000000000017,-0.046583822770785599,-0.35537118828113906
-0.00053235000000000001,-0.047245581394312931,-0.35603713350704896
-0.00053171999999999985,-0.046583822770786501,-0.35537118828114028
-0.00053109000000000012,-0.047245581394312931,-0.35637010612000353
-0.00053045999999999996,-0.047245581394312931,-0.3557041608940944
-0.0005298299999999998,-0.04724558139431323,-0.35503821566818572
-0.00052920000000000007,-0.047907340017839653,-0.35603713350704896
-0.00052856999999999991,-0.049230857264893103,-0.35670307873295809
-0.00052794000000000018,-0.049561736576656315,-0.35703605134591243
-0.00052731000000000002,-0.048899977953129746,-0.35736902395886716
-0.00052667999999999986,-0.049230857264893103,-0.35736902395886716
-0.00052605000000000013,-0.049230857264893103,-0.35736902395886716
-0.00052541999999999997,-0.049561736576656468,-0.3570360513459126
-0.00052478999999999981,-0.049892615888420436,-0.35803496918477629
-0.00052416000000000008,-0.051216133135473282,-0.35803496918477629
-0.00052352999999999992,-0.050885253823709918,-0.35870091441068541
-0.00052290000000000019,-0.051547012447236348,-0.3593668596365942
-0.00052227000000000003,-0.051216133135473282,-0.35870091441068541
-0.00052163999999999986,-0.051216133135473282,-0.35903388702363997
-0.00052101000000000014,-0.051547012447236647,-0.35936685963659448
-0.00052037999999999997,-0.051877891759000004,-0.35936685963659448
-0.00051974999999999981,-0.051877891759000157,-0.35936685963659448
-0.00051912000000000008,-0.052208771070763368,-0.35936685963659448
-0.00051848999999999992,-0.052870529694290097,-0.36036577747545817
-0.0005178600000000002,-0.052870529694290097,-0.36003280486250377
-0.00051723000000000003,-0.053532288317816819,-0.3610317227013673
-0.00051659999999999987,-0.053863167629580183,-0.3613646953143218
-0.00051597000000000014,-0.054855805564869818,-0.36203064054023065
-0.00051533999999999998,-0.054524926253106912,-0.36169766792727637
-0.00051470999999999982,-0.055186684876633481,-0.36269658576614022
-0.00051408000000000009,-0.054855805564870269,-0.36302955837909462
-0.00051344999999999993,-0.055186684876633633,-0.36269658576614006
-0.0005128200000000002,-0.055186684876633633,-0.36203064054023121
-0.00051219000000000004,-0.056841081435450448,-0.36369550360500369
-0.00051155999999999988,-0.056510202123687084,-0.36336253099204913
-0.00051093000000000015,-0.056841081435450296,-0.36336253099204913
-0.00051029999999999999,-0.05617932281192372,-0.36336253099204913
-0.00050966999999999983,-0.056179322811924018,-0.36369550360500352
-0.0005090400000000001,-0.056841081435450448,-0.36336253099204913
-0.00050840999999999994,-0.058164598682503899,-0.3653603666697765
-0.00050778000000000021,-0.057502840058977468,-0.36402847621795886
-0.00050715000000000005,-0.057833719370740534,-0.36502739405682194
-0.00050651999999999989,-0.058495477994267263,-0.3653603666697765
-0.00050589000000000016,-0.058495477994267263,-0.36469442144386766
-0.00050526,-0.058164598682503899,-0.36402847621795825
-0.00050462999999999984,-0.058826357306030926,-0.36436144883091309
-0.00050400000000000011,-0.059488115929557349,-0.36502739405682194
-0.00050336999999999995,-0.059818995241320713,-0.36602631189568557
-0.00050273999999999978,-0.060811633176610799,-0.36669225712159498
-0.00050211000000000006,-0.060811633176610799,-0.36735820234750383
-0.00050147999999999989,-0.061142512488374164,-0.36635928450864014
-0.00050085000000000017,-0.061142512488374164,-0.36702522973454899
-0.00050022,-0.061473391800137528,-0.36702522973454926
-0.00049958999999999984,-0.062796909047191124,-0.36835712018636807
-0.00049896000000000012,-0.063127788358954343,-0.36968901063818566
-0.00049832999999999995,-0.063127788358954343,-0.36902306541227659
-0.00049769999999999979,-0.062135150423664548,-0.36802414757341317
-0.00049707000000000006,-0.062796909047190971,-0.36869009279932202
-0.0004964399999999999,-0.06213515042366425,-0.36835712018636746
-0.00049581000000000017,-0.062796909047190666,-0.3693560380252307
-0.00049518000000000001,-0.062796909047190971,-0.36902306541227659
-0.00049454999999999985,-0.064120426294244887,-0.37002198325114005
-0.00049392000000000012,-0.065113064229534515,-0.36968901063818566
-0.00049328999999999996,-0.065443943541297872,-0.37068792847704934
-0.0004926599999999998,-0.064451305606008091,-0.36935603802523143
-0.00049203000000000007,-0.065113064229534515,-0.37002198325114022
-0.00049139999999999991,-0.065113064229534515,-0.37002198325114022
-0.00049077000000000018,-0.065774822853060938,-0.37068792847704907
-0.00049014000000000002,-0.066436581476587972,-0.37135387370295847
-0.00048950999999999986,-0.066767460788351329,-0.37201981892886754
-0.00048888000000000013,-0.067429219411878058,-0.37168684631591303
-0.00048824999999999997,-0.067098340100114687,-0.37201981892886754
-0.00048761999999999981,-0.067098340100115145,-0.37135387370295891
-0.00048699000000000008,-0.068090978035404773,-0.3723527915418221
-0.00048635999999999992,-0.068090978035404773,-0.37168684631591303
-0.00048573000000000019,-0.068421857347167991,-0.37268576415477622
-0.00048510000000000003,-0.068752736658931501,-0.37268576415477667
-0.00048446999999999987,-0.068752736658931501,-0.37268576415477667
-0.00048384000000000014,-0.069083615970694873,-0.37268576415477667
-0.00048320999999999998,-0.069083615970694873,-0.37335170938068579
-0.00048257999999999981,-0.070076253905985264,-0.37435062721954987
-0.00048195000000000009,-0.070738012529511687,-0.37534954505841311
-0.00048131999999999992,-0.070407133217748316,-0.37435062721954943
-0.0004806900000000002,-0.070738012529511535,-0.37501657244545827
-0.00048006000000000004,-0.071068891841275045,-0.37468359983250399
-0.00047942999999999987,-0.070738012529511687,-0.37401765460659486
-0.00047880000000000015,-0.071068891841274892,-0.37435062721954926
-0.00047816999999999998,-0.071399771153038402,-0.37501657244545855
-0.00047753999999999982,-0.072061529776565589,-0.37601549028432235
-0.00047691000000000009,-0.073054167711855217,-0.37634846289727675
-0.00047627999999999993,-0.073715926335381946,-0.37634846289727675
-0.0004756500000000002,-0.072723288400092317,-0.37601549028432235
-0.00047502000000000004,-0.073054167711855217,-0.37568251767136768
-0.00047438999999999988,-0.073385047023618588,-0.37634846289727675
-0.00047376000000000015,-0.073715926335381793,-0.3770144081231856
-0.00047312999999999999,-0.074377684958908674,-0.37701440812318587
-0.00047249999999999983,-0.075370322894198608,-0.37768035334909528
-0.0004718700000000001,-0.075039443582435403,-0.37834629857500407
-0.00047123999999999994,-0.074708564270672032,-0.37734738073614044
-0.00047061000000000021,-0.07503944358243525,-0.37801332596204928
-0.00046998000000000005,-0.07537032289419876,-0.377680353349095
-0.00046934999999999989,-0.075701202205962118,-0.377680353349095
-0.00046872000000000016,-0.076362960829488541,-0.37834629857500379
-0.00046809,-0.076693840141252204,-0.3790122438009132
-0.00046745999999999984,-0.076693840141252509,-0.37834629857500424
-0.00046683000000000011,-0.077355598764778932,-0.37867927118795863
-0.00046619999999999995,-0.077024719453015575,-0.37934521641386776
-0.00046556999999999979,-0.077024719453015728,-0.37867927118795891
-0.00046494000000000006,-0.077355598764778932,-0.37934521641386776
-0.0004643099999999999,-0.077686478076542304,-0.37934521641386776
-0.00046368000000000017,-0.077686478076542304,-0.37934521641386776
-0.00046305000000000001,-0.077686478076542304,-0.38001116163977688
-0.00046241999999999985,-0.078017357388305508,-0.38001116163977705
-0.00046179000000000012,-0.077686478076542304,-0.38034413425273139
-0.00046115999999999996,-0.07867911601183239,-0.38067710686568595
-0.00046052999999999979,-0.0790099953235959,-0.3810100794786408
-0.00045990000000000007,-0.079340874635359104,-0.38167602470454964
-0.0004592699999999999,-0.079340874635359104,-0.38067710686568595
-0.00045864000000000018,-0.080333512570648746,-0.38101007947864035
-0.00045801000000000001,-0.080664391882412562,-0.38234196993045877
-0.00045737999999999985,-0.08132615050593929,-0.3833408877693224
-0.00045675000000000012,-0.081657029817702648,-0.38234196993045877
-0.00045611999999999996,-0.082318788441229376,-0.3833408877693224
-0.0004554899999999998,-0.081987909129465714,-0.38300791515636756
-0.00045486000000000007,-0.08132615050593929,-0.38234196993045877
-0.00045422999999999991,-0.081657029817702648,-0.38267494254341328
-0.00045360000000000018,-0.082649667752992276,-0.38334088776932213
-0.00045297000000000002,-0.082980547064756105,-0.3833408877693224
-0.00045233999999999986,-0.08364230568828282,-0.38400683299523153
-0.00045171000000000013,-0.084304064311809548,-0.38567169606000429
-0.00045107999999999997,-0.08364230568828282,-0.38400683299523153
-0.00045044999999999981,-0.083311426376519462,-0.38433980560818592
-0.00044982000000000008,-0.083311426376519462,-0.38400683299523153
-0.00044918999999999992,-0.08463494362357292,-0.38500575083409516
-0.00044856000000000019,-0.085296702247099329,-0.38533872344704956
-0.00044793000000000003,-0.085296702247099634,-0.38567169606000429
-0.00044729999999999987,-0.08463494362357292,-0.3846727782211406
-0.00044667000000000014,-0.084965822935336124,-0.3846727782211406
-0.00044603999999999998,-0.084965822935336277,-0.38533872344704972
-0.00044540999999999982,-0.084965822935336582,-0.38467277822114104
-0.00044478000000000009,-0.085627581558863006,-0.38567169606000429
-0.00044414999999999993,-0.086289340182389734,-0.38633764128591341
-0.0004435200000000002,-0.086620219494152939,-0.38667061389886775
-0.00044289000000000004,-0.08728197811767982,-0.38667061389886792
-0.00044225999999999988,-0.087943736741206535,-0.38766953173773161
-0.00044163000000000015,-0.08761285742944333,-0.38766953173773161
-0.00044099999999999999,-0.088274616052969906,-0.38800250435068617
-0.00044036999999999982,-0.088605495364733264,-0.38833547696364057
-0.0004397400000000001,-0.088605495364733264,-0.38800250435068617
-0.00043910999999999993,-0.088605495364733264,-0.38766953173773161
-0.00043848000000000021,-0.08794373674120684,-0.38700358651182276
-0.00043785000000000004,-0.088274616052969906,-0.38633764128591341
-0.00043721999999999988,-0.087943736741206535,-0.38733655912477705
-0.00043659000000000016,-0.089267253988259396,-0.3880025043506859
-0.00043595999999999999,-0.089929012611786721,-0.38766953173773161
-0.00043532999999999983,-0.090259891923550079,-0.38800250435068645
-0.0004347000000000001,-0.090259891923550079,-0.3886684495765953
-0.00043406999999999994,-0.09059077123531345,-0.38833547696364074
-0.00043343999999999978,-0.09125252985884047,-0.38866844957659591
-0.00043281000000000005,-0.091914288482366893,-0.39000034002841349
-0.00043217999999999989,-0.092245167794130251,-0.39066628525432262
-0.00043155000000000016,-0.092576047105893469,-0.38933439480250498
-0.00043092,-0.092245167794130251,-0.39000034002841349
-0.00043028999999999984,-0.092245167794130098,-0.3896673674154591
-0.00042966000000000011,-0.091914288482366893,-0.39000034002841349
-0.00042902999999999995,-0.092906926417656979,-0.39000034002841349
-0.00042839999999999979,-0.092906926417656979,-0.39033331264136834
-0.00042777000000000006,-0.092906926417656979,-0.39099925786727713
-0.0004271399999999999,-0.094230443664710437,-0.39099925786727713
-0.00042651000000000017,-0.093568685041184013,-0.39099925786727713
-0.00042588000000000001,-0.093568685041183708,-0.39066628525432262
-0.00042524999999999985,-0.094561322976473794,-0.39133223048023141
-0.00042462000000000012,-0.094561322976473794,-0.39066628525432262
-0.00042398999999999996,-0.094561322976473794,-0.39099925786727713
-0.0004233599999999998,-0.095223081600000523,-0.39199817570614065
-0.00042273000000000007,-0.095223081600000523,-0.39166520309318625
-0.00042209999999999991,-0.095884840223527251,-0.39199817570614082
-0.00042147000000000018,-0.095223081600000828,-0.39166520309318642
-0.00042084000000000002,-0.09555396091176388,-0.39199817570614082
-0.00042020999999999985,-0.095884840223527251,-0.39166520309318625
-0.00041958000000000013,-0.09555396091176388,-0.39199817570614082
-0.00041894999999999996,-0.095884840223527251,-0.39166520309318625
-0.0004183199999999998,-0.096215719535290914,-0.3913322304802323
-0.00041769000000000008,-0.096877478158817337,-0.39266412093204994
-0.00041705999999999991,-0.096877478158817337,-0.39266412093204994
-0.00041643000000000019,-0.097208357470580542,-0.39266412093204994
-0.00041580000000000002,-0.096877478158817337,-0.39299709354500445
-0.00041516999999999986,-0.096546598847053966,-0.39233114831909538
-0.00041454000000000013,-0.097539236782344066,-0.39399601138386814
-0.00041390999999999997,-0.098200995405870781,-0.39366303877091358
-0.00041327999999999981,-0.099193633341160867,-0.39399601138386797
-0.00041265000000000008,-0.099193633341160867,-0.39366303877091358
-0.00041201999999999992,-0.099524512652924238,-0.39466195660977726
-0.00041139000000000019,-0.099524512652924238,-0.39432898399682287
-0.00041076000000000003,-0.10051715058821432,-0.39532790183568634
-0.00041012999999999987,-0.099855391964687595,-0.39499492922273183
-0.00040950000000000014,-0.10051715058821402,-0.39532790183568617
-0.00040886999999999998,-0.10018627127645097,-0.3943289839968227
-0.00040823999999999982,-0.099855391964687748,-0.39432898399682254
-0.00040761000000000009,-0.10018627127645097,-0.39399601138386814
-0.00040697999999999993,-0.10217154714703114,-0.39532790183568634
-0.0004063500000000002,-0.10217154714703114,-0.39566087444864073
-0.00040572000000000004,-0.10184066783526778,-0.39532790183568634
-0.00040508999999999988,-0.10084802989997768,-0.3943289839968227
-0.00040446000000000015,-0.1011789092117409,-0.3943289839968227
-0.00040382999999999999,-0.10184066783526778,-0.39532790183568634
-0.00040319999999999983,-0.1025024264587945,-0.3963268196745503
-0.0004025700000000001,-0.1025024264587945,-0.39699276490045915
-0.00040193999999999994,-0.10349506439408458,-0.39732573751341366
-0.00040131000000000021,-0.10316418508232138,-0.39699276490045932
-0.00040068000000000005,-0.10283330577055787,-0.39699276490045915
-0.00040004999999999988,-0.10217154714703114,-0.39532790183568634
-0.00039942000000000016,-0.10316418508232077,-0.39632681967454958
-0.00039879,-0.10316418508232122,-0.39599384706159546
-0.00039815999999999983,-0.10382594370584811,-0.39699276490045898
-0.00039753000000000011,-0.10415682301761131,-0.39665979228750459
-0.00039689999999999994,-0.10415682301761131,-0.39632681967455002
-0.00039626999999999978,-0.10481858164113819,-0.39699276490045915
-0.00039564000000000005,-0.1051494609529014,-0.39699276490045915
