Final Project/PHYS605-FinalProj-SineTransistorVoltage1.csv

#Digilent WaveForms Oscilloscope Acquisition
#Device Name: Alan
#Serial Number: SN:210321A3716A
#Date Time: 2024-04-30 15:28:34.157
#Sample rate: 387597Hz
#Samples: 8192
#Trigger: Source: Channel 1 Type: Edge Condition: Rising Level: -150 mV Hyst.: Auto HoldOff: 0 s
#Channel 1: Range: 200 mV/div Offset: 0 V
#Channel 2: Range: 200 mV/div Offset: 0 V
#NOTE: Initial Input Output Wavegen Test for Transistor Amp

Time (s),Channel 1 (V),Channel 2 (V)
-0.0023286342857142869,-0.18919280614079553,0.33255023008296913
-0.0023260542857142866,-0.19117808201137571,0.33255023008296913
-0.0023234742857142863,-0.19250159925842916,0.33155131224410544
-0.002320894285714286,-0.19217071994666535,0.33221725747001501
-0.0023183142857142874,-0.19117808201137615,0.33321617530887782
-0.0023157342857142871,-0.19117808201137571,0.33354914792183277
-0.0023131542857142869,-0.19051632338784899,0.33388212053478733
-0.0023105742857142866,-0.19217071994666579,0.3328832026959237
-0.0023079942857142863,-0.19382511650548259,0.33221725747001457
-0.002305414285714286,-0.19448687512900964,0.33188428485705984
-0.0023028342857142874,-0.19514863375253574,0.33155131224410561
-0.0023002542857142871,-0.19448687512900933,0.33221725747001457
-0.0022976742857142868,-0.19448687512900933,0.33321617530887826
-0.0022950942857142866,-0.19448687512900933,0.33388212053478733
-0.0022925142857142863,-0.19481775444077271,0.33388212053478733
-0.002289934285714286,-0.19647215099958995,0.33255023008296886
-0.0022873542857142874,-0.19746478893487915,0.33188428485706029
-0.0022847742857142871,-0.19812654755840631,0.33155131224410544
-0.0022821942857142868,-0.19812654755840631,0.33121833963115094
-0.0022796142857142866,-0.19647215099958951,0.33354914792183277
-0.0022770342857142863,-0.19581039237606279,0.33388212053478733
-0.002274454285714286,-0.19680303031135318,0.33388212053478716
-0.0022718742857142874,-0.19746478893487929,0.33354914792183293
-0.0022692942857142871,-0.19878830618193305,0.33188428485706001
-0.0022667142857142868,-0.19945006480545976,0.33088536701819637
-0.0022641342857142865,-0.20011182342898651,0.33155131224410544
-0.0022615542857142863,-0.19978094411722314,0.33188428485706001
-0.002258974285714286,-0.19845742687016954,0.33388212053478733
-0.0022563942857142874,-0.19812654755840645,0.33388212053478733
-0.0022538142857142871,-0.19845742687016968,0.33388212053478733
-0.0022512342857142868,-0.19878830618193305,0.33321617530887826
-0.0022486542857142865,-0.20044270274074985,0.33155131224410544
-0.0022460742857142862,-0.20044270274074985,0.33155131224410544
-0.002243494285714286,-0.20077358205251261,0.33155131224410572
-0.0022409142857142874,-0.19945006480546038,0.33221725747001429
-0.0022383342857142871,-0.19911918549369642,0.33388212053478733
-0.0022357542857142868,-0.19878830618193305,0.33388212053478733
-0.0022331742857142865,-0.19978094411722314,0.3328832026959237
-0.0022305942857142862,-0.20011182342898651,0.33221725747001457
-0.0022280142857142859,-0.2014353406760398,0.33088536701819682
-0.0022254342857142874,-0.20110446136427673,0.33188428485705956
-0.0022228542857142871,-0.20110446136427659,0.33221725747001457
-0.0022202742857142868,-0.19978094411722314,0.3328832026959237
-0.0022176942857142865,-0.19878830618193305,0.33388212053478733
-0.0022151142857142862,-0.19945006480545976,0.33321617530887826
-0.0022125342857142859,-0.19945006480546007,0.33255023008296869
-0.0022099542857142874,-0.2001118234289862,0.33155131224410589
-0.0022073742857142871,-0.20143534067603994,0.33088536701819637
-0.0022047942857142868,-0.20077358205251322,0.33188428485706001
-0.0022022142857142865,-0.20011182342898651,0.33188428485706001
-0.0021996342857142862,-0.19878830618193305,0.33321617530887826
-0.0021970542857142859,-0.19812654755840692,0.33388212053478655
-0.0021944742857142874,-0.19945006480545915,0.33221725747001535
-0.0021918942857142871,-0.19978094411722314,0.33155131224410544
-0.0021893142857142868,-0.20044270274074985,0.33055239440524181
-0.0021867342857142865,-0.20044270274074985,0.32988644917933269
-0.0021841542857142862,-0.19878830618193305,0.33221725747001457
-0.0021815742857142859,-0.19845742687016893,0.33188428485706062
-0.0021789942857142874,-0.19680303031135363,0.33321617530887765
-0.0021764142857142871,-0.19680303031135288,0.33354914792183277
-0.0021738342857142868,-0.19812654755840631,0.33088536701819637
-0.0021712542857142865,-0.19845742687016968,0.33155131224410544
-0.0021686742857142862,-0.19878830618193305,0.33055239440524181
-0.0021660942857142859,-0.19779566824664252,0.33121833963115122
-0.0021635142857142874,-0.19680303031135332,0.33188428485705973
-0.0021609342857142871,-0.19547951306429942,0.3328832026959237
-0.0021583542857142868,-0.19448687512900933,0.33354914792183277
-0.0021557742857142865,-0.19547951306429942,0.33255023008296913
-0.0021531942857142862,-0.19514863375253605,0.33188428485706001
-0.0021506142857142859,-0.19547951306429973,0.33121833963115049
-0.0021480342857142874,-0.19614127168782583,0.33021942179228769
-0.0021454542857142871,-0.19415599581724596,0.33155131224410544
-0.0021428742857142868,-0.19316335788195588,0.33188428485706001
-0.0021402942857142865,-0.19217071994666579,0.3328832026959237
-0.0021377142857142862,-0.19150896132313908,0.33354914792183277
-0.0021351342857142859,-0.19250159925842902,0.33188428485706001
-0.0021325542857142873,-0.19217071994666593,0.33188428485706001
-0.0021299742857142871,-0.19217071994666579,0.33121833963115094
-0.0021273942857142868,-0.19217071994666579,0.33021942179228725
-0.0021248142857142865,-0.19018544407608562,0.33221725747001457
-0.0021222342857142862,-0.18952368545255888,0.33221725747001457
-0.0021196542857142859,-0.18753840958197901,0.33388212053478705
-0.0021170742857142873,-0.18820016820550514,0.33321617530887854
-0.002114494285714287,-0.18886192682903216,0.33155131224410544
-0.0021119142857142868,-0.18886192682903216,0.33055239440524181
-0.0021093342857142865,-0.18786928889374208,0.33055239440524181
-0.0021067542857142862,-0.18786928889374208,0.33088536701819637
-0.0021041742857142859,-0.18522225439963472,0.3325502300829693
-0.0021015942857142873,-0.18422961646434552,0.33288320269592353
-0.002099014285714287,-0.18356785784081836,0.3328832026959237
-0.0020964342857142867,-0.18389873715258173,0.33221725747001457
-0.0020938542857142865,-0.18422961646434508,0.33088536701819637
-0.0020912742857142862,-0.18389873715258173,0.33055239440524181
-0.0020886942857142859,-0.18389873715258112,0.33021942179228786
-0.0020861142857142873,-0.18257521990552888,0.33155131224410483
-0.002083534285714287,-0.18025906472318473,0.3328832026959237
-0.0020809542857142867,-0.17893554747613127,0.3328832026959237
-0.0020783742857142865,-0.17893554747613127,0.3328832026959237
-0.0020757942857142862,-0.17860466816436793,0.33155131224410544
-0.0020732142857142859,-0.1792664267878939,0.33055239440524165
-0.0020706342857142873,-0.17761203022907784,0.33021942179228725
-0.002068054285714287,-0.17794290954084119,0.33055239440524181
-0.0020654742857142867,-0.17628851298202439,0.33221725747001457
-0.0020628942857142864,-0.17430323711144421,0.33255023008296913
-0.0020603142857142862,-0.17364147848791747,0.3328832026959237
-0.0020577342857142876,-0.17331059917615427,0.33188428485706045
-0.0020551542857142873,-0.17264884055262739,0.33121833963115094
-0.002052574285714287,-0.17297971986439076,0.33021942179228725
-0.0020499942857142867,-0.17198708192910067,0.33055239440524181
-0.0020474142857142864,-0.17066356468204721,0.33121833963115094
-0.0020448342857142861,-0.16900916812322997,0.33188428485706029
-0.0020422542857142876,-0.16801653018794077,0.33255023008296886
-0.0020396742857142873,-0.16669301294088687,0.33221725747001457
-0.002037094285714287,-0.1663621336291235,0.33155131224410544
-0.0020345142857142867,-0.16669301294088687,0.33055239440524181
-0.0020319342857142864,-0.16669301294088687,0.32955347656637812
-0.0020293542857142861,-0.16437685775854272,0.33055239440524226
-0.0020267742857142876,-0.16305334051149048,0.331551312244105
-0.0020241942857142873,-0.16139894395267307,0.33221725747001457
-0.002021614285714287,-0.1594136680820929,0.33354914792183277
-0.0020190342857142867,-0.15974454739385624,0.33121833963115094
-0.0020164542857142864,-0.1594136680820929,0.33121833963115094
-0.0020138742857142861,-0.15908278877032939,0.32988644917933285
-0.0020112942857142876,-0.15875190945856629,0.33021942179228708
-0.0020087142857142873,-0.15676663358798598,0.33155131224410544
-0.002006134285714287,-0.15544311634093252,0.33188428485706001
-0.0020035542857142867,-0.1521343232232989,0.3328832026959237
-0.0020009742857142864,-0.15180344391153555,0.33255023008296913
-0.0019983942857142861,-0.15213432322329876,0.33088536701819637
-0.0019958142857142876,-0.15180344391153569,0.33088536701819637
-0.0019932342857142873,-0.1521343232232989,0.32955347656637812
-0.001990654285714287,-0.14948728872919201,0.33055239440524181
-0.0019880742857142867,-0.14717113354684846,0.33155131224410544
-0.0019854942857142864,-0.14551673698803166,0.33155131224410544
-0.0019829142857142861,-0.14320058180568826,0.33288320269592309
-0.0019803342857142876,-0.14353146111745133,0.33155131224410606
-0.0019777542857142873,-0.14320058180568812,0.33121833963115094
-0.001975174285714287,-0.14253882318216138,0.33055239440524181
-0.0019725942857142867,-0.14253882318216138,0.32955347656637812
-0.0019700142857142864,-0.13989178868805449,0.33088536701819637
-0.0019674342857142861,-0.13823739212923705,0.33155131224410572
-0.0019648542857142876,-0.13691387488218484,0.33221725747001429
-0.0019622742857142873,-0.13459771969984069,0.33321617530887826
-0.001959694285714287,-0.13459771969984069,0.33155131224410544
-0.0019571142857142867,-0.13426684038807732,0.33021942179228725
-0.0019545342857142864,-0.1336050817645506,0.32988644917933269
-0.0019519542857142861,-0.13261244382925902,0.32955347656637901
-0.0019493742857142875,-0.12930365071162839,0.33155131224410456
-0.0019467942857142873,-0.12798013346457343,0.33155131224410544
-0.001944214285714287,-0.1263257369057566,0.33321617530887826
-0.0019416342857142867,-0.12500221965870317,0.33221725747001457
-0.0019390542857142864,-0.12599485759399326,0.33021942179228725
-0.0019364742857142861,-0.12467134034693921,0.33055239440524137
-0.0019338942857142875,-0.12334782309988694,0.32955347656637857
-0.0019313142857142872,-0.12103166791754282,0.33055239440524181
-0.001928734285714287,-0.11871551273519927,0.33255023008296913
-0.0019261542857142867,-0.11772287479990919,0.33221725747001457
-0.0019235742857142864,-0.11573759892932901,0.33221725747001457
-0.0019209942857142861,-0.11573759892932917,0.33121833963115016
-0.0019184142857142875,-0.11606847824109222,0.3295534765663789
-0.0019158342857142872,-0.1140832023705122,0.32988644917933269
-0.0019132542857142869,-0.11309056443522211,0.32922050395342362
-0.0019106742857142867,-0.11077440925287857,0.33088536701819637
-0.0019080942857142864,-0.10845825407053503,0.33155131224410544
-0.0019055142857142861,-0.1064729781999544,0.33221725747001457
-0.0019029342857142875,-0.10548034026466523,0.33221725747001457
-0.0019003542857142872,-0.10581121957642813,0.33088536701819637
-0.0018977742857142869,-0.1051494609529014,0.32955347656637812
-0.0018951942857142866,-0.10448770232937468,0.32922050395342362
-0.0018926142857142864,-0.10217154714703114,0.32955347656637812
-0.0018900342857142861,-0.10018627127644961,0.33088536701819682
-0.0018874542857142875,-0.097208357470582055,0.33188428485705956
-0.0018848742857142872,-0.09555396091176388,0.33255023008296913
-0.0018822942857142869,-0.095223081600000523,0.33155131224410544
-0.0018797142857142866,-0.095223081600000523,0.33021942179228725
-0.0018771342857142864,-0.094892202288237151,0.32888753134046905
-0.0018745542857142861,-0.092576047105892567,0.32955347656637829
-0.0018719742857142875,-0.090259891923551133,0.32988644917933252
-0.0018693942857142872,-0.086951098805916449,0.33155131224410544
-0.0018668142857142869,-0.085627581558863006,0.3328832026959237
-0.0018642342857142866,-0.084304064311809548,0.33221725747001457
-0.0018616542857142863,-0.083973185000046191,0.33088536701819637
-0.0018590742857142861,-0.083642305688282362,0.32955347656637796
-0.0018564942857142875,-0.082649667752993192,0.32922050395342378
-0.0018539142857142872,-0.080002633258885833,0.32988644917933269
-0.0018513342857142869,-0.078348236700069018,0.33088536701819637
-0.0018487542857142866,-0.075039443582435403,0.33155131224410544
-0.0018461742857142863,-0.073385047023618588,0.33221725747001457
-0.001843594285714286,-0.073054167711854759,0.33055239440524165
-0.0018410142857142875,-0.072061529776565589,0.33021942179228742
-0.0018384342857142872,-0.071730650464801773,0.32888753134046905
-0.0018358542857142869,-0.070738012529511687,0.32922050395342362
-0.0018332742857142866,-0.067429219411878058,0.33021942179228725
-0.0018306942857142863,-0.065113064229534515,0.33088536701819637
-0.001828114285714286,-0.061804271111900733,0.33255023008296886
-0.0018255342857142875,-0.061473391800137681,0.33188428485706029
-0.0018229542857142872,-0.061142512488374164,0.33055239440524181
-0.0018203742857142869,-0.060480753864847435,0.32988644917933269
-0.0018177942857142866,-0.059488115929557349,0.32888753134046905
-0.0018152142857142863,-0.056841081435450448,0.32988644917933269
-0.001812634285714286,-0.054194046941342347,0.33088536701819682
-0.0018100542857142875,-0.051547012447237847,0.33188428485705956
-0.0018074742857142872,-0.049230857264893103,0.3328832026959237
-0.0018048942857142869,-0.049561736576656468,0.33121833963115094
-0.0018023142857142866,-0.048899977953129746,0.33088536701819637
-0.0017997342857142863,-0.047907340017839653,0.32922050395342362
-0.001797154285714286,-0.04757646070607463,0.32888753134046966
-0.0017945742857142875,-0.04393678827668096,0.33021942179228664
-0.0017919942857142872,-0.041620633094335766,0.33088536701819637
-0.0017894142857142869,-0.039304477911992222,0.33188428485706001
-0.0017868342857142866,-0.036657443417885321,0.33255023008296913
-0.0017842542857142863,-0.037650081353175414,0.33021942179228725
-0.001781674285714286,-0.036326564106121659,0.32955347656637768
-0.0017790942857142875,-0.035664805482595534,0.32855455872751493
-0.0017765142857142872,-0.034672167547305149,0.32855455872751449
-0.0017739342857142869,-0.030701615806144795,0.33121833963115094
-0.0017713542857142866,-0.02772370200027453,0.33088536701819637
-0.0017687742857142863,-0.025738426129694354,0.33221725747001457
-0.001766194285714286,-0.024414908882641206,0.33155131224410467
-0.0017636142857142875,-0.025076667506167327,0.32988644917933346
-0.0017610342857142872,-0.02408402957087754,0.32922050395342362
-0.0017584542857142869,-0.023422270947350814,0.32888753134046905
-0.0017558742857142866,-0.020444357141480549,0.32988644917933269
-0.0017532942857142863,-0.016804684712083563,0.33155131224410544
-0.001750714285714286,-0.015150288153265846,0.33155131224410572
-0.0017481342857142874,-0.013165012282687474,0.33221725747001429
-0.0017455542857142872,-0.01184149503563312,0.33055239440524181
-0.0017429742857142869,-0.012503253659159845,0.32922050395342362
-0.0017403942857142866,-0.011179736412106395,0.32922050395342362
-0.0017378142857142863,-0.0091944605415262195,0.32888753134046905
-0.001735234285714286,-0.0062165467356547505,0.33021942179228769
-0.0017326542857142874,-0.0035695122415502567,0.33121833963115049
-0.0017300742857142871,-0.0022459949944956025,0.33121833963115094
-0.0017274942857142869,7.0160187847936634e-05,0.33221725747001457
-0.0017249142857142866,-0.0012533570592055143,0.32988644917933269
-0.0017223342857142863,-0.00026071912391542607,0.32955347656637812
-0.001719754285714286,0.0017245567466656531,0.32888753134046922
-0.0017171742857142874,0.0037098326172440238,0.32922050395342345
-0.0017145942857142871,0.0070186257348785535,0.33121833963115094
-0.0017120142857142868,0.0093347809172220925,0.33188428485706001
-0.0017094342857142866,0.011650936099565631,0.33221725747001457
-0.0017068542857142863,0.012312694723092356,0.33155131224410544
-0.001704274285714286,0.011650936099565782,0.32955347656637768
-0.0017016942857142874,0.011981815411328842,0.32855455872751493
-0.0016991142857142871,0.014297970593672533,0.32888753134046905
-0.0016965342857142868,0.017275884399542796,0.33021942179228725
-0.0016939542857142866,0.020915556828939787,0.33188428485706001
-0.0016913742857142863,0.023231712011283327,0.33221725747001457
-0.001688794285714286,0.023893470634810354,0.33155131224410467
-0.0016862142857142874,0.024555229258336475,0.32988644917933346
-0.0016836342857142871,0.024555229258336777,0.32888753134046905
-0.0016810542857142868,0.026540505128916952,0.32822158611455993
-0.0016784742857142865,0.028194901687733767,0.32922050395342362
-0.0016758942857142863,0.030841936181840668,0.33021942179228725
-0.001673314285714286,0.034150729299475047,0.33121833963115077
-0.0016707342857142874,0.035805125858290356,0.33088536701819654
-0.0016681542857142871,0.036136005170054469,0.33021942179228725
-0.0016655742857142868,0.037128643105344562,0.32955347656637812
-0.0016629942857142865,0.037128643105344562,0.32855455872751449
-0.0016604142857142862,0.038452160352398013,0.32922050395342362
-0.001657834285714286,0.041099194846506114,0.32922050395342406
-0.0016552542857142874,0.043746229340610607,0.3302194217922868
-0.0016526742857142871,0.046724143146482079,0.33121833963115094
-0.0016500942857142868,0.047716781081772165,0.33088536701819637
-0.0016475142857142865,0.048378539705298894,0.32955347656637812
-0.0016449342857142862,0.048709419017062251,0.32855455872751449
-0.0016423542857142859,0.049702056952353545,0.32755564088865124
-0.0016397742857142874,0.052349091446458038,0.32855455872751405
-0.0016371942857142871,0.054996125940566146,0.32955347656637812
-0.0016346142857142868,0.057643160434673046,0.33055239440524181
-0.0016320342857142865,0.059959315617016583,0.33088536701819637
-0.0016294542857142862,0.059959315617016583,0.32955347656637812
-0.0016268742857142859,0.060290194928780245,0.32788861350160509
-0.0016242942857142874,0.060951953552306377,0.32722266827569652
-0.0016217142857142871,0.06260635011112349,0.3262237504368326
-0.0016191342857142868,0.065584263916993749,0.32888753134046905
-0.0016165542857142865,0.068562177722864021,0.32988644917933269
-0.0016139742857142862,0.070547453593444193,0.33021942179228725
-0.0016113942857142859,0.071870970840497483,0.32988644917933146
-0.0016088142857142874,0.071540091528734431,0.32722266827569746
-0.0016062342857142871,0.072863608775787736,0.32655672304978717
-0.0016036542857142868,0.072863608775787736,0.32522483259796892
-0.0016010742857142865,0.075179763958131265,0.32522483259796892
-0.0015984942857142862,0.078157677764001537,0.32822158611455993
-0.0015959142857142859,0.079812074322819559,0.32822158611456009
-0.0015933342857142874,0.082459108816924045,0.32855455872751432
-0.0015907542857142871,0.083451746752215339,0.32655672304978717
-0.0015881742857142868,0.082128229505161882,0.32489185998501441
-0.0015855942857142865,0.084113505375742068,0.32455888737205985
-0.0015830142857142862,0.084444384687505425,0.32322699692024159
-0.0015804342857142859,0.087422298493377487,0.32455888737206046
-0.0015778542857142874,0.091392850234534237,0.32589077782387743
-0.0015752742857142871,0.092385488169826127,0.32555780521092348
-0.0015726942857142868,0.09470164335216967,0.32589077782387804
-0.0015701142857142865,0.094370764040406299,0.32355996953319616
-0.0015675342857142862,0.094039884728642942,0.3218951064684234
-0.0015649542857142859,0.096025160599223114,0.32156213385546856
-0.0015623742857142874,0.096025160599223114,0.32089618862955971
-0.0015597942857142871,0.10032659165214683,0.32256105169433252
-0.0015572142857142868,0.10231186752272702,0.32256105169433252
-0.0015546342857142865,0.10429714339330719,0.3218951064684234
-0.0015520542857142862,0.10528978132859727,0.32156213385546883
-0.0015494742857142859,0.10462802270507085,0.31823240772592304
-0.0015468942857142873,0.10528978132859727,0.31756646250001419
-0.0015443142857142871,0.10727505719917745,0.31590159943524143
