Final Project/PHYS605-FinalProj-SineOpampVoltageSymm.csv

#Digilent WaveForms Oscilloscope Acquisition
#Device Name: Alan
#Serial Number: SN:210321A3716A
#Date Time: 2024-05-02 16:05:45.037
#Sample rate: 1.5873e+06Hz
#Samples: 8192
#Trigger: Source: Channel 1 Type: Edge Condition: Rising Level: -150 mV Hyst.: Auto HoldOff: 0 s
#Channel 1: Range: 200 mV/div Offset: 0 V
#Channel 2: Range: 200 mV/div Offset: 0 V

Time (s),Channel 1 (V),Channel 2 (V)
-0.00058085999999999988,0.18205378165769742,0.25596652910342166
-0.00058023000000000016,0.18139202303417101,0.25629950171637605
-0.00057959999999999999,0.18139202303417071,0.25629950171637622
-0.00057896999999999983,0.18172290234593419,0.25563355649046737
-0.0005783400000000001,0.18205378165769742,0.25629950171637622
-0.00057770999999999994,0.18073026441064396,0.25463463865160346
-0.00057708000000000021,0.18039938509888076,0.25330274819978582
-0.00057645000000000005,0.18039938509888062,0.2529697755868307
-0.00057581999999999989,0.18039938509888062,0.25263680297387614
-0.00057519000000000016,0.18006850578711739,0.25230383036092174
-0.00057456,0.17940674716359051,0.25230383036092158
-0.00057392999999999984,0.17907586785182761,0.25130491252205805
-0.00057330000000000011,0.18006850578711725,0.25163788513501245
-0.00057266999999999995,0.17874498854006379,0.24997302207023969
-0.00057203999999999979,0.17808322991653722,0.24930707684433043
-0.00057141000000000006,0.17841410922830042,0.24897410423137603
-0.0005707799999999999,0.17808322991653708,0.24864113161842147
-0.00057015000000000017,0.17709059198124744,0.24797518639251268
-0.00056952000000000001,0.17675971266948362,0.24697626855364871
-0.00056888999999999985,0.17642883335772039,0.24664329594069354
-0.00056826000000000012,0.17675971266948362,0.24531140548887592
-0.00056762999999999996,0.17675971266948362,0.24564437810183049
-0.0005669999999999998,0.17675971266948362,0.24631032332773944
-0.00056637000000000007,0.17675971266948362,0.24597735071478505
-0.00056573999999999991,0.17543619542243016,0.24464546026296682
-0.00056511000000000018,0.17510531611066693,0.24331356981114921
-0.00056448000000000002,0.17543619542243016,0.24397951503705773
-0.00056384999999999985,0.17510531611066679,0.24364654242410286
-0.00056322000000000013,0.17510531611066679,0.24298059719819404
-0.00056258999999999997,0.17477443679890345,0.24231465197228494
-0.0005619599999999998,0.1737817988636135,0.24031681629455806
-0.00056133000000000008,0.17411267817537671,0.24131573413342128
-0.00056069999999999991,0.17444355748714008,0.24098276152046672
-0.00056007000000000019,0.17345091955185044,0.24064978890751232
-0.00055944000000000002,0.17378179886361336,0.24098276152046672
-0.00055880999999999986,0.17345091955184999,0.23998384368160305
-0.00055818000000000013,0.17245828161655991,0.23865195322978486
-0.00055754999999999997,0.17245828161655991,0.23865195322978486
-0.00055691999999999981,0.17245828161655946,0.23865195322978425
-0.00055629000000000008,0.17146564368126982,0.23732006277796663
-0.00055565999999999992,0.17212740230479653,0.23698709016501207
-0.00055503000000000019,0.17179652299303333,0.23532222710024006
-0.00055440000000000003,0.17146564368126982,0.23498925448728475
-0.00055376999999999987,0.17113476436950645,0.23465628187433019
-0.00055314000000000014,0.17047300574597973,0.23465628187433019
-0.00055250999999999998,0.16914948849892628,0.23299141880955743
-0.00055187999999999982,0.1684877298753997,0.23165952835773951
-0.00055125000000000009,0.1688186091871629,0.23232547358364833
-0.00055061999999999993,0.16848772987539956,0.2316595283577392
-0.0005499900000000002,0.16914948849892597,0.23232547358364802
-0.00054936000000000004,0.16914948849892628,0.23199250097069377
-0.00054872999999999988,0.1688186091871629,0.2316595283577392
-0.00054810000000000015,0.16948036781068934,0.23132655574478478
-0.00054746999999999999,0.1688186091871629,0.22999466529296644
-0.00054683999999999983,0.16815685056363575,0.22966169268001144
-0.0005462100000000001,0.1671642126283461,0.22866277484114822
-0.00054557999999999994,0.16683333331658273,0.22766385700228456
-0.00054495000000000021,0.16617157469305632,0.22699791177637577
-0.00054432000000000005,0.16617157469305602,0.22633196655046633
-0.00054368999999999989,0.16650245400481936,0.2266649391634209
-0.00054306000000000016,0.16550981606952972,0.22500007609864886
-0.00054243,0.16517893675776593,0.22533304871160267
-0.00054179999999999983,0.16517893675776593,0.2250000760986475
-0.00054117000000000011,0.16517893675776593,0.22366818564682991
-0.00054053999999999994,0.16418629882247585,0.22266926780796625
-0.00053991000000000022,0.16451717813423905,0.22233629519501183
-0.00053928000000000005,0.16451717813423919,0.22200332258205713
-0.00053864999999999989,0.16484805744600256,0.22266926780796625
-0.00053802000000000016,0.16352454019894971,0.22200332258205743
-0.00053739,0.16286278157542239,0.22100440474319347
-0.00053675999999999984,0.16220102295189578,0.21933954167842071
-0.00053613000000000011,0.16253190226365902,0.21933954167842071
-0.00053549999999999995,0.16286278157542239,0.21900656906546614
-0.00053486999999999979,0.16286278157542239,0.21900656906546584
-0.00053424000000000006,0.16286278157542239,0.21834062383955705
-0.0005336099999999999,0.16319366088718576,0.21834062383955705
-0.00053298000000000017,0.16253190226365932,0.21767467861364823
-0.00053235000000000001,0.16153926432836893,0.21667576077478426
-0.00053171999999999985,0.16120838501660556,0.2153438703229662
-0.00053109000000000012,0.16120838501660556,0.2156768429359206
-0.00053045999999999996,0.16087750570484222,0.21434495248410237
-0.0005298299999999998,0.16021574708131534,0.21401197987114723
-0.00052920000000000007,0.15988486776955213,0.21268008941932962
-0.00052856999999999991,0.16087750570484222,0.21334603464523871
-0.00052794000000000018,0.15988486776955257,0.2123471168063755
-0.00052731000000000002,0.15988486776955213,0.21201414419342052
-0.00052667999999999986,0.15856135052249867,0.21034928112864773
-0.00052605000000000013,0.1582304712107353,0.20968333590273863
-0.00052541999999999997,0.1582304712107353,0.20968333590273863
-0.00052478999999999981,0.15856135052249837,0.20968333590273802
-0.00052416000000000008,0.15789959189897193,0.20835144545092041
-0.00052352999999999992,0.15889222983426204,0.20801847283796585
-0.00052290000000000019,0.15723783327544597,0.20602063716023944
-0.00052227000000000003,0.15690695396368184,0.20535469193432943
-0.00052163999999999986,0.15525255740486504,0.20302388364364754
-0.00052101000000000014,0.15624519534015513,0.2033568562566021
-0.00052037999999999997,0.15591431602839176,0.2033568562566021
-0.00051974999999999981,0.15558343671662811,0.20335685625660119
-0.00051912000000000008,0.15492167809310167,0.20135902057887478
-0.00051848999999999992,0.15525255740486504,0.20169199319182932
-0.0005178600000000002,0.15492167809310181,0.20102604796592052
-0.00051723000000000003,0.15459079878133833,0.20135902057887478
-0.00051659999999999987,0.15425991946957496,0.19969415751410199
-0.00051597000000000014,0.15392904015781173,0.1993611849011476
-0.00051533999999999998,0.15359816084604824,0.1983622670622838
-0.00051470999999999982,0.15326728153428487,0.19802929444932862
-0.00051408000000000009,0.15326728153428487,0.19669740399751101
-0.00051344999999999993,0.15326728153428487,0.19703037661046557
-0.0005128200000000002,0.15326728153428487,0.19669740399751115
-0.00051219000000000004,0.15359816084604824,0.19703037661046557
-0.00051155999999999988,0.15227464359899479,0.19503254093273825
-0.00051093000000000015,0.15128200566370514,0.19270173264205742
-0.00051029999999999999,0.15095112635194133,0.19170281480319271
-0.00050966999999999983,0.15128200566370426,0.19203578741614635
-0.0005090400000000001,0.15028936772841461,0.19003795173841992
-0.00050840999999999994,0.15062024704017796,0.18970497912546538
-0.00050778000000000021,0.15028936772841475,0.18870606128660217
-0.00050715000000000005,0.14995848841665124,0.18770714344773806
-0.00050651999999999989,0.14962760910488787,0.1873741708347835
-0.00050589000000000016,0.14896585048136146,0.18537633515705709
-0.00050526,0.14830409185783441,0.18404444470523795
-0.00050462999999999984,0.14830409185783441,0.18371147209228339
-0.00050400000000000011,0.14830409185783441,0.18371147209228339
-0.00050336999999999995,0.14863497116959778,0.18404444470523795
-0.00050273999999999978,0.14863497116959734,0.18337849947932794
-0.00050211000000000006,0.1476423332343077,0.18138066380160153
-0.00050147999999999989,0.14631881598725424,0.17904985551091965
-0.00050085000000000017,0.14631881598725424,0.17771796505910203
-0.00050022,0.14664969529901761,0.17805093767205599
-0.00049958999999999984,0.14598793667549059,0.17871688289796464
-0.00049896000000000012,0.14532617805196416,0.17771796505910142
-0.00049832999999999995,0.14565705736372753,0.17771796505910142
-0.00049769999999999979,0.14466441942843744,0.17671904722023732
-0.00049707000000000006,0.14466441942843744,0.1757201293813741
-0.0004964399999999999,0.14466441942843744,0.17405526631660134
-0.00049581000000000017,0.14499529874020067,0.17372229370364692
-0.00049518000000000001,0.14466441942843744,0.17405526631660134
-0.00049454999999999985,0.14400266080491084,0.17205743063887413
-0.00049392000000000012,0.14433354011667407,0.17239040325182856
-0.00049328999999999996,0.14334090218138398,0.17039256757410123
-0.0004926599999999998,0.14334090218138368,0.16906067712228209
-0.00049203000000000007,0.14267914355785727,0.16706284144455569
-0.00049139999999999991,0.14267914355785727,0.16672986883160112
-0.00049077000000000018,0.14201738493433083,0.16506500576682911
-0.00049014000000000002,0.1423482642460939,0.16439906054091927
-0.00048950999999999986,0.14135562631080381,0.16273419747614648
-0.00048888000000000013,0.14135562631080381,0.16106933441137372
-0.00048824999999999997,0.14102474699904044,0.16007041657251006
-0.00048761999999999981,0.14102474699904013,0.15940447134660063
-0.00048699000000000008,0.14036298837551373,0.15873852612069184
-0.00048635999999999992,0.14003210906375035,0.15740663566887361
-0.00048573000000000019,0.13937035044022394,0.15540879999114721
-0.00048510000000000003,0.13903947112846027,0.15407690953932807
-0.00048446999999999987,0.1387085918166969,0.15274501908750987
-0.00048384000000000014,0.13804683319317018,0.15108015602273708
-0.00048320999999999998,0.13771595388140681,0.14908232034500976
-0.00048257999999999981,0.13870859181669676,0.14908232034500976
-0.00048195000000000009,0.13837771250493355,0.14908232034500976
-0.00048131999999999992,0.13771595388140681,0.14775042989319154
-0.0004806900000000002,0.1370541952578804,0.14475367637660191
-0.00048006000000000004,0.13606155732259001,0.14242286808591867
-0.00047942999999999987,0.13573067801082664,0.14075800502114591
-0.00047880000000000015,0.13606155732258987,0.1390931419563739
-0.00047816999999999998,0.13539979869906327,0.13809422411750949
-0.00047753999999999982,0.13606155732258987,0.13709530627864519
-0.00047691000000000009,0.13573067801082664,0.1357634158268276
-0.00047627999999999993,0.13539979869906327,0.13409855276205482
-0.0004756500000000002,0.13440716076377363,0.13143477185841962
-0.00047502000000000004,0.13374540214024647,0.12976990879364561
-0.00047438999999999988,0.1334145228284831,0.12710612789000919
-0.00047376000000000015,0.13407628145200953,0.12510829221228278
-0.00047312999999999999,0.13374540214024647,0.12377640176046364
-0.00047249999999999983,0.13275276420495608,0.1214455934697807
-0.0004718700000000001,0.13209100558142967,0.11911478517909989
-0.00047123999999999994,0.13142924695790292,0.11611803166250891
-0.00047061000000000021,0.13076748833437651,0.11345425075887368
-0.00046998000000000005,0.13076748833437621,0.11079046985523604
-0.00046934999999999989,0.13076748833437621,0.10945857940341781
-0.00046872000000000016,0.13109836764613941,0.10845966156455461
-0.00046809,0.13076748833437621,0.10646182588682683
-0.00046745999999999984,0.13109836764613941,0.10546290804796196
-0.00046683000000000011,0.13076748833437621,0.10279912714432674
-0.00046619999999999995,0.13010572971084947,0.1001353462406903
-0.00046556999999999979,0.12878221246379604,0.09747156533705266
-0.00046494000000000006,0.12878221246379604,0.094807784433417433
-0.0004643099999999999,0.12878221246379604,0.091811030916826436
-0.00046368000000000017,0.1284513331520328,0.088814277400236813
-0.00046305000000000001,0.12845133315203267,0.08581752388364447
-0.00046241999999999985,0.12812045384026899,0.083486715592961683
-0.00046179000000000012,0.12745869521674258,0.081488879915235263
-0.00046115999999999996,0.12679693659321586,0.077493208559780605
-0.00046052999999999979,0.1271278159049789,0.07449645504318872
-0.00045990000000000007,0.12646605728145249,0.0724986193654623
-0.0004592699999999999,0.12580429865792575,0.069501865848871316
-0.00045864000000000018,0.12580429865792575,0.066172139719327283
-0.00045801000000000001,0.12514254003439904,0.062176468363871119
-0.00045737999999999985,0.12547341934616241,0.06017863268614379
-0.00045675000000000012,0.12414990209910895,0.057181879169552807
-0.00045611999999999996,0.12414990209910895,0.053186207814098156
-0.0004554899999999998,0.12414990209910895,0.049523509071596396
-0.00045486000000000007,0.12414990209910895,0.045860810329097959
-0.00045422999999999991,0.12348814347558222,0.04253108419955242
-0.00045360000000000018,0.1228263848520558,0.040200275908871604
-0.00045297000000000002,0.12282638485205549,0.036537577166370447
-0.00045233999999999986,0.12282638485205549,0.034539741488643118
-0.00045171000000000013,0.12249550554029214,0.03220893319796124
-0.00045107999999999997,0.12183374691676541,0.028879207068415697
-0.00045044999999999981,0.12117198829323853,0.024550563100004526
-0.00044982000000000008,0.12084110898147532,0.02022191913159729
-0.00044918999999999992,0.12084110898147532,0.01556030255023353
-0.00044856000000000019,0.12084110898147532,0.012230576420689502
-0.00044793000000000003,0.11984847104618523,0.0082349050652333368
-0.00044729999999999987,0.11951759173442188,0.0045722063227332408
-0.00044667000000000014,0.12017935035794829,0.0019084254190980185
-0.00044603999999999998,0.11951759173442188,-0.0014213007104487347
-0.00044540999999999982,0.1191867124226582,-0.0044180542270413877
-0.00044478000000000009,0.11852495379913178,-0.0080807529695398183
-0.00044414999999999993,0.11786319517560506,-0.011743451712039915
-0.0004435200000000002,0.11786319517560506,-0.015739123067492748
-0.00044289000000000004,0.11687055724031498,-0.019401821809994661
-0.00044225999999999988,0.11720143655207833,-0.022065602713631095
-0.00044163000000000015,0.11720143655207833,-0.025395328843175125
-0.00044099999999999999,0.11620879861678825,-0.029391000198631289
-0.00044036999999999982,0.11587791930502488,-0.033719644167042463
-0.0004397400000000001,0.11587791930502488,-0.0380482881354497
-0.00043910999999999993,0.11554703999326152,-0.040379096426131578
-0.00043848000000000021,0.11587791930502472,-0.042376932103857991
-0.00043785000000000004,0.11488528136973479,-0.046039630846358995
-0.00043721999999999988,0.11422352274620806,-0.050035302201813646
-0.00043659000000000016,0.11488528136973448,-0.052033137879540066
-0.00043595999999999999,0.11455440205797143,-0.05569583662204107
-0.00043532999999999983,0.11356176412268135,-0.060024480590451942
-0.0004347000000000001,0.11356176412268135,-0.063687179332950372
-0.00043406999999999994,0.11256912618739126,-0.066683932849541355
-0.00043343999999999978,0.11223824687562758,-0.07101257681795238
-0.00043281000000000005,0.11157648825210116,-0.075008248173405206
-0.00043217999999999989,0.11157648825210116,-0.078670946915905315
-0.00043155000000000016,0.1125691261873908,-0.080335809980677311
-0.00043092,0.11157648825210116,-0.083665536110223621
-0.00043028999999999984,0.11025297100504756,-0.086662289626816422
-0.00042966000000000011,0.10992209169328435,-0.090657960982269262
-0.00042902999999999995,0.10992209169328435,-0.093654714498860245
-0.00042839999999999979,0.10992209169328419,-0.096318495402498192
-0.00042777000000000006,0.10959121238152099,-0.099648221532042225
-0.0004271399999999999,0.10926033306975763,-0.10197902982272411
-0.00042651000000000017,0.10926033306975763,-0.10397686550045053
-0.00042588000000000001,0.10892945375799426,-0.10697361901704242
-0.00042524999999999985,0.1072750571991776,-0.11030334514658917
-0.00042462000000000012,0.10760593651094082,-0.1129671260502244
-0.00042398999999999996,0.10727505719917745,-0.11596387956681538
-0.0004233599999999998,0.10694417788741394,-0.11762874263158921
-0.00042273000000000007,0.10661329857565073,-0.11995955092227004
-0.00042209999999999991,0.10661329857565073,-0.12295630443886102
-0.00042147000000000018,0.10628241926388751,-0.12528711272954185
-0.00042084000000000002,0.10661329857565073,-0.12761792102022479
-0.00042020999999999985,0.10628241926388736,-0.12861683885908845
-0.00041958000000000013,0.10562066064036063,-0.12961575669795211
-0.00041894999999999996,0.10562066064036063,-0.13061467453681577
-0.0004183199999999998,0.10495890201683361,-0.13194656498863519
-0.00041769000000000008,0.10429714339330719,-0.13461034589227042
-0.00041705999999999991,0.10396626408154383,-0.13594223634408864
-0.00041643000000000019,0.10429714339330703,-0.13627520895704304
-0.00041580000000000002,0.1033045054580171,-0.13794007202181596
-0.00041516999999999986,0.10297362614625373,-0.14027088031249785
-0.00041454000000000013,0.10231186752272702,-0.14293466121613427
-0.00041390999999999997,0.10198098821096364,-0.14559844211977072
-0.00041327999999999981,0.10131922958743662,-0.14792925041045363
-0.00041265000000000008,0.1006574709639102,-0.15026005870113446
-0.00041201999999999992,0.10032659165214683,-0.15225789437886178
-0.00041139000000000019,0.10065747096391005,-0.15192492176590738
-0.00041076000000000003,0.1006574709639102,-0.15325681221772544
-0.00041012999999999987,0.1006574709639102,-0.15525464789545276
-0.00040950000000000014,0.099995712340383777,-0.15658653834727038
-0.00040886999999999998,0.099664833028620115,-0.15758545618613465
-0.00040823999999999982,0.099664833028619657,-0.15958329186386241
-0.00040761000000000009,0.098672195093330015,-0.16058220970272563
-0.00040697999999999993,0.098672195093330015,-0.16091518231568019
-0.0004063500000000002,0.098672195093330015,-0.16191410015454341
-0.00040572000000000004,0.0980104364698033,-0.16357896321931664
-0.00040508999999999988,0.0980104364698033,-0.1645778810581803
-0.00040446000000000015,0.097679557158040081,-0.16391193583227148
-0.00040382999999999999,0.097017798534513214,-0.1659097715099985
-0.00040319999999999983,0.096686919222749843,-0.16757463457477159
-0.0004025700000000001,0.096686919222749843,-0.16824057980068038
-0.00040193999999999994,0.096356039910986485,-0.16957247025249861
-0.00040131000000000021,0.09668691922274969,-0.1702384154784074
-0.00040068000000000005,0.096025160599223114,-0.17123733331727137
-0.00040004999999999988,0.094370764040406299,-0.17356814160795325
-0.00039942000000000016,0.094701643352169518,-0.17356814160795325
-0.00039879,0.095032522663933028,-0.17390111422090782
-0.00039815999999999983,0.094039884728642636,-0.17589894989863558
-0.00039753000000000011,0.093378126105116213,-0.1768978677374988
-0.00039689999999999994,0.093378126105116213,-0.17723084035045336
-0.00039626999999999978,0.093047246793352856,-0.1775638129634082
-0.00039564000000000005,0.093047246793352856,-0.17822975818931702
-0.00039500999999999989,0.092716367481589498,-0.17889570341522612
-0.00039438000000000016,0.09238548816982628,-0.17989462125408934
-0.00039375,0.091392850234536041,-0.18056056647999891
-0.00039311999999999984,0.091392850234535736,-0.18255840215772653
-0.00039249000000000011,0.090731091611009312,-0.18322434738363533
-0.00039185999999999995,0.090731091611009312,-0.18322434738363533
-0.00039122999999999979,0.091061970922772378,-0.18289137477068107
-0.00039060000000000006,0.090400212299245955,-0.18355731999658989
-0.0003899699999999999,0.089407574363955869,-0.18555515567431721
-0.00038934000000000017,0.088745815740429446,-0.18755299135204362
-0.00038871000000000001,0.08874581574042914,-0.18921785441681729
