Final Project/Progress_Report/CSV_Data/PHYS605-FinalProj-OfficialSineOpampPlotSoft.csv

#Digilent WaveForms Oscilloscope Acquisition
#Device Name: Alan
#Serial Number: SN:210321A3716A
#Date Time: 2024-05-09 16:10:12.985
#Sample rate: 160000Hz
#Samples: 8192
#Trigger: Source: Channel 1 Type: Edge Condition: Rising Level: 0 V Hyst.: Auto HoldOff: 0 s
#Channel 1: Range: 100 mV/div Offset: 0 V
#Channel 2: Range: 100 mV/div Offset: 0 V

Time (s),Channel 1 (V),Channel 2 (V)
-0.020598863636363637,-0.19018544407608562,-0.41563923122591417
-0.020592613636363635,-0.19084720269961308,-0.41630517645182413
-0.020586363636363635,-0.19250159925842916,-0.41830301212955062
-0.020580113636363636,-0.19316335788195588,-0.41896895735545969
-0.020573863636363637,-0.19448687512900933,-0.41996787519432338
-0.020567613636363637,-0.19547951306429942,-0.42096679303318701
-0.020561363636363635,-0.19614127168782658,-0.42196571087205098
-0.020555113636363635,-0.19713390962311622,-0.42263165609795977
-0.020548863636363636,-0.19779566824664296,-0.42296462871091434
-0.020542613636363637,-0.19812654755840631,-0.42363057393682346
-0.020536363636363637,-0.19845742687016968,-0.42363057393682346
-0.020530113636363635,-0.19945006480545976,-0.42462949177568698
-0.020523863636363635,-0.19945006480545976,-0.42429651916273259
-0.020517613636363636,-0.19978094411722314,-0.42462949177568715
-0.020511363636363637,-0.19945006480545976,-0.42462949177568715
-0.020505113636363637,-0.19978094411722314,-0.42429651916273259
-0.020498863636363635,-0.20011182342898651,-0.42496246438864166
-0.020492613636363635,-0.20011182342898651,-0.42496246438864166
-0.020486363636363636,-0.19978094411722314,-0.42396354654977803
-0.020480113636363637,-0.19945006480545976,-0.42363057393682346
-0.020473863636363637,-0.19945006480545976,-0.4232976013238689
-0.020467613636363634,-0.19911918549369598,-0.42263165609795933
-0.020461363636363635,-0.19812654755840631,-0.42163273825909614
-0.020455113636363636,-0.19812654755840631,-0.42129976564614158
-0.020448863636363637,-0.19812654755840631,-0.42096679303318701
-0.020442613636363637,-0.19680303031135288,-0.41963490258136882
-0.020436363636363634,-0.1964721509995889,-0.41863598474250452
-0.020430113636363635,-0.19514863375253605,-0.41730409429068693
-0.020423863636363636,-0.19481775444077271,-0.41663814906477781
-0.020417613636363637,-0.19382511650548259,-0.41563923122591417
-0.020411363636363637,-0.19250159925842916,-0.41364139554818685
-0.020405113636363634,-0.19150896132313847,-0.41264247770932239
-0.020398863636363635,-0.19018544407608562,-0.4109776146445504
-0.020392613636363636,-0.18919280614079553,-0.40964572419273221
-0.020386363636363636,-0.18786928889374208,-0.40798086112795939
-0.020380113636363637,-0.18654577164668862,-0.40598302545023207
-0.020373863636363638,-0.18555313371139898,-0.40465113499841449
-0.020367613636363635,-0.18323697852905499,-0.40198735409477743
-0.020361363636363636,-0.18191346128200156,-0.39965654580409554
-0.020355113636363636,-0.18025906472318473,-0.39832465535227735
-0.020348863636363637,-0.17860466816436793,-0.3956608744486409
-0.020342613636363638,-0.17695027160555185,-0.39366303877091446
-0.020336363636363635,-0.17496499573497093,-0.39166520309318625
-0.020330113636363636,-0.17297971986439076,-0.38900142218954981
-0.020323863636363636,-0.17132532330557393,-0.38633764128591341
-0.020317613636363637,-0.16900916812323041,-0.38400683299523153
-0.020311363636363638,-0.16669301294088792,-0.38067710686568745
-0.020305113636363635,-0.1647077370703067,-0.37834629857500407
-0.020298863636363636,-0.16172982326443641,-0.37468359983250399
-0.020292613636363636,-0.15974454739385624,-0.3723527915418221
-0.020286363636363637,-0.15709751289974935,-0.36902306541227659
-0.020280113636363638,-0.15445047840564363,-0.36569333928273251
-0.020273863636363635,-0.15246520253506227,-0.36269658576614006
-0.020267613636363636,-0.15014904735271872,-0.35969983224954905
-0.020261363636363636,-0.14750201285861184,-0.35637010612000353
-0.020255113636363637,-0.14452409905274155,-0.35270740737750339
-0.020248863636363638,-0.14154618524687265,-0.34937768124795937
-0.020242613636363635,-0.13856827144100103,-0.34604795511841235
-0.020236363636363636,-0.13559035763513078,-0.34171931115000315
-0.020230113636363636,-0.13294332314102386,-0.33805661240750301
-0.020223863636363637,-0.1299654093351536,-0.33472688627795749
-0.020217613636363638,-0.12698749552928471,-0.33039824230955023
-0.020211363636363635,-0.12367870241164972,-0.32640257095409364
-0.020205113636363636,-0.12070078860577944,-0.32207392698568443
-0.020198863636363636,-0.11739199548814583,-0.31774528301727523
-0.020192613636363637,-0.11474496099403891,-0.31374961166182058
-0.020186363636363638,-0.1114361678764068,-0.30908799508045892
-0.020180113636363635,-0.1077964954470083,-0.30509232372500217
-0.020173863636363636,-0.10448770232937468,-0.30109665236954752
-0.020167613636363636,-0.10150978852350441,-0.29610206317522919
-0.020161363636363637,-0.098200995405870781,-0.29177341920681998
-0.020155113636363638,-0.094230443664712241,-0.28611288478659513
-0.020148863636363635,-0.090921650547076807,-0.28145126820522881
-0.020142613636363636,-0.087612857429443178,-0.27678965162386504
-0.020136363636363636,-0.083973185000046191,-0.27112911720363764
-0.020130113636363637,-0.080333512570649204,-0.2658015553963648
-0.020123863636363638,-0.076693840141253855,-0.26014102097613989
-0.020117613636363635,-0.073054167711855217,-0.25448048655590993
-0.020111363636363636,-0.06941449528245823,-0.2488199521356825
-0.020105113636363636,-0.066105702164824601,-0.24282644510250054
-0.020098863636363637,-0.061804271111900885,-0.23683293806931854
-0.020092613636363638,-0.05816459868250555,-0.22950754058432168
-0.020086363636363635,-0.054855805564870269,-0.22417997877704549
-0.020080113636363636,-0.050554374511946554,-0.21585566345318163
-0.020073863636363636,-0.046583822770786203,-0.20853026596818144
-0.020067613636363637,-0.042944150341389216,-0.20053892325727216
-0.020061363636363638,-0.039304477911993874,-0.19154866270750326
-0.020055113636363635,-0.035333926170831871,-0.18222542954477167
-0.020048863636363635,-0.031694253741434884,-0.17157030593022593
-0.020042613636363636,-0.027392822688511169,-0.15725248357318011
-0.020036363636363637,-0.023422270947350814,-0.14126979815136151
-0.020030113636363638,-0.020113477829717188,-0.12328927705181557
-0.020023863636363635,-0.015812046776793473,-0.098649303693178564
-0.020017613636363635,-0.01184149503563312,-0.063687179332950372
-0.020011363636363636,-0.0078709432944727674,-0.024396411004312973
-0.020005113636363637,-0.0039003915533124159,0.015893275163188083
-0.019998863636363638,7.0160187847936634e-05,0.059845660073189241
-0.019992613636363635,0.0040407119290082893,0.097804537950008416
-0.019986363636363635,0.0080112636701686422,0.12743910050296375
-0.019980113636363636,0.011981815411328993,0.14841637511910066
-0.019973863636363637,0.01628324646425271,0.16506500576682837
-0.019967613636363638,0.019592039581886336,0.17705201983319233
-0.019961363636363635,0.023893470634810052,0.18770714344773806
-0.019955113636363635,0.027533143064207042,0.19769632183637467
-0.019948863636363636,0.031503694805367397,0.20535469193432943
-0.019942613636363637,0.035143367234764383,0.21268008941932962
-0.019936363636363637,0.039113918975924734,0.22067143213023893
-0.019930113636363635,0.043415350028850108,0.22766385700228775
-0.019923863636363635,0.047055022458245437,0.23465628187433019
-0.019917613636363636,0.051025574199405795,0.24064978890751218
-0.019911363636363637,0.054996125940566146,0.24664329594069415
-0.019905113636363637,0.058304919058199775,0.25263680297387614
-0.019898863636363635,0.062275470799361923,0.25863031000706066
-0.019892613636363635,0.066246022540520477,0.26429084442728551
-0.019886363636363636,0.069554815658154107,0.26961840623455841
-0.019880113636363637,0.073525367399314451,0.27494596804183125
-0.019873863636363637,0.07683416051694808,0.27994055723614958
-0.019867613636363635,0.080473832946346566,0.28460217381751546
-0.019861363636363635,0.083782626063978696,0.28926379039887706
-0.019855113636363636,0.087753177805139054,0.29459135220614996
-0.019848863636363637,0.090731091611009312,0.29891999617455917
-0.019842613636363637,0.09470164335216967,0.30391458536887744
-0.019836363636363635,0.098010436469804951,0.30824322933728876
-0.019830113636363635,0.10165010889920029,0.31290484591865042
-0.019823863636363636,0.10495890201683392,0.31690051727410506
-0.019817613636363637,0.10826769513446755,0.32122916124251427
-0.019811363636363637,0.11157648825210116,0.32555780521092348
-0.019805113636363635,0.11455440205797293,0.32955347656637962
-0.019798863636363635,0.11786319517560506,0.3328832026959237
-0.019792613636363636,0.12084110898147532,0.3372118466643329
-0.019786363636363637,0.12414990209910895,0.34087454540683298
-0.019780113636363637,0.12679693659321586,0.34520318937524219
-0.019773863636363635,0.13043660902261403,0.34886588811774366
-0.019767613636363635,0.13308364351671975,0.35186264163433328
-0.019761363636363636,0.13639243663435338,0.35619128560274249
-0.019755113636363637,0.13937035044022364,0.35952101173228801
-0.019748863636363637,0.14168650562256718,0.36251776524887902
-0.019742613636363635,0.14499529874020201,0.36651343660433489
-0.019736363636363635,0.1476423332343077,0.36917721750797011
-0.019730113636363636,0.14995848841665124,0.3718409984116065
-0.019723863636363637,0.1529364022225215,0.37483775192819752
-0.019717613636363637,0.15525255740486504,0.37750153283183396
-0.019711363636363635,0.15789959189897285,0.38083125896138054
-0.019705113636363635,0.15988486776955213,0.38316206725206137
-0.019698863636363636,0.16253190226365902,0.38649179338160689
-0.019692613636363637,0.16517893675776593,0.38915557428524333
-0.019686363636363637,0.16683333331658273,0.39082043735001609
-0.019680113636363634,0.16914948849892733,0.39381719086660832
-0.019673863636363635,0.17146564368126982,0.39648097177024355
-0.019667613636363636,0.17312004024008662,0.39814583483501631
-0.019661363636363637,0.17543619542243016,0.40080961573865276
-0.019655113636363637,0.17742147129301034,0.40280745141638008
-0.019648863636363634,0.17907586785182791,0.40480528709410818
-0.019642613636363635,0.18073026441064396,0.40647015015888016
-0.019636363636363636,0.18271554028122414,0.40880095844956205
-0.019630113636363637,0.18403905752827759,0.41013284890138024
-0.019623863636363637,0.18536257477533105,0.41179771196615306
-0.019617613636363634,0.18701697133414846,0.41346257503092626
-0.019611363636363635,0.18834048858120131,0.41446149286978945
-0.019605113636363636,0.18966400582825477,0.41546041070865314
-0.019598863636363636,0.19065664376354485,0.4171252737734259
-0.019592613636363637,0.19231104032236165,0.41845716422524409
-0.019586363636363638,0.19297279894588809,0.41945608206410734
-0.019580113636363635,0.19429631619294185,0.42045499990297142
-0.019573863636363636,0.19528895412823194,0.42178689035478967
-0.019567613636363636,0.19595071275175865,0.42245283558069874
-0.019561363636363637,0.19661247137528537,0.42311878080660786
-0.019555113636363638,0.19793598862233822,0.4244506712584255
-0.019548863636363635,0.19859774724586557,0.42478364387138062
-0.019542613636363636,0.19892862655762891,0.42544958909728975
-0.019536363636363636,0.19959038518115566,0.42611553432319887
-0.019530113636363637,0.199921264492919,0.42578256171024431
-0.019523863636363638,0.20025214380468223,0.42644850693615316
-0.019517613636363635,0.20058302311644574,0.42644850693615344
-0.019511363636363636,0.20091390242820908,0.42711445216206251
-0.019505113636363636,0.20058302311644574,0.42678147954910794
-0.019498863636363637,0.20058302311644574,0.42644850693615344
-0.019492613636363638,0.20124478173997215,0.42644850693615344
-0.019486363636363635,0.20091390242820908,0.42611553432319887
-0.019480113636363636,0.20058302311644574,0.42578256171024431
-0.019473863636363636,0.20058302311644574,0.42578256171024431
-0.019467613636363637,0.199921264492919,0.42478364387138062
-0.019461363636363638,0.19925950586939259,0.42378472603251743
-0.019455113636363635,0.19925950586939228,0.42345175341956243
-0.019448863636363636,0.1982668679341022,0.42211986296774423
-0.019442613636363636,0.19793598862233883,0.4214539177418351
-0.019436363636363637,0.19727422999881211,0.42045499990297142
-0.019430113636363638,0.19661247137528567,0.41945608206410823
-0.019423863636363635,0.19528895412823194,0.41812419161228959
-0.019417613636363636,0.19429631619294185,0.41679230116047133
-0.019411363636363636,0.19330367825765174,0.41546041070865314
-0.019405113636363637,0.19231104032236165,0.41412852025683489
-0.019398863636363638,0.19098752307530883,0.4127966298050173
-0.019392613636363635,0.18999488514001814,0.41146473935319849
-0.019386363636363636,0.18867136789296468,0.40979987628842568
-0.019380113636363636,0.18701697133414785,0.40780204061069836
-0.019373863636363637,0.18536257477533105,0.40580420493297104
-0.019367613636363638,0.18370817821651497,0.4038063692552446
-0.019361363636363635,0.18238466096946079,0.40180853357751639
-0.019355113636363636,0.18073026441064396,0.39981069789978907
-0.019348863636363636,0.17940674716359051,0.39781286222206175
-0.019342613636363637,0.17709059198124699,0.39448313609251623
-0.019336363636363638,0.17576707473419415,0.39315124564069859
-0.019330113636363635,0.17411267817537671,0.39115340996297066
-0.019323863636363636,0.17146564368126982,0.38782368383342514
-0.019317613636363636,0.16914948849892628,0.38549287554274325
-0.019311363636363637,0.16749509194010948,0.3828290946391068
-0.019305113636363638,0.16484805744600375,0.37983234112251724
-0.019298863636363635,0.16286278157542239,0.37683558760592484
-0.019292613636363636,0.16054662639307885,0.37383883408933383
-0.019286363636363636,0.1582304712107353,0.37084208057274287
-0.019280113636363637,0.15558343671662841,0.36784532705615186
-0.019273863636363638,0.15293640222252269,0.36451560092660784
-0.019267613636363635,0.15028936772841461,0.36085290218410626
-0.019261363636363635,0.1476423332343077,0.35752317605456069
-0.019255113636363636,0.14499529874020081,0.35452642253796973
-0.019248863636363637,0.14201738493433053,0.35119669640842416
-0.019242613636363638,0.13903947112846027,0.34720102505296951
-0.019236363636363635,0.13672331594611672,0.34353832631046943
-0.019230113636363635,0.13407628145200984,0.34020860018092386
-0.019223863636363636,0.13076748833437621,0.33621292882546921
-0.019217613636363637,0.12745869521674258,0.33188428485706001
-0.019211363636363638,0.12481166072263566,0.32822158611455993
-0.019205113636363635,0.12183374691676541,0.32455888737205985
-0.019198863636363635,0.11852495379913178,0.31989727079069608
-0.019192613636363636,0.11521616068149816,0.31556862682228687
-0.019186363636363637,0.11190736756386453,0.31157295546683222
-0.019180113636363638,0.1085985744462309,0.30691133888546845
-0.019173863636363635,0.10528978132859591,0.30258269491705714
-0.019167613636363635,0.10231186752272702,0.29792107833569548
-0.019161363636363636,0.098341315781566657,0.2929264891413772
-0.019155113636363637,0.095032522663933028,0.28859784517296799
-0.019148863636363637,0.091723729546299398,0.28293731075274053
-0.019142613636363635,0.088084057116900913,0.27860866678432888
-0.019136363636363635,0.084775263999268782,0.27328110497705849
-0.019130113636363636,0.080804712258108438,0.26762057055683108
-0.019123863636363637,0.077495919140474809,0.26229300874955819
-0.019117613636363637,0.073856246711077822,0.25663247432933078
-0.019111363636363635,0.070216574281679184,0.25130491252205517
-0.019105113636363635,0.066576901852283835,0.24531140548887592
-0.019098863636363636,0.06260635011112349,0.23931789845569396
-0.019092613636363637,0.058966677681726497,0.23299141880955743
-0.019086363636363637,0.05532700525232951,0.22633196655046633
-0.019080113636363635,0.051356453511167348,0.21900656906546281
-0.019073863636363635,0.047385901770008801,0.21168117158046595
-0.019067613636363636,0.043746229340611814,0.20368982886955667
-0.019061363636363637,0.039775677599451463,0.19503254093273825
-0.019055113636363637,0.036136005170054469,0.18537633515705618
-0.019048863636363635,0.032496332740655526,0.17472121154250483
-0.019042613636363635,0.028194901687733767,0.16240122486319195
-0.019036363636363636,0.024224349946573413,0.1480834025061461
-0.019030113636363637,0.020253798205413062,0.13043585401955474
-0.019023863636363637,0.01628324646425271,0.10546290804796317
-0.019017613636363635,0.012643574034853913,0.076494290720898472
-0.019011363636363635,0.0086730222936953674,0.035871631940461335
-0.019005113636363636,0.0047024705525350145,-8.941025863051788e-05
-0.018998863636363637,7.0160187847936634e-05,-0.046372603459313551
-0.018992613636363637,-0.0032386329297856902,-0.085330399174996394
-0.018986363636363635,-0.0068783053591846355,-0.11762874263159966
-0.018980113636363635,-0.011179736412106395,-0.14293466121613427
-0.018973863636363636,-0.014819408841503385,-0.15991626447681653
-0.018967613636363637,-0.018789960582663738,-0.17223625115613503
-0.018961363636363637,-0.022760512323824089,-0.18422326522249899
-0.018955113636363635,-0.026731064064986095,-0.19454541622409394
-0.018948863636363635,-0.03037073649438143,-0.20286973154795401
-0.018942613636363636,-0.034341288235541785,-0.21019512903295423
-0.018936363636363637,-0.038311839976702136,-0.21818647174386352
-0.018930113636363637,-0.042613271029625852,-0.22517889661590915
-0.018923863636363634,-0.045591184835498073,-0.2315053762620487
-0.018917613636363635,-0.049892615888419832,-0.23816482852113677
-0.018911363636363636,-0.053532288317816819,-0.2444913081672733
-0.018905113636363637,-0.05750284005897717,-0.25048481520045529
-0.018898863636363637,-0.061142512488374164,-0.25581237700772813
-0.018892613636363634,-0.065113064229536013,-0.26213885665386677
-0.018886363636363635,-0.068421857347168144,-0.26680047323522843
-0.018880113636363636,-0.072723288400091859,-0.27345992549431952
-0.018873863636363637,-0.075701202205962118,-0.27745559684977417
-0.018867613636363637,-0.079671753947122476,-0.28311613127000157
-0.018861363636363634,-0.083311426376521114,-0.28777774785136762
-0.018855113636363635,-0.086951098805916449,-0.29277233704568367
-0.018848863636363636,-0.09059077123531345,-0.29776692624000195
-0.018842613636363637,-0.093568685041183708,-0.30176259759545665
-0.018836363636363637,-0.097208357470580695,-0.30675718678977493
-0.018830113636363634,-0.10018627127645247,-0.31041988553227695
-0.018823863636363635,-0.10349506439408458,-0.31474852950068422
-0.018817613636363636,-0.1077964954470083,-0.31941014608204799
-0.018811363636363636,-0.11077440925287857,-0.32340581743750263
-0.018805113636363637,-0.1140832023705122,-0.32773446140591184
-0.018798863636363638,-0.1170611161763811,-0.33139716014841031
-0.018792613636363635,-0.12036990929401609,-0.33572580411682118
-0.018786363636363636,-0.12367870241164972,-0.33938850285932126
-0.018780113636363636,-0.12665661621751997,-0.34305120160182134
-0.018773863636363637,-0.1299654093351536,-0.34704687295727599
-0.018767613636363638,-0.13261244382925932,-0.35037659908682006
-0.018761363636363635,-0.1352594783233674,-0.35337335260341252
-0.018755113636363636,-0.13823739212923766,-0.35736902395886716
-0.018748863636363636,-0.14088442662334458,-0.36036577747545817
-0.018742613636363637,-0.14386234042921484,-0.36369550360500369
-0.018736363636363638,-0.14684025423508373,-0.36702522973454776
-0.018730113636363635,-0.14948728872919201,-0.37002198325114022
-0.018723863636363636,-0.15180344391153555,-0.37301873676773123
-0.018717613636363636,-0.15478135771740581,-0.37601549028432218
-0.018711363636363637,-0.15709751289974935,-0.37834629857500407
-0.018705113636363638,-0.15941366808209184,-0.38167602470454814
-0.018698863636363635,-0.16172982326443641,-0.38433980560818609
-0.018692613636363636,-0.16404597844677996,-0.38700358651182248
-0.018686363636363636,-0.16570037500559678,-0.38933439480250437
-0.018680113636363637,-0.16801653018794033,-0.39133223048023169
-0.018673863636363638,-0.17033268537028279,-0.39399601138386692
-0.018667613636363635,-0.17231796124086404,-0.39632681967455002
