Final Project/Progress_Report/CSV_Data/PHYS605-FinalProj-OfficialTriangleOpampPlotSoft.csv

#Digilent WaveForms Oscilloscope Acquisition
#Device Name: Alan
#Serial Number: SN:210321A3716A
#Date Time: 2024-05-09 16:24:11.957
#Sample rate: 400000Hz
#Samples: 8192
#Trigger: Source: Channel 1 Type: Edge Condition: Rising Level: 0 V Hyst.: Auto HoldOff: 0 s
#Channel 1: Range: 100 mV/div Offset: 0 V
#Channel 2: Range: 100 mV/div Offset: 0 V

Time (s),Channel 1 (V),Channel 2 (V)
0.39976083333333329,-0.096215719535305055,-0.29077450136796723
0.3997633333333333,-0.094892202288242564,-0.28977558352909677
0.39976583333333332,-0.094230443664708174,-0.28811072046431685
0.39976833333333334,-0.093237805729408318,-0.28677883001248961
0.3997708333333333,-0.091914288482375928,-0.28544693956069256
0.39977333333333331,-0.091252529858840165,-0.28411504910886526
0.39977583333333333,-0.089929012611780407,-0.2824501860440819
0.39977833333333329,-0.08893637467650567,-0.28078532297933484
0.39978083333333331,-0.087943736741209241,-0.27912045991455148
0.39978333333333332,-0.086289340182388527,-0.277122624236816
0.39978583333333334,-0.085958460870619438,-0.27612370639794553
0.3997883333333333,-0.085296702247103243,-0.27512478855909772
0.39979083333333332,-0.084304064311807744,-0.27379289810727181
0.39979333333333333,-0.082980547064748431,-0.27212803504248845
0.39979583333333329,-0.081987909129473693,-0.27046317197774139
0.39979833333333331,-0.080995271194177279,-0.26946425413886627
0.39980083333333333,-0.080002633258878617,-0.26779939107408124
0.39980333333333329,-0.078679116011846226,-0.26580155539638567
0.3998058333333333,-0.077686478076545912,-0.26446966494455137
0.39980833333333332,-0.076362960829487042,-0.26280480187977195
0.39981083333333334,-0.075701202205956095,-0.26213885665385256
0.3998133333333333,-0.075039443582439622,-0.26080696620205496
0.39981583333333331,-0.073385047023618588,-0.25847615791136458
0.39981833333333333,-0.072392409088323978,-0.2558123770077213
0.39982083333333329,-0.071730650464807796,-0.2548134591688736
0.39982333333333331,-0.071068891841276544,-0.25448048655591071
0.39982583333333332,-0.069745374594217521,-0.2528156234911263
0.39982833333333334,-0.068752736658924285,-0.25015184258748985
0.3998308333333333,-0.06809097803540809,-0.24915292474864206
0.39983333333333332,-0.067098340100112883,-0.24715508907090733
0.39983583333333333,-0.066105702164816482,-0.24582319861907517
0.3998383333333333,-0.065113064229541731,-0.24382536294137874
0.39984083333333331,-0.063789546982482279,-0.24282644510250145
0.39984333333333333,-0.063127788358947126,-0.24082860942476414
0.39984583333333329,-0.061804271111914125,-0.23916374636001708
0.39984833333333331,-0.060480753864852251,-0.23683293806932704
0.39985083333333332,-0.059488115929555239,-0.23516807500454259
0.39985333333333334,-0.058826357306017991,-0.23416915716566941
0.3998558333333333,-0.057502840058984997,-0.23283726671387178
0.39985833333333332,-0.056510202123686785,-0.23050645842318127
0.39986083333333333,-0.055848443500153139,-0.2288415953583923
0.39986333333333329,-0.054855805564878846,-0.22651078706774752
0.39986583333333331,-0.053863167629581987,-0.22517889661591156
0.39986833333333333,-0.052870529694287086,-0.22318106093817727
0.39987083333333329,-0.05220877107077089,-0.22218214309932952
0.3998733333333333,-0.051547012447239658,-0.22051728003455298
0.39987583333333332,-0.050223495200180789,-0.21851944435681445
0.39987833333333334,-0.048899977953124028,-0.2165216086790735
0.3998808333333333,-0.048238219329607833,-0.21452377300137795
0.39988333333333331,-0.046914702082550171,-0.21219296471068261
0.39988583333333333,-0.04559118483549416,-0.20952918380703722
0.39988833333333329,-0.045260305523735909,-0.20819729335523959
0.39989083333333331,-0.043275029653158902,-0.20486756722569197
0.39989333333333332,-0.043275029653148368,-0.20453459461271939
0.39989583333333334,-0.041951512406089193,-0.20220378632201494
0.3998983333333333,-0.040958874470814907,-0.19920703280547164
0.39990083333333332,-0.040297115847281115,-0.19754216974067845
0.39990333333333333,-0.038973598600216826,-0.19454541622406835
0.39990583333333329,-0.037319202041425595,-0.19154866270752371
0.39990833333333331,-0.036657443417886522,-0.18955082702977549
0.39991083333333333,-0.036326564106113679,-0.18821893657793698
0.39991333333333334,-0.034672167547301389,-0.18488921044837781
0.3999158333333333,-0.034341288235543138,-0.18222542954478257
0.39991833333333332,-0.033348650300247938,-0.18089353909294512
0.39992083333333334,-0.031694253741429167,-0.17723084035043035
0.3999233333333333,-0.031032495117912669,-0.17456705944683509
0.39992583333333331,-0.030039857182618521,-0.17157030593022729
0.39992833333333333,-0.028385460623797043,-0.16724166196179127
0.39993083333333329,-0.027723702000280848,-0.16324599060640024
0.39993333333333331,-0.027392822688512071,-0.16191410015454749
0.39993583333333332,-0.02640018475321506,-0.15891734663793833
0.39993833333333334,-0.024745788194393884,-0.15492167528244599
0.3999408333333333,-0.023753150259119594,-0.14992708608820715
0.39994333333333332,-0.023091391635585649,-0.14526546950681024
0.39994583333333333,-0.021767874388521215,-0.14093682553836062
0.39994833333333329,-0.020113477829729977,-0.1349433185052713
0.39995083333333331,-0.019451719206191365,-0.12928278408500526
0.39995333333333333,-0.019120839894423789,-0.12562008534246746
0.39995583333333329,-0.018459081270907295,-0.11962657830937816
0.3999583333333333,-0.016804684712090335,-0.11463198911501761
0.39996083333333332,-0.016142926088552324,-0.10630767379111332
0.39996333333333334,-0.014488529529734003,-0.09898227630606346
0.3999658333333333,-0.013826770906217511,-0.091323906208227126
0.39996833333333331,-0.013165012282686571,-0.08266661827135996
0.39997083333333333,-0.011510615723865244,-0.07367635772151658
0.39997333333333329,-0.010848857100349052,-0.063354206720089706
0.39997583333333331,-0.0098562191650552015,-0.055695836622058487
0.39997833333333332,-0.0088635812297587942,-0.047704493911085437
0.39998083333333334,-0.0078709432944623851,-0.036383425070561998
0.3999833333333333,-0.0068783053591876453,-0.025395328843231604
0.39998583333333332,-0.0058856674238912379,-0.01307534216384405
0.39998833333333333,-0.004893029488588962,-0.0027531911621688325
0.3999908333333333,-0.0032386329297984799,0.0092338229040043306
0.39999333333333331,-0.0029077536180226286,0.018890028679770292
0.39999583333333333,-0.0015842363709670712,0.030877042746192081
0.39999833333333329,-0.0012533570592088246,0.039867303295826044
0.40000083333333331,-0.00026071912391903733,0.049856481684516271
0.40000333333333332,0.00073191881137782194,0.058180797008446146
0.40000583333333334,0.0017245567466837091,0.067504030171261636
0.4000083333333333,0.0037098326172331905,0.079824016850389659
0.40001083333333332,0.0040407119290085903,0.091145085690920821
0.40001333333333333,0.0047024705525440429,0.098803455788935679
0.40001583333333329,0.0060259877995770296,0.10812668895151904
0.40001833333333331,0.0070186257348762967,0.11445316859772175
0.40002083333333333,0.0080112636701731559,0.12077964824389992
0.40002333333333329,0.0090039016054474456,0.12677315527698649
0.4000258333333333,0.009996539540744304,0.13343260753611544
0.40002833333333332,0.011650936099566233,0.14009205979524711
0.40003083333333334,0.011981815411340429,0.14575259421549011
0.4000333333333333,0.013305332658372816,0.14874934773203338
0.40003583333333331,0.014628849905435294,0.15407690953932565
0.40003833333333333,0.014959729217207082,0.15707366305593876
0.40004083333333329,0.016283246464240071,0.16040338918543279
0.40004333333333331,0.017275884399539636,0.16473203315386004
0.40004583333333332,0.018599401646599407,0.16872770450933589
0.40004833333333334,0.019592039581896266,0.1710585128000503
0.4000508333333333,0.020584677517170556,0.17505418415544138
0.40005333333333332,0.021246436140704053,0.17738499244614958
0.40005583333333333,0.022239074076002868,0.1803817459627621
0.40005833333333329,0.023562591323035852,0.18371147209225613
0.40006083333333331,0.024224349946572209,0.1850433625440992
0.40006333333333333,0.024555229258343397,0.18670822560888606
0.40006583333333334,0.025878746505409035,0.18903903389959789
0.4000683333333333,0.02753314306420027,0.19270173264204138
0.40007083333333332,0.028525780999497881,0.19569848615865112
0.40007333333333334,0.028856660311271928,0.1973633492234374
0.4000758333333333,0.030180177558304915,0.19936118490113383
0.40007833333333331,0.030841936181840366,0.20002713012705625
0.40008083333333333,0.03216545342890044,0.20468874670842668
0.40008333333333329,0.033158091364174726,0.20568766454727444
0.40008583333333331,0.034150729299471591,0.20768550022500587
0.40008833333333332,0.035143367234769199,0.21001630851570288
0.40009083333333334,0.036466884481824752,0.21268008941934355
0.4000933333333333,0.037128643105340954,0.21401197987114057
0.40009583333333332,0.037790401728873088,0.21567684293592332
0.40009833333333333,0.039113918975932409,0.21767467861366335
0.40010083333333329,0.040106556911206695,0.21967251429135889
0.40010333333333331,0.04176095347002938,0.22233629519500805
0.40010583333333333,0.042422712093564983,0.22266926780798124
0.40010833333333329,0.043746229340597971,0.2256660213245259
0.4001108333333333,0.044077108652373825,0.2273308843893232
0.40011333333333332,0.045069746587667971,0.2283298022281991
0.40011583333333334,0.046062384522961367,0.23032763790593005
0.4001183333333333,0.046724143146477867,0.23132655574477828
0.40012083333333331,0.047385901770008801,0.23299141880955743
0.40012333333333333,0.049371177640595301,0.23598817232615901
0.40012583333333329,0.050363815575870038,0.23765303539090601
0.40012833333333331,0.052018212134691363,0.2393178984556894
0.40013083333333332,0.052679970758225309,0.24098276152047352
0.40013333333333334,0.053341729381759712,0.24264762458525344
0.4001358333333333,0.054334367317034449,0.24397951503705106
0.40013833333333332,0.055327005252330412,0.2456443781018314
0.40014083333333333,0.055988763875867063,0.24631032332775593
0.4001433333333333,0.057312281122899447,0.24830815900545147
0.40014583333333331,0.058304919058198873,0.24997302207023817
0.40014833333333333,0.059297556993497084,0.25197085774797789
0.40015083333333329,0.060621074240530072,0.25396869342567435
0.40015333333333331,0.061944591487591946,0.2553005838775077
0.40015583333333332,0.062275470799361923,0.25530058387751708
0.40015833333333334,0.062937229422896326,0.25696544694229806
0.4001608333333333,0.063929867358170619,0.25829733739409505
0.40016333333333332,0.064591625981704565,0.26029517307183175
0.40016583333333333,0.066576901852290607,0.26229300874957179
0.40016833333333329,0.067569539787565344,0.26429084442726825
0.40017083333333331,0.067900419099336543,0.2646238170402393
0.40017333333333333,0.069554815658157118,0.26728759794387802
0.40017583333333329,0.070216574281673313,0.26762057055682731
0.4001783333333333,0.071540091528728256,0.26928543362159629
0.40018083333333332,0.072532729464026169,0.27095029668637843
0.40018333333333334,0.073525367399322569,0.27194921452525939
0.4001858333333333,0.074518005334597334,0.27428002281590513
0.40018833333333331,0.074848884646367603,0.27428002281592212
0.40019083333333333,0.07650328120519255,0.2759448858807087
0.40019333333333329,0.077826798452224927,0.2782756941713535
0.40019583333333331,0.078157677764000483,0.27894163939728378
0.40019833333333332,0.079150315699295842,0.28060650246206392
0.40020083333333334,0.080473832946355003,0.28227136552684812
0.4002033333333333,0.081466470881629297,0.2839362285915944
0.40020583333333332,0.08245910881692585,0.28460217381751457
0.40020833333333333,0.083120867440459184,0.28593406426934126
0.40021083333333329,0.084113505375733949,0.28726595472113886
0.40021333333333331,0.085106143311030349,0.28926379039887345
0.40021583333333333,0.08642966055809162,0.28992973562479529
0.40021833333333334,0.087753177805146576,0.29192757130252106
0.4002208333333333,0.088414936428662771,0.29259351652841958
0.40022333333333332,0.089738453675721488,0.29425837959319845
0.40022583333333334,0.09073109161101503,0.29559027004502797
0.4002283333333333,0.091392850234531531,0.29725513310977503
0.40023083333333331,0.092716367481588902,0.29891999617455839
0.40023333333333333,0.093709005416885899,0.30025188662637736
0.40023583333333329,0.094701643352160192,0.30025188662637736
0.40023833333333331,0.095363401975694595,0.30158377707819201
0.40024083333333332,0.096356039910992508,0.3029156675300223
0.40024333333333334,0.098010436469806617,0.30524647582069903
0.4002458333333333,0.098341315781564853,0.30557944843364843
0.40024833333333332,0.099664833028620711,0.30724431149842391
0.40025083333333333,0.1003265916521545,0.30824322933729181
0.40025333333333329,0.10131922958742881,0.30890917456319034
0.40025583333333331,0.10231186752272566,0.3112399828538745
0.40025833333333333,0.10330450545802207,0.31257187330570085
0.40026083333333329,0.10429714339329681,0.31357079114454911
0.4002633333333333,0.10495890201683121,0.31523565420932548
0.40026583333333332,0.10694417788741499,0.3162345720481996
0.40026833333333334,0.10727505719918948,0.31756646250002935
0.4002708333333333,0.10859857444622248,0.31923132556477635
0.40027333333333331,0.10959121238152099,0.32089618862955971
0.40027583333333333,0.11025297100505614,0.32122916124252276
0.40027833333333329,0.11157648825208913,0.32256105169432042
0.40028083333333331,0.11256912618738855,0.32355996953319344
0.40028333333333332,0.11323088481092475,0.32455888737206667
0.40028583333333334,0.11488528136973825,0.32622375043684304
0.4002883333333333,0.11521616068149651,0.32722266827569124
0.40029083333333332,0.11653967792855341,0.32888753134047088
0.40029333333333333,0.11786319517560777,0.33021942179228725
0.4002958333333333,0.11819407448736587,0.33021942179228725
0.40029833333333331,0.1191867124226576,0.33188428485705851
0.40030083333333333,0.12051022966971738,0.3342150931477455
0.40030333333333329,0.12150286760499211,0.33488103837364436
0.40030583333333331,0.12282638485205068,0.33654590143841773
0.40030833333333332,0.12315726416382247,0.33721184666433834
0.40031083333333334,0.12448078141088179,0.33920968234206977
0.4003133333333333,0.12547341934615608,0.34020860018091748
0.40031583333333332,0.12679693659321617,0.34120751801978799
0.40031833333333333,0.1274586952167471,0.34220643585866029
0.40032083333333329,0.12812045384026358,0.34353832631045794
0.40032333333333331,0.12944397108731975,0.34487021676228458
0.40032583333333333,0.13043660902261736,0.34586913460115887
0.40032833333333329,0.13142924695789163,0.34753399766590515
0.4003308333333333,0.13209100558142667,0.34786697027887714
0.40033333333333332,0.13341452282848609,0.34919886073069989
0.40033583333333334,0.13506891938730264,0.35086372379547232
0.4003383333333333,0.13539979869906085,0.35119669640842172
0.40034083333333331,0.13672331594611553,0.35352750469910393
0.40034333333333333,0.13738507456964541,0.35386047731206649
0.40034583333333329,0.13771595388140351,0.35485939515091425
0.40034833333333331,0.13903947112845605,0.35652425821569178
0.40035083333333332,0.14036298837551689,0.35752317605456491
0.40035333333333334,0.14135562631081375,0.35885506650639226
0.4003558333333333,0.14234826424608804,0.36018695695818925
0.40035833333333332,0.14367178149314827,0.36151884741001655
0.40036083333333333,0.14466441942843986,0.36285073786183603
0.40036333333333329,0.14499529874019795,0.3631837104747852
0.40036583333333331,0.14631881598725183,0.36518154615251186
0.40036833333333333,0.14698057461078701,0.36618046399138515
0.40037083333333334,0.14830409185784946,0.36751235444321245
0.4003733333333333,0.14962760910488185,0.3688442448950095
0.40037583333333332,0.15028936772841611,0.36951019012092767
0.40037833333333334,0.15095112635194705,0.37084208057274576
0.4003808333333333,0.15161288497546352,0.37117505318569516
0.40038333333333331,0.15260552291075768,0.37217397102456062
0.40038583333333333,0.15392904015781941,0.37383883408934171
0.40038833333333329,0.15525255740485241,0.37517072454113937
0.40039083333333331,0.15657607465191428,0.37583666976705904
0.40039333333333332,0.15789959189897554,0.37750153283183879
0.40039583333333334,0.15889222983426535,0.37883342328366215
0.4003983333333333,0.15922310914602358,0.37983234112251041
0.40040083333333332,0.16021574708131578,0.38049828634842581
0.40040333333333333,0.16054662639309419,0.38149720418730665
0.40040583333333329,0.16253190226364278,0.3838280124779514
0.40040833333333331,0.16319366088718484,0.38449395770387867
0.40041083333333333,0.16385541951071911,0.38582584815569948
0.40041333333333329,0.16517893675775208,0.38615882076864888
0.4004158333333333,0.16650245400481395,0.38782368383341831
0.40041833333333332,0.16683333331658651,0.38882260167229332
0.40042083333333334,0.16848772987540558,0.39082043735001609
0.4004233333333333,0.16914948849892175,0.39082043735001609
0.40042583333333331,0.17047300574597973,0.39248530041478891
0.40042833333333333,0.17080388505775151,0.39281827302775402
0.40043083333333329,0.17212740230478449,0.39448313609250107
0.40043333333333331,0.1731200402400839,0.39581502654433082
0.40043583333333332,0.17411267817538076,0.39714691699615534
0.40043833333333334,0.17510531611068064,0.39781286222207918
0.4004408333333333,0.17642883335771362,0.39947772528682618
0.40044333333333332,0.17709059198124924,0.40014367051274546
0.40044583333333333,0.1787449885400689,0.40147556096456699
0.4004483333333333,0.1794067471635854,0.40214150619046579
0.40045083333333331,0.18006850578711633,0.40413934186819556
0.40045333333333333,0.18172290234593766,0.40513825970706741
0.40045583333333329,0.18238466096945388,0.40613717754591516
0.40045833333333331,0.18337729890474727,0.40680312277183228
0.40046083333333332,0.18436993684004369,0.40846798583660932
0.40046333333333334,0.18536257477534054,0.40913393106252932
0.4004658333333333,0.18635521271061481,0.41046582151432631
0.40046833333333332,0.18734785064591167,0.4117977119661535
0.40047083333333333,0.18834048858120583,0.41279662980502124
0.40047333333333329,0.18900224720472231,0.41346257503092004
0.40047583333333331,0.19065664376354108,0.41479446548274096
0.40047833333333333,0.19131840238707698,0.41512743809570674
0.40048083333333329,0.19264191963410998,0.41712527377340319
0.4004833333333333,0.19330367825764844,0.41845716422523743
0.40048583333333332,0.19429631619294427,0.41945608206410961
0.40048833333333334,0.19561983344000611,0.42045499990297686
0.4004908333333333,0.19694335068703911,0.42112094512887571
0.40049333333333331,0.19760510931057484,0.42245283558069752
0.40049583333333333,0.19826686793411197,0.42345175341957225
0.40049833333333329,0.19992126449290246,0.42511661648431853
0.40050083333333331,0.20058302311644363,0.42611553432319571
0.40050333333333332,0.19992126449291583,0.42478364387137746
0.40050583333333334,0.19892862655762575,0.42378472603251061
0.4005083333333333,0.19859774724586751,0.42311878080661181
0.40051083333333332,0.19694335068704844,0.42145391774183494
0.40051333333333333,0.19628159206351239,0.421120945128866
0.40051583333333329,0.19495807481648,0.41912310945117048
0.40051833333333331,0.19396543688118029,0.41779121899933747
0.40052083333333333,0.19297279894588387,0.41712527377341679
0.40052333333333334,0.19198016101058327,0.41512743809568342
0.4005258333333333,0.19065664376355088,0.41379554764388643
0.40052833333333332,0.18933312651649065,0.41246365719206135
0.40053083333333334,0.18900224720472231,0.41213068457909896
0.4005333333333333,0.18834048858120583,0.41113176674025076
0.40053583333333331,0.18701697133414846,0.40946690367547195
0.40053833333333333,0.18602433339885191,0.4084679858365996
0.40054083333333329,0.18503169546357717,0.407136095384802
0.40054333333333331,0.18337729890475615,0.40580420493297525
0.40054583333333332,0.18271554028121934,0.40480528709410135
0.40054833333333334,0.18139202303416077,0.40314042402931799
0.4005508333333333,0.18039938509888603,0.40147556096457093
0.40055333333333332,0.17973762647535327,0.40080961573865126
0.40055583333333333,0.17907586785181692,0.39914475267386967
0.40055833333333329,0.17775235060478453,0.39781286222207263
0.40056083333333331,0.17675971266948498,0.39714691699615351
