Final Project/Progress_Report/CSV_Data/PHYS605-FinalProj-OfficialTriangleTransistorVoltage.csv

#Digilent WaveForms Oscilloscope Acquisition
#Device Name: Alan
#Serial Number: SN:210321A3716A
#Date Time: 2024-05-07 15:05:13.840
#Sample rate: 80000Hz
#Samples: 8192
#Trigger: Source: Channel 1 Type: Edge Condition: Rising Level: 0 V Hyst.: Auto HoldOff: 0 s
#Channel 1: Range: 300 mV/div Offset: 0 V
#Channel 2: Range: 300 mV/div Offset: 0 V

Time (s),Channel 1 (V),Channel 2 (V)
-0.052600000000000001,0.080804712258108438,0.27727677633251313
-0.052587499999999995,0.080473832946344762,0.27894163939728606
-0.052574999999999997,0.079812074322818352,0.27927461201024045
-0.052562499999999998,0.079481195011054981,0.28093947507501321
-0.052549999999999999,0.078819436387528252,0.2819383929138769
-0.052537500000000001,0.078488557075764895,0.2832702833656951
-0.052524999999999995,0.078157677764001385,0.28460217381751363
-0.052512499999999997,0.077826798452238166,0.28526811904342242
-0.052499999999999998,0.077495919140474809,0.28726595472114974
-0.052487499999999999,0.07683416051694808,0.28793189994705887
-0.052475000000000001,0.07683416051694808,0.28859784517296799
-0.052462499999999995,0.076172401893421199,0.28992973562478647
-0.052449999999999997,0.075841522581657994,0.29059568085069531
-0.052437499999999998,0.075510643269894637,0.29059568085069531
-0.052424999999999999,0.075179763958131265,0.29259351652842264
-0.052412500000000001,0.074848884646367908,0.29259351652842264
-0.052399999999999995,0.074187126022841027,0.29392540698024111
-0.052387499999999997,0.073856246711077822,0.29459135220614996
-0.052374999999999998,0.073194488087551093,0.29559027004501359
-0.052362499999999999,0.073194488087551093,0.29625621527092272
-0.052350000000000001,0.072532729464024365,0.29725513310978641
-0.052337499999999995,0.072532729464024212,0.29758810572274108
-0.052324999999999997,0.072201850152261007,0.29792107833569548
-0.052312499999999998,0.071870970840497636,0.29891999617455917
-0.052299999999999999,0.071540091528734279,0.29958594140046824
-0.052287500000000001,0.071540091528734279,0.29925296878751373
-0.052274999999999995,0.070878332905207397,0.30058485923933209
-0.052262499999999996,0.070547453593444193,0.30091783185228649
-0.052249999999999998,0.070216574281680835,0.30125080446524105
-0.052237499999999999,0.069885694969917464,0.30258269491705925
-0.052225000000000001,0.069554815658154107,0.30224972230410468
-0.052212499999999995,0.06922393634639043,0.3035816127559231
-0.052199999999999996,0.068562177722864021,0.30391458536887744
-0.052187499999999998,0.068231298411100649,0.30424755798183201
-0.052174999999999999,0.067900419099337292,0.3052464758206957
-0.052162500000000001,0.067238660475810563,0.30557944843365026
-0.052150000000000002,0.067238660475810563,0.30624539365955905
-0.052137499999999996,0.066576901852283835,0.30657836627251389
-0.052124999999999998,0.066576901852283835,0.30691133888546845
-0.052112499999999999,0.066246022540520477,0.30757728411137758
-0.0521,0.065584263916993749,0.30791025672433214
-0.052087500000000002,0.065253384605230544,0.30857620195024094
-0.052074999999999996,0.06492250529346702,0.30890917456319578
-0.052062499999999998,0.064260746669940305,0.3095751197891049
-0.052049999999999999,0.064260746669940305,0.3095751197891049
-0.0520375,0.063598988046413577,0.31024106501501397
-0.052025000000000002,0.063598988046413577,0.31090701024092282
-0.052012499999999996,0.062937229422886848,0.3109070102409231
-0.051999999999999998,0.062275470799360119,0.31157295546683222
-0.051987499999999999,0.061944591487596762,0.31190592807978679
-0.051975,0.061944591487596762,0.31257187330569586
-0.051962500000000002,0.061282832864070332,0.31290484591865025
-0.051949999999999996,0.060951953552306676,0.31323781853160498
-0.051937499999999998,0.060621074240543311,0.31323781853160498
-0.051924999999999999,0.059959315617016583,0.31390376375751411
-0.0519125,0.059628436305253225,0.31390376375751411
-0.051900000000000002,0.058966677681726795,0.3149026815963773
-0.051887499999999996,0.058635798369963132,0.31523565420933231
-0.051874999999999998,0.058304919058199775,0.31590159943524143
-0.051862499999999999,0.058304919058199775,0.31556862682228687
-0.05185,0.057974039746436411,0.31623457204819599
-0.051837500000000002,0.057643160434673199,0.31656754466115034
-0.051824999999999996,0.057312281122909682,0.3165675446611505
-0.051812499999999997,0.056981401811146318,0.31690051727410506
-0.051799999999999999,0.05665052249938296,0.31723348988705963
-0.0517875,0.056319643187619596,0.31756646250001419
-0.051775000000000002,0.055988763875856384,0.31823240772592304
-0.051762499999999996,0.05532700525232951,0.31823240772592332
-0.051749999999999997,0.054996125940566146,0.31856538033887788
-0.051737499999999999,0.054334367317039417,0.31856538033887788
-0.051725,0.05400348800527606,0.31923132556478695
-0.051712500000000002,0.053672608693512848,0.31956429817774135
-0.051699999999999996,0.053672608693512695,0.31956429817774151
-0.051687499999999997,0.053010850069985967,0.31956429817774151
-0.051674999999999999,0.053010850069985967,0.31989727079069608
-0.0516625,0.052349091446459245,0.31989727079069608
-0.051650000000000001,0.052018212134696033,0.32056321601660492
-0.051637499999999996,0.052018212134695881,0.3205632160166052
-0.051624999999999997,0.051356453511169152,0.32122916124251427
-0.051612499999999999,0.051025574199405795,0.32122916124251427
-0.0516,0.05069469488764243,0.32156213385546883
-0.051587500000000001,0.050032936264116,0.32189510646842323
-0.051574999999999996,0.049702056952352344,0.32222807908137796
-0.051562499999999997,0.049702056952352344,0.32222807908137796
-0.051549999999999999,0.049040298328825616,0.32256105169433252
-0.0515375,0.048709419017062251,0.32256105169433252
-0.051525000000000001,0.048047660393535828,0.32322699692024132
-0.051512499999999996,0.04804766039353553,0.32322699692024159
-0.051499999999999997,0.047716781081772165,0.32322699692024159
-0.051487499999999999,0.047055022458245437,0.32355996953319616
-0.051475,0.046724143146482079,0.32355996953319616
-0.051462500000000001,0.046393263834718715,0.32389294214615072
-0.051449999999999996,0.045731505211191986,0.32389294214615072
-0.051437499999999997,0.045731505211191986,0.32422591475910528
-0.051424999999999998,0.045069746587665264,0.32455888737205985
-0.0514125,0.045069746587665264,0.32422591475910528
-0.051400000000000001,0.044407987964138536,0.32489185998501441
-0.051387499999999996,0.043746229340611814,0.32489185998501441
-0.051374999999999997,0.043746229340611814,0.32489185998501441
-0.051362499999999998,0.04341535002884845,0.32522483259796892
-0.05135,0.043084470717085085,0.32522483259796892
-0.051337500000000001,0.043084470717085085,0.32555780521092348
-0.051324999999999996,0.042422712093558364,0.32555780521092348
-0.051312499999999997,0.041760953470031635,0.32555780521092348
-0.051299999999999998,0.041430074158268271,0.32589077782387804
-0.0512875,0.041099194846504913,0.32589077782387804
-0.051275000000000001,0.040768315534741549,0.3262237504368326
-0.051262499999999996,0.040437436222978032,0.32622375043683277
-0.051249999999999997,0.04010655691121482,0.32655672304978717
-0.051237499999999998,0.039775677599451463,0.32688969566274173
-0.051225,0.039113918975924734,0.32688969566274173
-0.051212500000000001,0.03878303966416137,0.32688969566274173
-0.051199999999999996,0.03845216035239786,0.32722266827569624
-0.051187499999999997,0.038121281040634648,0.32722266827569624
-0.051174999999999998,0.03745952241710792,0.3275556408886508
-0.0511625,0.037128643105344562,0.3275556408886508
-0.051150000000000001,0.036797763793581198,0.32822158611455993
-0.051137499999999995,0.036136005170054317,0.32822158611455993
-0.051124999999999997,0.035805125858291105,0.32822158611455993
-0.051112499999999998,0.035805125858291105,0.32855455872751449
-0.0511,0.035474246546527748,0.32855455872751449
-0.051087500000000001,0.034812487923001019,0.32855455872751449
-0.051074999999999995,0.034812487923000866,0.32855455872751449
-0.051062499999999997,0.034481608611237655,0.32855455872751449
-0.051049999999999998,0.033819849987710933,0.32888753134046905
-0.0510375,0.033488970675947569,0.32888753134046905
-0.051025000000000001,0.033158091364184204,0.32888753134046905
-0.051012499999999995,0.033158091364183906,0.32888753134046922
-0.050999999999999997,0.032496332740657483,0.32922050395342362
-0.050987499999999998,0.032496332740657483,0.32955347656637812
-0.050974999999999999,0.031503694805367397,0.32955347656637812
-0.050962500000000001,0.030841936181840668,0.32955347656637812
-0.050949999999999995,0.03117281549360373,0.32955347656637829
-0.050937499999999997,0.030511056870077304,0.32988644917933269
-0.050924999999999998,0.029849298246550578,0.32988644917933269
-0.050912499999999999,0.029849298246550578,0.33021942179228725
-0.050900000000000001,0.029518418934787218,0.33055239440524181
-0.050887499999999995,0.028856660311260343,0.33021942179228742
-0.050874999999999997,0.028525780999497128,0.33055239440524181
-0.050862499999999998,0.028194901687733767,0.33055239440524181
-0.050849999999999999,0.027864022375970403,0.33088536701819637
-0.050837500000000001,0.027864022375970403,0.33055239440524181
-0.050824999999999995,0.02753314306420674,0.33055239440524198
-0.050812499999999997,0.026871384440680317,0.33088536701819637
-0.050799999999999998,0.026209625817153588,0.33088536701819637
-0.050787499999999999,0.025878746505390227,0.33121833963115094
-0.050775000000000001,0.025547867193626863,0.33121833963115094
-0.050762499999999995,0.025216987881863353,0.3312183396311511
-0.050749999999999997,0.024886108570100138,0.33155131224410544
-0.050737499999999998,0.024555229258336777,0.33155131224410544
-0.050724999999999999,0.024224349946573413,0.33155131224410544
-0.050712500000000001,0.023893470634810052,0.33155131224410544
-0.050699999999999995,0.023562591323046386,0.33155131224410544
-0.050687499999999996,0.022900832699519962,0.33155131224410544
-0.050674999999999998,0.022900832699519962,0.33188428485706001
-0.050662499999999999,0.022239074075993237,0.33188428485706001
-0.050650000000000001,0.021908194764229876,0.33188428485706001
-0.050637499999999995,0.021246436140703002,0.33188428485706001
-0.050624999999999996,0.020915556828939787,0.33188428485706001
-0.050612499999999998,0.020915556828939787,0.33221725747001457
-0.050599999999999999,0.020584677517176422,0.33188428485706001
-0.050587500000000001,0.019922918893649697,0.33221725747001457
-0.050575000000000002,0.019592039581886486,0.33221725747001457
-0.050562499999999996,0.019261160270122972,0.33188428485706001
-0.050549999999999998,0.018930280958359611,0.33221725747001457
-0.050537499999999999,0.018268522334832886,0.33255023008296913
-0.050525,0.017937643023069522,0.33255023008296913
-0.050512500000000002,0.017275884399543098,0.33255023008296913
-0.050499999999999996,0.016945005087779436,0.33255023008296913
-0.050487499999999998,0.016945005087779436,0.3328832026959237
-0.050474999999999999,0.01628324646425271,0.3328832026959237
-0.0504625,0.015952367152489346,0.3328832026959237
-0.050450000000000002,0.015952367152489346,0.3328832026959237
-0.050437499999999996,0.015290608528962621,0.3328832026959237
-0.050424999999999998,0.014959729217199258,0.33321617530887826
-0.050412499999999999,0.014628849905435896,0.3328832026959237
-0.0504,0.014297970593672533,0.33321617530887826
-0.050387500000000002,0.013967091281909321,0.33288320269592386
-0.050374999999999996,0.013636211970145808,0.33321617530887826
-0.050362499999999998,0.013305332658382445,0.33321617530887826
-0.050349999999999999,0.012974453346619081,0.33321617530887826
-0.0503375,0.012312694723092356,0.33354914792183277
-0.050325000000000002,0.011981815411329144,0.33354914792183277
-0.050312499999999996,0.011320056787802268,0.33354914792183277
-0.050299999999999997,0.011320056787802268,0.33354914792183277
-0.050287499999999999,0.010989177476038905,0.33354914792183277
-0.050275,0.010658298164275543,0.33354914792183277
-0.050262500000000002,0.010327418852512331,0.33354914792183277
-0.050249999999999996,0.0099965395407488177,0.33388212053478733
-0.050237499999999997,0.0096656602289854551,0.33354914792183277
-0.050224999999999999,0.0093347809172220925,0.33354914792183277
-0.0502125,0.0086730222936953674,0.33354914792183277
-0.050200000000000002,0.0083421429819321557,0.33388212053478716
-0.050187499999999996,0.0080112636701686422,0.33388212053478733
-0.050174999999999997,0.0076803843584052796,0.33388212053478733
-0.050162499999999999,0.0070186257348785535,0.33421509314774189
-0.05015,0.0066877464231151909,0.33388212053478733
-0.050137500000000002,0.0063568671113519784,0.33388212053478733
-0.050124999999999996,0.0060259877995884649,0.33388212053478733
-0.050112499999999997,0.0053642291760617397,0.33388212053478733
-0.050099999999999999,0.0050333498642983771,0.33421509314774189
-0.0500875,0.0047024705525350145,0.33421509314774189
-0.050075000000000001,0.0043715912407718029,0.33454806576069629
-0.050062499999999996,0.0040407119290082893,0.33421509314774189
-0.050049999999999997,0.0033789533054815637,0.33421509314774189
-0.050037499999999999,0.0033789533054815637,0.33421509314774189
-0.050025,0.0027171946819548381,0.33454806576069646
-0.050012500000000001,0.002386315370191626,0.33454806576069646
-0.049999999999999996,0.0020554360584281129,0.33454806576069646
-0.049987499999999997,0.0020554360584281129,0.33454806576069646
-0.049974999999999999,0.0013936774349013873,0.33454806576069646
-0.0499625,0.00073191881137466214,0.33454806576069646
-0.049950000000000001,0.00073191881137466214,0.33454806576069646
-0.049937499999999996,0.00040103949961129933,0.33454806576069646
-0.049924999999999997,7.0160187847936634e-05,0.33454806576069646
-0.049912499999999999,-0.00026071912391542607,0.33454806576069646
-0.0499,-0.00092247774744215146,0.33454806576069646
-0.049887500000000001,-0.0012533570592055143,0.33454806576069646
-0.049874999999999996,-0.0015842363709688769,0.33488103837365102
-0.049862499999999997,-0.0015842363709688769,0.33454806576069646
-0.049849999999999998,-0.0022459949944956025,0.33488103837365102
-0.0498375,-0.0025768743062589651,0.33454806576069646
-0.049825000000000001,-0.0029077536180223277,0.33488103837365102
-0.049812499999999996,-0.0035695122415490528,0.33488103837365102
-0.049799999999999997,-0.0035695122415490528,0.33454806576069646
-0.049787499999999998,-0.0042312708650757789,0.33488103837365102
-0.049775,-0.0048930294886025041,0.33488103837365102
-0.049762500000000001,-0.0048930294886025041,0.33488103837365102
-0.049749999999999996,-0.0055547881121292293,0.33454806576069662
-0.049737499999999997,-0.0055547881121292293,0.33488103837365102
-0.049724999999999998,-0.006547426047419317,0.33488103837365102
-0.0497125,-0.006547426047419317,0.33521401098660558
-0.049700000000000001,-0.0068783053591826796,0.33488103837365102
-0.049687499999999996,-0.0072091846709461931,0.33488103837365119
-0.049674999999999997,-0.0075400639827094057,0.33521401098660558
-0.049662499999999998,-0.0078709432944727674,0.33521401098660558
-0.04965,-0.0082018226062361317,0.33521401098660558
-0.049637500000000001,-0.0085327019179994943,0.33521401098660558
-0.049624999999999996,-0.008863581229763157,0.33521401098660558
-0.049612499999999997,-0.0095253398532895821,0.33521401098660558
-0.049599999999999998,-0.0095253398532895821,0.33521401098660558
-0.0495875,-0.010187098476816307,0.33521401098660558
-0.049575000000000001,-0.01051797778857967,0.33521401098660558
-0.049562499999999995,-0.010848857100343032,0.33521401098660558
-0.049549999999999997,-0.010848857100343032,0.33521401098660558
-0.049537499999999998,-0.011510615723869758,0.33521401098660558
-0.049525,-0.012172374347396483,0.33521401098660558
-0.049512500000000001,-0.012172374347396483,0.33488103837365102
-0.049499999999999995,-0.012503253659159996,0.33521401098660575
-0.049487499999999997,-0.012834132970923208,0.33554698359956014
-0.049474999999999998,-0.013495891594449933,0.33521401098660558
-0.0494625,-0.013826770906213297,0.33521401098660558
-0.049450000000000001,-0.01415765021797666,0.33521401098660558
-0.049437499999999995,-0.014488529529740174,0.33521401098660575
-0.049424999999999997,-0.014819408841503385,0.33554698359956014
-0.049412499999999998,-0.015150288153266748,0.33554698359956014
-0.049399999999999999,-0.015812046776793473,0.33554698359956014
-0.049387500000000001,-0.016142926088556837,0.33521401098660558
-0.049374999999999995,-0.0164738054003205,0.33587995621251449
-0.049362499999999997,-0.017135564023846923,0.33554698359956014
-0.049349999999999998,-0.016804684712083563,0.33554698359956014
-0.049337499999999999,-0.017466443335610288,0.33554698359956014
-0.049325000000000001,-0.018128201959137013,0.33554698359956014
-0.049312499999999995,-0.018459081270900676,0.33587995621251465
-0.049299999999999997,-0.019120839894427099,0.33587995621251465
-0.049287499999999998,-0.019451719206190463,0.33554698359956014
-0.049274999999999999,-0.019451719206190463,0.33587995621251465
-0.049262500000000001,-0.019782598517953824,0.33554698359956014
-0.049249999999999995,-0.020113477829717338,0.33554698359956031
-0.049237499999999997,-0.020444357141480549,0.33587995621251465
-0.049224999999999998,-0.020113477829717188,0.33554698359956014
-0.049212499999999999,-0.021106115765007274,0.33587995621251465
-0.049200000000000001,-0.021436995076770639,0.33554698359956014
-0.049187499999999995,-0.021767874388534152,0.33587995621251465
-0.049174999999999996,-0.022098753700297364,0.33587995621251465
-0.049162499999999998,-0.022760512323824089,0.33587995621251465
-0.049149999999999999,-0.022760512323824089,0.33587995621251465
-0.049137500000000001,-0.023091391635587454,0.33554698359956014
-0.049124999999999995,-0.023753150259114328,0.33554698359956031
-0.049112499999999996,-0.02408402957087754,0.33587995621251465
-0.049099999999999998,-0.024414908882640904,0.33587995621251465
-0.049087499999999999,-0.024745788194404265,0.33587995621251465
-0.049075000000000001,-0.02540754681793099,0.33587995621251465
-0.049062499999999995,-0.025738426129694503,0.33587995621251465
-0.049049999999999996,-0.026069305441457715,0.33587995621251465
-0.049037499999999998,-0.02673106406498444,0.33587995621251465
-0.049024999999999999,-0.027061943376747805,0.33587995621251465
-0.049012500000000001,-0.027392822688511169,0.33587995621251465
-0.049000000000000002,-0.027723702000274381,0.33621292882546905
-0.048987499999999996,-0.028054581312037894,0.33621292882546921
-0.048974999999999998,-0.028385460623801255,0.33621292882546921
-0.048962499999999999,-0.028385460623801255,0.33621292882546921
-0.04895,-0.029378098559091344,0.33621292882546921
-0.048937500000000002,-0.029708977870854556,0.33621292882546921
-0.048924999999999996,-0.03003985718261807,0.33621292882546921
-0.048912499999999998,-0.03037073649438143,0.33621292882546921
-0.048899999999999999,-0.031032495117908156,0.33621292882546921
-0.0488875,-0.03136337442967152,0.33621292882546921
-0.048875000000000002,-0.03136337442967152,0.33621292882546921
-0.048862499999999996,-0.031694253741434884,0.33621292882546921
-0.048849999999999998,-0.032356012364961606,0.33587995621251465
-0.048837499999999999,-0.032356012364961606,0.33621292882546921
-0.048825,-0.03268689167672497,0.33621292882546921
-0.048812500000000002,-0.033348650300251401,0.33621292882546921
-0.048799999999999996,-0.033679529612015056,0.33621292882546921
-0.048787499999999998,-0.033679529612015056,0.33621292882546921
-0.048774999999999999,-0.034341288235541785,0.33621292882546921
-0.0487625,-0.034672167547305149,0.33621292882546921
-0.048750000000000002,-0.034672167547305149,0.33621292882546921
-0.048737499999999996,-0.035664805482595235,0.33621292882546921
-0.048724999999999997,-0.035664805482595235,0.33621292882546921
-0.048712499999999999,-0.036326564106121957,0.33621292882546921
-0.0487,-0.036657443417885321,0.33621292882546921
-0.048687500000000002,-0.036657443417885321,0.33621292882546921
-0.048674999999999996,-0.037650081353175414,0.33621292882546921
-0.048662499999999997,-0.038311839976702136,0.33621292882546921
-0.048649999999999999,-0.038311839976702136,0.33654590143842378
