Final Project/Progress_Report/CSV_Data/PHYS605-FinalProj-OfficialTriangleOpampPlotHard.csv

#Digilent WaveForms Oscilloscope Acquisition
#Device Name: Alan
#Serial Number: SN:210321A3716A
#Date Time: 2024-05-09 16:25:00.559
#Sample rate: 400000Hz
#Samples: 8192
#Trigger: Source: Channel 1 Type: Edge Condition: Rising Level: 0 V Hyst.: Auto HoldOff: 0 s
#Channel 1: Range: 100 mV/div Offset: 0 V
#Channel 2: Range: 100 mV/div Offset: 0 V

Time (s),Channel 1 (V),Channel 2 (V)
0.39976062499999993,-0.095223081600004131,-0.18955082702977549
0.39976312499999994,-0.094892202288238511,-0.18921785441681865
0.39976562499999996,-0.093568685041180696,-0.18821893657795211
0.39976812499999997,-0.092245167794127239,-0.18755299135204453
0.39977062499999994,-0.091914288482369155,-0.18755299135204453
0.39977312499999995,-0.090921650547076807,-0.18722001873908997
0.39977562499999997,-0.089598133300014926,-0.18688704612613755
0.39977812499999993,-0.088274616052981938,-0.18722001873908695
0.39978062499999995,-0.087612857429444982,-0.18688704612613635
0.39978312499999996,-0.086620219494151884,-0.18622110090022753
0.39978562499999998,-0.086289340182379354,-0.18655407351317044
0.39978812499999994,-0.085296702247105047,-0.18555515567432265
0.39979062499999996,-0.083973185000044831,-0.18522218306136265
0.39979312499999997,-0.08298054706474331,-0.18522218306135493
0.39979562499999993,-0.081326150505952086,-0.1842232652225067
0.39979812499999995,-0.080664391882413464,-0.18422326522249899
0.39980062499999997,-0.0793408746353573,-0.18389029260954262
0.39980312499999993,-0.079009995323599203,-0.18355731999659336
0.39980562499999994,-0.078017357388309269,-0.18255840215772987
0.39980812499999996,-0.077355598764774422,-0.18255840215772623
0.39981062499999998,-0.075701202205956095,-0.18255840215772018
0.39981312499999994,-0.075039443582439622,-0.18189245693182135
0.39981562499999995,-0.074046805647145303,-0.18155948431886257
0.39981812499999997,-0.073385047023607305,-0.18122651170590345
0.39982062499999993,-0.071730650464816817,-0.18056056648000496
0.39982312499999995,-0.070407133217751328,-0.18022759386704509
0.39982562499999996,-0.070076253905979546,-0.17956164864113525
0.39982812499999998,-0.068752736658927893,-0.17956164864113161
0.39983062499999994,-0.068421857347169796,-0.17922867602818235
0.39983312499999996,-0.066767460788350122,-0.1782297581893158
0.39983562499999997,-0.066105702164813762,-0.1775638129634079
0.39983812499999993,-0.064782184917780788,-0.1775638129634079
0.39984062499999995,-0.064120426294245025,-0.1775638129634079
0.39984312499999997,-0.062796909047187363,-0.17656489512454243
0.39984562499999993,-0.062135150423670869,-0.17623192251159303
0.39984812499999994,-0.060811633176615615,-0.17523300467272968
0.39985062499999996,-0.060149874553081968,-0.17490003205977042
0.39985312499999998,-0.059488115929551028,-0.17456705944681372
0.39985562499999994,-0.058826357306034541,-0.17423408683386435
0.39985812499999995,-0.056841081435450296,-0.17356814160795295
0.39986062499999997,-0.056510202123672637,-0.1729021963820393
0.39986312499999993,-0.054524926253124065,-0.17223625115614077
0.39986562499999995,-0.054194046941344151,-0.17123733331727317
0.39986812499999996,-0.053201409006048937,-0.17057138809136074
0.39987062499999992,-0.052208771070774651,-0.17023841547841148
0.39987312499999994,-0.0512161331354778,-0.16957247025250163
0.39987562499999996,-0.049561736576655267,-0.16923949763954224
0.39987812499999997,-0.048899977953124028,-0.16824057980067464
0.39988062499999993,-0.048238219329607833,-0.16757463457477614
0.39988312499999995,-0.046914702082550171,-0.16657571673590807
0.39988562499999997,-0.045922064147255567,-0.16524382628408743
0.39988812499999993,-0.045260305523739074,-0.16491085367113803
0.39989062499999994,-0.044267667588445823,-0.16424490844522785
0.39989312499999996,-0.042944150341387106,-0.1635789632193124
0.39989562499999998,-0.042282391717852558,-0.16224707276749176
0.39989812499999994,-0.041289753782578272,-0.16158112754159323
0.39990062499999995,-0.039966236535517445,-0.15991626447681592
0.39990312499999997,-0.038311839976704544,-0.15925031925090016
0.39990562499999993,-0.038642719288462794,-0.15825140141205196
0.39990812499999995,-0.037319202041414458,-0.15791842879908982
0.39991062499999996,-0.035664805482591926,-0.15592059312135856
0.39991312499999998,-0.035003046859064746,-0.15525464789544141
0.39991562499999994,-0.034672167547306502,-0.15425573005659318
0.39991812499999996,-0.033017770988485323,-0.15325681221771939
0.39992062499999997,-0.031694253741429167,-0.1505930313140775
0.39992312499999993,-0.031032495117912669,-0.14926114086227987
0.39992562499999995,-0.030370736494381732,-0.14759627779749879
0.39992812499999997,-0.029708977870846278,-0.14659735995861953
0.39993062499999993,-0.028385460623813894,-0.14426655166797475
0.39993312499999994,-0.027392822688513879,-0.14326763382909155
0.39993562499999996,-0.02640018475321506,-0.14060385292544389
0.39993812499999998,-0.024745788194393884,-0.13827304463473919
0.39994062499999994,-0.023753150259119594,-0.13527629111819586
0.39994312499999995,-0.023422270947348556,-0.13161359237567488
0.39994562499999997,-0.021767874388531446,-0.12828386624611846
0.39994812499999993,-0.021436995076773196,-0.126286030568422
0.39995062499999995,-0.020113477829718993,-0.12229035921295736
0.39995312499999996,-0.019451719206182189,-0.11929360569633594
0.39995562499999993,-0.017797322647390951,-0.11429901650209484
0.39995812499999994,-0.016804684712087625,-0.10830550946888517
0.39996062499999996,-0.016142926088553226,-0.10197902982270321
0.39996312499999997,-0.014819408841491348,-0.094320659724696679
0.39996562499999994,-0.013495891594458359,-0.086329317013910931
0.39996812499999995,-0.012834132970923208,-0.080002837367723525
0.39997062499999997,-0.012172374347391969,-0.072677439882673361
0.39997312499999993,-0.011510615723875777,-0.065352042397789772
0.39997562499999995,-0.010187098476819317,-0.056694754460924417
0.39997812499999996,-0.0082018226062347769,-0.047038548685169518
0.39998062499999998,-0.0078709432944658458,-0.034052616779907986
0.39998312499999994,-0.0072091846709493538,-0.025728301456172831
0.39998562499999996,-0.0062165467356541486,-0.016072095680438218
0.39998812499999997,-0.0048930294885916707,-0.0080807529694307979
0.39999062499999993,-0.0035695122415592842,0.005238151548539384
0.39999312499999995,-0.0029077536180229296,0.015560302550224142
0.39999562499999997,-0.0022459949944901858,0.024550563100055552
0.39999812499999993,-0.0012533570592154451,0.033540823649689515
0.40000062499999994,7.0160187843121584e-05,0.046193782942006482
0.40000312499999996,0.0010627981231401313,0.057514851782541274
0.40000562499999998,0.0017245567466742297,0.068169975397116694
0.40000812499999994,0.00271719468194897,0.074829427656104799
0.40001062499999995,0.0040407119290087404,0.083153742980011824
0.40001312499999997,0.0050333498643074055,0.091478058303924123
0.40001562499999993,0.0063568671113403922,0.099136428401760471
0.40001812499999995,0.0070186257348770487,0.10679479849976396
0.40002062499999996,0.0083421429819350145,0.11312127814594819
0.40002312499999992,0.0090039016054512064,0.1197807304049333
0.40002562499999994,0.009996539540744304,0.12344342914749244
0.40002812499999996,0.010989177476040109,0.12710612789001463
0.40003062499999997,0.011650936099577066,0.13010288140662318
0.40003312499999993,0.012974453346609452,0.13276666231021725
0.40003562499999995,0.013636211970145508,0.13609638843978061
0.40003812499999997,0.015290608528968489,0.13909314195639086
0.40004062499999993,0.016283246464243232,0.14208989547293552
0.40004312499999994,0.017275884399539636,0.14442070376363861
0.40004562499999996,0.017606763711310373,0.14608556682842408
0.40004812499999998,0.018930280958366231,0.1477504298931982
0.40005062499999994,0.019592039581882423,0.14841637511909672
0.40005312499999995,0.021246436140703751,0.15041421079682921
0.40005562499999997,0.021908194764239507,0.15174610124865831
0.40005812499999993,0.023231712011272491,0.15341096431340534
0.40006062499999995,0.024555229258334369,0.15574177260409661
0.40006312499999996,0.024555229258346706,0.15607474521706208
0.40006562499999998,0.026540505128924474,0.15740663566888119
0.40006812499999994,0.027202263752440968,0.15807258089478002
0.40007062499999996,0.028194901687736026,0.15907149873364868
0.40007312499999997,0.029187539623035288,0.16007041657252444
0.40007562499999993,0.030511056870068276,0.16173527963727147
0.40007812499999995,0.031503694805366945,0.16240122486319164
0.40008062499999997,0.032827212052425059,0.16373311531501439
0.40008312499999993,0.033488970675941247,0.16439906054091291
0.40008562499999994,0.034150729299472493,0.16506500576682656
0.40008812499999996,0.034481608611243671,0.16539797837978656
0.40009062499999998,0.036136005170068312,0.16639689621865006
0.40009312499999994,0.037459522417100696,0.16672986883159932
0.40009562499999995,0.038783039664162723,0.16806175928342026
0.40009812499999997,0.039775677599459137,0.16872770450933877
0.40010062499999993,0.040768315534733424,0.17005959496113576
0.40010312499999995,0.041099194846504462,0.16972662234819258
0.40010562499999996,0.042091832781798309,0.17072554018705746
0.40010812499999993,0.04275359140531481,0.17105851280000686
0.40011062499999994,0.044077108652369759,0.17105851280001033
0.40011312499999996,0.044738867275905508,0.17205743063887671
0.40011562499999997,0.046062384522967389,0.17305634847774673
0.40011812499999994,0.047385901770000377,0.17405526631659499
0.40012062499999995,0.048378539705298894,0.17438823892955588
0.40012312499999997,0.049702056952356556,0.1747212115425168
0.40012562499999993,0.05036381557587305,0.17572012938136503
0.40012812499999995,0.051687332822928908,0.1757201293813741
0.40013062499999996,0.052349091446464664,0.17572012938137818
0.40013312499999998,0.053672608693523076,0.17671904722024473
0.40013562499999994,0.054665246628797813,0.17738499244614353
0.40013812499999996,0.055988763875856683,0.17771796505910234
0.40014062499999997,0.056319643187625015,0.17838391028501324
0.40014312499999993,0.056981401811141204,0.1787168828979625
0.40014562499999995,0.058635798369961627,0.17904985551091934
0.40014812499999997,0.059628436305256834,0.17938282812387601
0.40015062499999993,0.060290194928773327,0.17971580073682542
0.40015312499999994,0.061613712175828582,0.18038174596273546
0.40015562499999996,0.062937229422888652,0.18071471857569421
0.40015812499999998,0.063598988046426219,0.18138066380160472
0.40016062499999994,0.064922505293458596,0.18171363641455396
0.40016312499999995,0.065253384605231141,0.18171363641455637
0.40016562499999997,0.066907781164049468,0.18237958164046747
0.40016812499999993,0.067238660475807704,0.18271255425341684
0.40017062499999995,0.068562177722861009,0.18304552686637354
0.40017312499999996,0.069554815658158617,0.18337849947933038
0.40017562499999992,0.07054745359343291,0.18371147209227962
0.40017812499999994,0.071870970840491613,0.18404444470523643
0.40018062499999996,0.072863608775788943,0.18404444470523917
0.40018312499999997,0.073525367399327995,0.18471038993115524
0.40018562499999993,0.075179763958119233,0.18570930777000347
0.40018812499999995,0.075179763958131265,0.18570930777001074
0.40019062499999997,0.076834160516951994,0.18570930777001271
0.40019312499999993,0.077495919140468189,0.18604228038296194
0.40019562499999994,0.078488557075761731,0.18670822560887229
0.40019812499999996,0.0794811950110592,0.18704119822183105
0.40020062499999998,0.080804712258118375,0.18770714344773473
0.40020312499999994,0.081797350193392654,0.18737417083478547
0.40020562499999995,0.082789988128688916,0.18704119822182955
0.40020812499999997,0.083120867440464,0.18770714344773806
0.40021062499999993,0.084775263999255238,0.18770714344773806
0.40021312499999995,0.085437022622794304,0.18870606128659992
0.40021562499999996,0.086429660558090107,0.18903903389955778
0.40021812499999998,0.087422298493386966,0.18937200651250324
0.40022062499999994,0.088414936428661273,0.18870606128660475
0.40022312499999996,0.089407574363958131,0.18903903389955626
0.40022562499999997,0.090400212299254532,0.18903903389956489
0.40022812499999993,0.091392850234529269,0.19003795173841312
0.40023062499999995,0.092716367481588902,0.19037092435137434
0.40023312499999997,0.094039884728647161,0.19070389696433329
0.40023562499999993,0.094701643352163356,0.19136984219023179
0.40023812499999994,0.095032522663932126,0.19103686957728452
0.40024062499999996,0.096025160599227929,0.19103686957728602
0.40024312499999998,0.097348677846283191,0.19170281480319604
0.40024562499999994,0.098010436469799692,0.19203578741614546
0.40024812499999995,0.099003074405094288,0.19170281480319301
0.40025062499999997,0.099995712340396267,0.1920357874161524
0.40025312499999993,0.10165010889918674,0.19270173264205093
0.40025562499999995,0.10165010889920029,0.19270173264205637
0.40025812499999996,0.10330450545802042,0.19336767786796713
0.40026062499999993,0.1039662640815369,0.19370065048091656
0.40026312499999994,0.10495890201682985,0.19370065048092003
0.40026562499999996,0.10595153995212941,0.19403362309387368
0.40026812499999997,0.10793681582270719,0.19370065048092305
0.40027062499999994,0.10826769513446544,0.19403362309387248
0.40027312499999995,0.10892945375799426,0.19469956831978369
0.40027562499999997,0.11025297100505194,0.19503254093273825
0.40027812499999993,0.11091472962856842,0.19503254093273825
0.40028062499999995,0.11223824687562428,0.19536551354569187
0.40028312499999996,0.11356176412268405,0.19536551354569279
0.40028562499999998,0.11422352274622882,0.19536551354569626
0.40028812499999994,0.11620879861677831,0.19569848615864568
0.40029062499999996,0.11620879861679005,0.19603145877160236
0.40029312499999997,0.1175323158638471,0.19636443138455645
0.40029562499999993,0.1181940744873633,0.19636443138455645
0.40029812499999995,0.11984847104618374,0.19703037661046496
0.40030062499999997,0.12051022966971918,0.19669740399751465
0.40030312499999993,0.12183374691675217,0.19736334922341348
0.40030562499999994,0.12249550554028973,0.19736334922342014
0.40030812499999996,0.12381902278734649,0.19769632183637467
0.40031062499999998,0.12414990209911843,0.19769632183637786
0.40031312499999994,0.12514254003439271,0.19802929444932713
0.40031562499999995,0.12580429865792619,0.19802929444932924
0.40031812499999997,0.12679693659322488,0.19802929444933151
0.40032062499999993,0.12812045384025786,0.19836226706228091
0.40032312499999995,0.12977485039908235,0.19869523967523758
0.40032562499999996,0.13043660902261886,0.19902821228819442
0.40032812499999992,0.13176012626965125,0.19936118490114368
0.40033062499999994,0.13242188489319001,0.19936118490114746
0.40033312499999996,0.1334145228284849,0.19936118490114807
0.40033562499999997,0.13440716076378401,0.19969415751410471
0.40033812499999993,0.13573067801081701,0.20002713012705414
0.40034062499999995,0.1370541952578789,0.20002713012705656
0.40034312499999997,0.13804683319317018,0.20036010274001112
0.40034562499999993,0.13804683319317018,0.20036010274001112
0.40034812499999994,0.13970122975198171,0.20036010274001112
0.40035062499999996,0.14036298837551794,0.20069307535296776
0.40035312499999998,0.14168650562257049,0.20135902057887478
0.40035562499999994,0.14201738493432858,0.20135902057887478
0.40035812499999995,0.14334090218138518,0.20169199319182932
0.40036062499999997,0.14466441942844707,0.2016919931918269
0.40036312499999993,0.14598793667547946,0.20135902057887767
0.40036562499999995,0.14698057461077918,0.20169199319182871
0.40036812499999996,0.14797321254607709,0.20235793841773844
0.40037062499999998,0.1492967297931283,0.20235793841774602
0.40037312499999994,0.14962760910488637,0.20302388364364451
0.40037562499999996,0.15062024704018021,0.20269091103069373
0.40037812499999997,0.15161288497547376,0.20302388364364179
0.40038062499999993,0.15227464359899026,0.20235793841774299
0.40038312499999995,0.15392904015781084,0.20269091103069284
0.40038562499999997,0.15425991946958473,0.20302388364364951
0.40038812499999993,0.15591431602837597,0.20335685625659891
0.40039062499999994,0.15657607465191639,0.20368982886955561
0.40039312499999996,0.157568712587211,0.20368982886955544
0.40039562499999998,0.15823047121074524,0.20335685625660876
0.40039812499999994,0.15922310914601998,0.20402280148250757
0.40040062499999995,0.16021574708131639,0.20402280148251181
0.40040312499999997,0.1612083850166158,0.20468874670841775
0.40040562499999993,0.16253190226364819,0.20435577409546848
0.40040812499999995,0.16385541951071067,0.20468874670841988
0.40041062499999996,0.16451717813424416,0.20435577409546743
0.40041312499999993,0.16550981606951889,0.20468874670841686
0.40041562499999994,0.1661715746930533,0.20468874670842033
0.40041812499999996,0.16716421262834988,0.2046887467084226
0.40042062499999997,0.1688186091871659,0.20568766454727794
0.40042312499999994,0.16914948849892403,0.20502171932137941
0.40042562499999995,0.17080388505774308,0.20568766454728399
0.40042812499999997,0.17146564368127615,0.2056876645472861
0.40043062499999993,0.17245828161655088,0.2060206371602355
0.40043312499999995,0.17345091955184727,0.20602063716023852
0.40043562499999996,0.17444355748714413,0.20635360977319309
0.40043812499999998,0.17543619542244054,0.20635360977320005
0.40044062499999994,0.17642883335771528,0.20701955499909885
0.40044312499999996,0.17742147129301214,0.20635360977319353
0.40044562499999997,0.17874498854007145,0.20668658238614765
0.40044812499999993,0.17973762647534622,0.20668658238614765
0.40045062499999995,0.18106114372240553,0.20735252761205583
0.40045312499999997,0.18106114372241816,0.20768550022501131
0.40045562499999993,0.18304641959296675,0.20768550022501131
0.40045812499999994,0.18337729890474969,0.20768550022501131
0.40046062499999996,0.18403905752828212,0.20735252761205766
0.40046312499999998,0.18569345408710075,0.2076855002250145
0.40046562499999994,0.18635521271061692,0.20801847283796374
0.40046812499999995,0.1876787299576749,0.20835144545092041
0.40047062499999997,0.18834048858120808,0.20835144545092041
0.40047312499999993,0.18933312651648282,0.20835144545092041
0.40047562499999995,0.19065664376354186,0.20835144545092041
0.40047812499999996,0.19098752307531364,0.20835144545092177
0.40048062499999992,0.19231104032234661,0.2086844180638712
0.40048312499999994,0.19363455756940848,0.20901739067682787
0.40048562499999996,0.19462719550470639,0.20901739067682953
0.40048812499999997,0.19528895412824548,0.20901739067683497
0.40049062499999993,0.19694335068703669,0.20968333590273378
0.40049312499999995,0.19727422999881181,0.20901739067683014
0.40049562499999997,0.19859774724587143,0.20935036328978604
0.40049812499999993,0.19959038518114572,0.2096833359027353
0.40050062499999994,0.20025214380468026,0.21001630851569214
0.40050312499999996,0.19959038518115355,0.21001630851569214
0.40050562499999998,0.19892862655761942,0.20968333590273544
0.40050812499999994,0.19793598862234468,0.20935036328978604
0.40051062499999995,0.19694335068704799,0.20935036328978393
0.40051312499999997,0.19528895412822714,0.20901739067683195
0.40051562499999993,0.19462719550471091,0.20935036328978118
0.40051812499999995,0.19330367825765415,0.20901739067683014
0.40052062499999996,0.192641919634119,0.20868441806387344
0.40052312499999998,0.19131840238706405,0.20835144545091663
0.40052562499999994,0.19065664376354785,0.20801847283796737
0.40052812499999996,0.18933312651648915,0.20835144545091966
0.40053062499999997,0.18834048858119273,0.20801847283796585
0.40053312499999993,0.187347850645918,0.20801847283796585
0.40053562499999995,0.18668609202238481,0.20835144545092027
0.40053812499999997,0.18635521271061331,0.20768550022500737
0.40054062499999993,0.18503169546358031,0.20701955499910854
0.40054312499999994,0.18304641959299384,0.20701955499910218
0.40054562499999996,0.18304641959298271,0.20735252761205675
0.40054812499999998,0.18172290234592411,0.20735252761205675
0.40055062499999994,0.18073026441064938,0.20735252761205675
0.40055312499999995,0.17940674716358959,0.20701955499910157
0.40055562499999997,0.17841410922829276,0.20635360977319309
0.40055812499999993,0.17742147129301847,0.20635360977319309
