Final Project/Progress_Report/CSV_Data/PHYS605-FinalProj-OfficialSineTransistorVoltage.csv

#Digilent WaveForms Oscilloscope Acquisition
#Device Name: Alan
#Serial Number: SN:210321A3716A
#Date Time: 2024-05-07 15:03:50.389
#Sample rate: 80000Hz
#Samples: 8192
#Trigger: Source: Channel 1 Type: Edge Condition: Rising Level: 0 V Hyst.: Auto HoldOff: 0 s
#Channel 1: Range: 300 mV/div Offset: 0 V
#Channel 2: Range: 300 mV/div Offset: 0 V

Time (s),Channel 1 (V),Channel 2 (V)
-0.0526125,0.25749426473974413,-0.32373879005045719
-0.052599999999999994,0.25914866129856112,-0.33206310537432182
-0.052587499999999995,0.2594795406103243,-0.3337279684390938
-0.052574999999999997,0.2594795406103243,-0.33272905060023017
-0.052562499999999998,0.26146481648090447,-0.34438309205363954
-0.052549999999999999,0.26047217854561433,-0.33872255763341214
-0.052537499999999994,0.26179569579266765,-0.34638092773136608
-0.052524999999999995,0.26146481648090447,-0.3447160646665941
-0.052512499999999997,0.26212657510443116,-0.34704687295727599
-0.052499999999999998,0.26179569579266782,-0.34405011944068503
-0.052487499999999999,0.26278833372795796,-0.35137551692568519
-0.052474999999999994,0.26345009235148448,-0.35503821566818378
-0.052462499999999995,0.2631192130397213,-0.35170848953863976
-0.052449999999999997,0.26378097166324799,-0.3543722704422762
-0.052437499999999998,0.26345009235148464,-0.3543722704422762
-0.052424999999999999,0.26444273028677479,-0.35903388702363997
-0.052412499999999994,0.26576624753382772,-0.36669225712159198
-0.052399999999999995,0.26477360959853813,-0.36069875008841273
-0.052387499999999997,0.26576624753382816,-0.3680241475734129
-0.052374999999999998,0.26543536822206482,-0.36436144883091282
-0.052362499999999999,0.2660971268455915,-0.36935603802523115
-0.052349999999999994,0.26576624753382844,-0.36769117496046
-0.052337499999999995,0.26642800615735496,-0.37135387370295847
-0.052324999999999997,0.26775152340440833,-0.3790122438009132
-0.052312499999999998,0.26742064409264499,-0.37601549028432218
-0.052299999999999999,0.26742064409264499,-0.37668143551023131
-0.052287499999999994,0.26742064409264515,-0.3756825176713689
-0.052274999999999995,0.26775152340440833,-0.37834629857500407
-0.052262499999999996,0.26874416133969847,-0.38367386038227697
-0.052249999999999998,0.26874416133969847,-0.38367386038227697
-0.052237499999999999,0.27006767858675185,-0.39066628525432262
-0.052224999999999994,0.26874416133969875,-0.38400683299523347
-0.052212499999999995,0.26940591996322516,-0.38833547696364074
-0.052199999999999996,0.2703985578985153,-0.39399601138386814
-0.052187499999999998,0.2697367992749885,-0.38966736741545893
-0.052174999999999999,0.2703985578985153,-0.39266412093204994
-0.052162500000000001,0.27139119583380489,-0.39899060057818359
-0.052149999999999995,0.27072943721027865,-0.39532790183568634
-0.052137499999999996,0.27072943721027865,-0.39499492922273183
-0.052124999999999998,0.27139119583380533,-0.40065546364295923
-0.052112499999999999,0.27139119583380533,-0.39965654580409554
-0.0521,0.27205295445733185,-0.40331924454659401
-0.052087499999999995,0.27370735101614885,-0.41497328600000505
-0.052074999999999996,0.27205295445733213,-0.40365221715955019
-0.052062499999999998,0.27271471308085882,-0.40897977896682308
-0.052049999999999999,0.27370735101614885,-0.4123095050963686
-0.0520375,0.27271471308085926,-0.4073149159020526
-0.052024999999999995,0.2740382303279123,-0.41430734077409592
-0.052012499999999996,0.2740382303279123,-0.41597220383886874
-0.051999999999999998,0.27436910963967565,-0.41663814906477781
-0.051987499999999999,0.27436910963967565,-0.41563923122591417
-0.051975,0.27503086826320206,-0.42129976564613902
-0.051962499999999995,0.27436910963967565,-0.41730409429068693
-0.051949999999999996,0.27469998895143899,-0.41863598474250513
-0.051937499999999998,0.27536174757496568,-0.42163273825909614
-0.051924999999999999,0.27503086826320233,-0.41930192996841426
-0.0519125,0.27569262688672874,-0.42429651916273031
-0.051899999999999995,0.27569262688672902,-0.4219657108720507
-0.051887499999999996,0.27536174757496568,-0.42163273825909614
-0.051874999999999998,0.27536174757496568,-0.42129976564614158
-0.051862499999999999,0.2770161441337825,-0.42995705358295999
-0.05185,0.27668526482201933,-0.43128894403477758
-0.051837499999999995,0.27602350619849247,-0.42529543700159622
-0.051824999999999996,0.27668526482201916,-0.43195488926068731
-0.051812499999999997,0.27569262688672902,-0.42363057393682346
-0.051799999999999999,0.27668526482201916,-0.42962408097000543
-0.0517875,0.27668526482201916,-0.42862516313114224
-0.051774999999999995,0.27668526482201916,-0.42929110835705087
-0.051762499999999996,0.27800878206907265,-0.43728245106796021
-0.051749999999999997,0.27767790275730919,-0.43495164277727832
-0.051737499999999999,0.27767790275730919,-0.43694947845500565
-0.051725,0.27800878206907248,-0.43728245106796004
-0.051712499999999995,0.27900142000436268,-0.44627271161773313
-0.051699999999999996,0.27867054069259933,-0.44327595810114218
-0.051687499999999997,0.28032493725141616,-0.45393108171568791
-0.051674999999999999,0.28131757518670619,-0.46392026010432452
-0.0516625,0.28065581656317978,-0.45692783523228203
-0.051649999999999995,0.28164845449846965,-0.46458620533023365
-0.051637499999999996,0.27999405793965282,-0.45326513648977879
-0.051624999999999997,0.28131757518670619,-0.4619224244265972
-0.051612499999999999,0.28164845449846965,-0.46558512316909728
-0.0516,0.28197933381023282,-0.46758295884682372
-0.051587499999999994,0.28297197174552302,-0.47490835633182482
-0.051574999999999996,0.28264109243375968,-0.47091268497637018
-0.051562499999999997,0.28297197174552302,-0.47657321939659758
-0.051549999999999999,0.28297197174552302,-0.47390943849296113
-0.0515375,0.2842954889925759,-0.48456456210750204
-0.051524999999999994,0.28363373036904982,-0.4785710550743249
-0.051512499999999996,0.28429548899257651,-0.48456456210750687
-0.051499999999999997,0.28561900623962999,-0.49422076788318897
-0.051487499999999999,0.28462636830433985,-0.48656239778523419
-0.051475,0.28495724761610319,-0.48922617868887064
-0.051462499999999994,0.28495724761610319,-0.48789428823705244
-0.051449999999999996,0.28594988555139333,-0.49621860356091629
-0.051437499999999997,0.28462636830433985,-0.48689537039818875
-0.051424999999999998,0.28561900623962999,-0.49422076788318897
-0.0514125,0.28628076486315668,-0.49854941185159818
-0.051399999999999994,0.28727340279844671,-0.50654075456250747
-0.051387499999999996,0.28594988555139333,-0.4952196857220526
-0.051374999999999997,0.28661164417492002,-0.50154616536818919
-0.051362499999999998,0.28727340279844671,-0.50587480933659834
-0.05135,0.28628076486315668,-0.49688454878682536
-0.051337499999999994,0.28727340279844671,-0.50720669978841659
-0.051324999999999996,0.28661164417492002,-0.49921535707750725
-0.051312499999999997,0.28826604073373685,-0.51253426159568949
-0.051299999999999998,0.28793516142197351,-0.50953750807909848
-0.0512875,0.28826604073373685,-0.51353317943455312
-0.051274999999999994,0.28793516142197378,-0.5102034533050096
-0.051262499999999996,0.28859692004550019,-0.51453209727341676
-0.051249999999999997,0.28826604073373685,-0.51353317943455312
-0.051237499999999998,0.28859692004550019,-0.51419912466046225
-0.051225,0.28958955798079034,-0.52318938521023517
-0.051212499999999994,0.28992043729255351,-0.5271850565656887
-0.051199999999999996,0.28958955798079034,-0.52485424827500793
-0.051187499999999997,0.28992043729255368,-0.52651911133978069
-0.051174999999999998,0.28958955798079034,-0.52318938521023517
-0.0511625,0.28958955798079034,-0.52485424827500793
-0.051149999999999994,0.29025131660431719,-0.52951586485637325
-0.051137499999999995,0.29058219591608037,-0.53284559098591722
-0.051124999999999997,0.29058219591608037,-0.53084775530818995
-0.051112499999999998,0.29157483385137051,-0.540503961083872
-0.0511,0.29091307522784371,-0.53584234450250823
-0.051087499999999994,0.29157483385137023,-0.53917207063204986
-0.051074999999999995,0.29091307522784371,-0.53051478269523533
-0.051062499999999997,0.29157483385137051,-0.540503961083872
-0.051049999999999998,0.29157483385137051,-0.53850612540614462
-0.0510375,0.29157483385137051,-0.53817315279319011
-0.051024999999999994,0.29223659247489692,-0.54649746811705069
-0.051012499999999995,0.29157483385137051,-0.53950504324500836
-0.050999999999999997,0.29157483385137051,-0.53717423495432648
-0.050987499999999998,0.29190571316313385,-0.53817315279319011
-0.050974999999999999,0.29223659247489719,-0.54416665982637213
-0.050962499999999994,0.29157483385137112,-0.53650828972842246
-0.050949999999999995,0.29289835109842388,-0.54782935856887216
-0.050937499999999997,0.29256747178666054,-0.5461644955040994
-0.050924999999999998,0.29190571316313385,-0.53950504324500836
-0.050912499999999999,0.29322923041018734,-0.5518250299243268
-0.050899999999999994,0.29190571316313429,-0.5365082897284229
-0.050887499999999995,0.29289835109842388,-0.54882827640773579
-0.050874999999999997,0.29256747178666054,-0.54483260505228115
-0.050862499999999998,0.29322923041018734,-0.55115908469841768
-0.050849999999999999,0.29223659247489719,-0.54216882414864476
-0.050837499999999994,0.29289835109842405,-0.54749638595591843
-0.050824999999999995,0.29322923041018734,-0.54916124902069041
-0.050812499999999997,0.29322923041018734,-0.55049313947250866
-0.050799999999999998,0.29289835109842388,-0.5461644955040994
-0.050787499999999999,0.29289835109842388,-0.5461644955040994
-0.050774999999999994,0.29389098903371375,-0.55215800253727843
-0.050762499999999995,0.29322923041018734,-0.54549855027819028
-0.050749999999999997,0.29389098903371402,-0.55348989298909956
-0.050737499999999998,0.29356010972195068,-0.54583152289114489
-0.050724999999999999,0.29455274765724071,-0.55648664650569057
-0.050712499999999994,0.29356010972195085,-0.54749638595591943
-0.050699999999999995,0.29389098903371402,-0.5514920573113723
-0.050687499999999996,0.29389098903371402,-0.55049313947250866
-0.050674999999999998,0.29356010972195068,-0.54749638595591765
-0.050662499999999999,0.29488362696900405,-0.55948340002228159
-0.050649999999999994,0.29389098903371463,-0.5491612490206953
-0.050637499999999995,0.29521450628076751,-0.55981637263523609
-0.050624999999999996,0.29422186834547737,-0.55315692037614506
-0.050612499999999998,0.29422186834547737,-0.55016016685955405
-0.050599999999999999,0.29422186834547737,-0.54982719424659954
-0.050587500000000001,0.29422186834547737,-0.55182502992432592
-0.050574999999999995,0.29389098903371402,-0.54749638595591765
-0.050562499999999996,0.29521450628076751,-0.55848448218341795
-0.050549999999999998,0.29455274765724071,-0.55482178344091782
-0.050537499999999999,0.29389098903371402,-0.54782935856887216
-0.050525,0.29554538559253007,-0.56148123570000263
-0.050512499999999995,0.29356010972195068,-0.54316774198750839
-0.050499999999999996,0.29554538559253085,-0.55781853695750883
-0.050487499999999998,0.29455274765724071,-0.55049313947250866
-0.050474999999999999,0.29455274765724071,-0.5518250299243268
-0.0504625,0.29521450628076723,-0.55548772866682528
-0.050449999999999995,0.29488362696900405,-0.55249097515023593
-0.050437499999999996,0.29521450628076751,-0.55515475605387232
-0.050424999999999998,0.29488362696900405,-0.55415583821500869
-0.050412499999999999,0.29422186834547737,-0.54716341334296303
-0.0504,0.29455274765724054,-0.54683044073000864
-0.050387499999999995,0.29554538559253085,-0.55815150957046333
-0.050374999999999996,0.29389098903371402,-0.54383368721341752
-0.050362499999999998,0.29521450628076751,-0.55448881082796331
-0.050349999999999999,0.29554538559253085,-0.55482178344091782
-0.0503375,0.29554538559253085,-0.55315692037614583
-0.050324999999999995,0.29521450628076751,-0.54882827640773579
-0.050312499999999996,0.29554538559253085,-0.55548772866682694
-0.050299999999999997,0.2958762649042942,-0.55681961911864519
-0.050287499999999999,0.29521450628076751,-0.54882827640773579
-0.050275,0.29653802352782027,-0.5598163726352311
-0.050262499999999995,0.29521450628076751,-0.54882827640773579
-0.050249999999999996,0.29554538559253085,-0.55082611208546317
-0.050237499999999997,0.29521450628076751,-0.54749638595591765
-0.050224999999999999,0.29521450628076751,-0.54849530379478129
-0.0502125,0.29488362696900422,-0.54350071460046523
-0.050199999999999995,0.29521450628076751,-0.54649746811705391
-0.050187499999999996,0.29521450628076751,-0.54716341334296303
-0.050174999999999997,0.29521450628076751,-0.54649746811705391
-0.050162499999999999,0.29488362696900405,-0.54250179676159926
-0.05015,0.29289835109842477,-0.52518722088797043
-0.050137499999999995,0.29422186834547737,-0.53817315279319011
-0.050124999999999996,0.29389098903371402,-0.53351153621182634
-0.050112499999999997,0.29620714421605754,-0.55348989298909956
-0.050099999999999999,0.29521450628076751,-0.54516557766523577
-0.0500875,0.29455274765724099,-0.53950504324501092
-0.050074999999999995,0.29322923041018734,-0.52552019350091705
-0.050062499999999996,0.29389098903371402,-0.53417748143773547
-0.050049999999999997,0.29389098903371402,-0.53118072792114446
-0.050037499999999999,0.29488362696900405,-0.54283476937455388
-0.050025,0.29488362696900405,-0.53850612540614662
-0.050012499999999994,0.29422186834547737,-0.53617531711546274
-0.049999999999999996,0.29455274765724071,-0.53917207063205375
-0.049987499999999997,0.29389098903371402,-0.53018181008228082
-0.049974999999999999,0.29455274765724071,-0.53650828972841735
-0.0499625,0.2938909890337143,-0.52818397440455722
-0.049949999999999994,0.29521450628076751,-0.53784018018023561
-0.049937499999999996,0.29488362696900405,-0.53617531711546274
-0.049924999999999997,0.29455274765724071,-0.53384450882478085
-0.049912499999999999,0.29521450628076751,-0.53650828972841735
-0.0499,0.29488362696900405,-0.53351153621182634
-0.049887499999999994,0.29488362696900405,-0.53484342666364459
-0.049874999999999996,0.29389098903371402,-0.52485424827500793
-0.049862499999999997,0.29455274765724071,-0.53251261837296271
-0.049849999999999998,0.29322923041018734,-0.51786182340296227
-0.0498375,0.29389098903371402,-0.52518722088796255
-0.049824999999999994,0.29256747178666054,-0.51220128898273487
-0.049812499999999996,0.29322923041018734,-0.5185277686288714
-0.049799999999999997,0.29190571316313385,-0.50420994627182558
-0.049787499999999998,0.29289835109842388,-0.51519804249932588
-0.049775,0.29190571316313385,-0.50587480933659834
-0.049762499999999994,0.29256747178666054,-0.50953750807909837
-0.049749999999999996,0.29256747178666054,-0.50920453546614386
-0.049737499999999997,0.29223659247489719,-0.50820561762728023
-0.049724999999999998,0.29223659247489719,-0.5075396724013711
-0.0497125,0.29190571316313385,-0.50554183672364383
-0.049699999999999994,0.29256747178666009,-0.50620778194954952
-0.049687499999999996,0.29157483385137051,-0.49854941185159818
-0.049674999999999997,0.29190571316313385,-0.50454291888478009
-0.049662499999999998,0.29124395453960716,-0.49788346662568905
-0.04965,0.29157483385137051,-0.50121319275523457
-0.049637499999999994,0.29124395453960733,-0.49721752139978176
-0.049624999999999996,0.29157483385137051,-0.50121319275523457
-0.049612499999999997,0.29124395453960716,-0.49455374049614353
-0.049599999999999998,0.29157483385137051,-0.49821643923864362
-0.0495875,0.29124395453960716,-0.49588563094796173
-0.049574999999999994,0.2915748338513699,-0.49921535707750314
-0.049562499999999995,0.29025131660431702,-0.49022509652773433
-0.049549999999999997,0.29124395453960716,-0.49122401436659796
-0.049537499999999998,0.29157483385137051,-0.4952196857220526
-0.049525,0.29025131660431702,-0.48223375381682498
-0.049512499999999994,0.2902513166043173,-0.48556347994637206
-0.049499999999999995,0.29091307522784371,-0.48889320607591608
-0.049487499999999997,0.29058219591608037,-0.48756131562409788
-0.049474999999999998,0.29025131660431702,-0.4838986168815978
-0.0494625,0.29091307522784371,-0.49022509652773433
-0.049449999999999994,0.28992043729255412,-0.48056889075205556
-0.049437499999999995,0.29091307522784371,-0.48789428823705244
-0.049424999999999997,0.28925867866902688,-0.47557430155773389
-0.049412499999999998,0.28992043729255368,-0.48056889075205222
-0.049399999999999999,0.28892779935726354,-0.47157863020227925
-0.049387499999999994,0.2892586786690266,-0.47257754804114155
-0.049374999999999995,0.28859692004550019,-0.46958079452455193
-0.049362499999999997,0.28925867866902688,-0.47224457542818837
-0.049349999999999998,0.28859692004550019,-0.46791593145977917
-0.049337499999999999,0.28826604073373685,-0.46724998623387004
-0.049324999999999994,0.28826604073373668,-0.46325431487841479
-0.049312499999999995,0.28793516142197351,-0.4619224244265972
-0.049299999999999997,0.28826604073373685,-0.46292134226546083
-0.049287499999999998,0.28727340279844671,-0.4565948626193243
-0.049274999999999999,0.28760428211021016,-0.45859269829705163
-0.049262499999999994,0.28694252348668353,-0.45160027342500797
-0.049249999999999995,0.28727340279844671,-0.45592891739341523
-0.049237499999999997,0.28594988555139333,-0.44460784855296037
-0.049224999999999998,0.28661164417492002,-0.44926946513432414
-0.049212499999999999,0.28561900623962999,-0.44327595810114218
-0.049199999999999994,0.28628076486315607,-0.44827054729545623
-0.049187499999999995,0.28495724761610319,-0.43894731413273297
-0.049174999999999996,0.28628076486315668,-0.44593973900477857
-0.049162499999999998,0.28495724761610319,-0.43928028674568753
-0.049149999999999999,0.28528812692786654,-0.43928028674568753
-0.049137499999999994,0.28495724761610303,-0.43728245106795932
-0.049124999999999995,0.28462636830433985,-0.43528461539023289
-0.049112499999999996,0.28495724761610319,-0.43528461539023289
-0.049099999999999998,0.28429548899257651,-0.43195488926068731
-0.049087499999999999,0.28462636830433985,-0.43262083448659644
-0.049074999999999994,0.28363373036905026,-0.42629435484046246
-0.049062499999999995,0.28462636830433985,-0.43195488926068731
-0.049049999999999996,0.28363373036904982,-0.42596138222750535
-0.049037499999999998,0.28330285105728636,-0.42263165609795977
-0.049024999999999999,0.28429548899257651,-0.4289581357440963
-0.049012500000000001,0.2836337303690501,-0.4242965191627347
-0.048999999999999995,0.28231021312199633,-0.41597220383886874
-0.048987499999999996,0.28264109243375968,-0.41930192996841426
-0.048974999999999998,0.28197933381023299,-0.41430734077409592
-0.048962499999999999,0.28264109243375968,-0.41830301212955062
-0.04895,0.28197933381023327,-0.41264247770932572
-0.048937499999999995,0.28164845449846965,-0.41064464203159584
-0.048924999999999996,0.28098669587494285,-0.40731491590205032
-0.048912499999999998,0.28098669587494285,-0.40764788851500489
-0.048899999999999999,0.28032493725141616,-0.40165438148182286
-0.0488875,0.28032493725141616,-0.40165438148182286
-0.048874999999999995,0.28098669587494285,-0.4066489706761412
-0.048862499999999996,0.27966317862788936,-0.39699276490045915
-0.048849999999999998,0.27999405793965282,-0.40032249103000467
-0.048837499999999999,0.27867054069259933,-0.39199817570614082
-0.048825,0.27900142000436251,-0.39299709354500401
-0.048812499999999995,0.27800878206907265,-0.38833547696364074
-0.048799999999999996,0.27833966138083599,-0.38733655912477705
-0.048787499999999998,0.27734702344554585,-0.38134305209159508
-0.048774999999999999,0.27833966138083599,-0.38633764128591341
-0.0487625,0.27734702344554629,-0.3823419699304606
-0.048749999999999995,0.27767790275730919,-0.38433980560818609
-0.048737499999999996,0.27668526482201916,-0.377680353349095
-0.048724999999999997,0.27668526482201916,-0.37867927118795863
-0.048712499999999999,0.27569262688672902,-0.37368468199364036
-0.0487,0.27602350619849231,-0.37601549028432113
-0.048687499999999995,0.27503086826320233,-0.36935603802523115
-0.048674999999999996,0.27503086826320233,-0.36935603802523115
-0.048662499999999997,0.27469998895143899,-0.3666922571215947
-0.048649999999999999,0.2740382303279123,-0.36336253099204913
-0.0486375,0.27436910963967548,-0.36502739405682116
-0.048624999999999995,0.27370735101614885,-0.36069875008841273
