L5A3/L5A3p1SineWaveStable.csv

#Digilent WaveForms Oscilloscope Acquisition
#Device Name: Alan
#Serial Number: SN:210321A3716A
#Date Time: 2024-03-14 17:14:39.617
#Sample rate: 1e+08Hz
#Samples: 8192
#Trigger: Source: Channel 1 Type: Edge Condition: Rising Level: 18 mV Hyst.: Auto HoldOff: 0 s
#Channel 1: Range: 10 mV/div Offset: 0 V
#Channel 2: Range: 200 mV/div Offset: 0 V
#Math 1: Function: C2*-1

Time (s),Channel 1 (V),Channel 2 (V),Math 1 (V)
0.0030090427272727273,0.011320056787799258,-0.22717673229364557,0.22717673229364557
0.0030090527272727272,0.011981815411322372,-0.22517889661592913,0.22517889661592913
0.0030090627272727271,0.010989177476054705,-0.22684375968065543,0.22684375968065543
0.0030090727272727271,0.010658298164282765,-0.22850862274541836,0.22850862274541836
0.0030090827272727274,0.013305332658402908,-0.22950754058433379,0.22950754058433379
0.0030090927272727274,0.014628849905407458,-0.23050645842320747,0.23050645842320747
0.0030091027272727273,0.011650936099569242,-0.23317023932683542,0.23317023932683542
0.0030091127272727273,0.012643574034853462,-0.2378318559081716,0.2378318559081716
0.0030091227272727272,0.014297970593658992,-0.24082860942474868,0.24082860942474868
0.0030091327272727272,0.014297970593672533,-0.24648914384492082,0.24648914384492082
0.0030091427272727271,0.011650936099618595,-0.24948589736153165,0.24948589736153165
0.0030091527272727275,0.010327418852580794,-0.25248265087814808,0.25248265087814808
0.0030091627272727274,0.014297970593698864,-0.25048481520046667,0.25048481520046667
0.0030091727272727273,0.016614125775990793,-0.25148373303933891,0.25148373303933891
0.0030091827272727273,0.011981815411331101,-0.2551464317818174,0.2551464317818174
0.0030091927272727272,0.011650936099567737,-0.25947507575020073,0.25947507575020073
0.0030092027272727272,0.016945005087714432,-0.25781021268547588,0.25781021268547588
0.0030092127272727271,0.017937643023051467,-0.25980804836314642,0.25980804836314642
0.0030092227272727275,0.01231269472302916,-0.26313777449276016,0.26313777449276016
0.0030092327272727274,0.0090039016055154554,-0.26480263755742645,0.26480263755742645
0.0030092427272727274,0.01330533265839689,-0.25914210313725672,0.25914210313725672
0.0030092527272727273,0.015290608528960815,-0.2568112948465982,0.2568112948465982
0.0030092627272727272,0.01396709128191519,-0.26147291142793438,0.26147291142793438
0.0030092727272727272,0.012643574034869562,-0.2618058840409066,0.2618058840409066
0.0030092827272727271,0.012643574034855718,-0.25847615791141909,0.25847615791141909
0.0030092927272727275,0.014297970593693298,-0.25947507575027701,0.25947507575027701
0.0030093027272727274,0.015290608528947725,-0.26180588404095506,0.26180588404095506
0.0030093127272727274,0.014297970593681561,-0.26480263755752531,0.26480263755752531
0.0030093227272727273,0.015290608528962621,-0.26746641846114177,0.26746641846114177
0.0030093327272727273,0.015290608528962621,-0.26879830891295214,0.26879830891295214
0.0030093427272727272,0.016283246464244134,-0.27312695288132754,0.27312695288132754
0.0030093527272727271,0.015621487840735917,-0.27645667901086057,0.27645667901086057
0.0030093627272727271,0.012643574034918011,-0.27878748730154362,0.27878748730154362
0.0030093727272727275,0.015290608528962621,-0.27079614459065504,0.27079614459065504
0.0030093827272727274,0.015290608528948176,-0.26913128152594301,0.26913128152594301
0.0030093927272727273,0.013967091281907516,-0.27212803504251631,0.27212803504251631
0.0030094027272727273,0.013636211970146108,-0.27512478855908956,0.27512478855908956
0.0030094127272727272,0.016614125775995758,-0.27912045991451967,0.27912045991451967
0.0030094227272727272,0.015290608528980076,-0.28444802172174954,0.28444802172174954
0.0030094327272727271,0.014959729217205578,-0.28910963830309455,0.28910963830309455
0.0030094427272727275,0.015621487840707477,-0.29576909056233053,0.29576909056233053
0.0030094527272727274,0.0146288499054696,-0.29876584407889534,0.29876584407889534
0.0030094627272727274,0.017275884399536024,-0.30109665236957478,0.30109665236957478
0.0030094727272727273,0.016283246464251205,-0.30509232372500578,0.30509232372500578
0.0030094827272727272,0.014628849905444923,-0.309087995080435,0.309087995080435
0.0030094927272727272,0.013305332658397492,-0.31241772120996453,0.31241772120996453
0.0030095027272727271,0.014628849905413025,-0.31175177598410475,0.31175177598410475
0.0030095127272727275,0.016614125776009299,-0.31108583075821139,0.31108583075821139
0.0030095227272727274,0.016283246464243079,-0.31241772121001693,0.31241772121001693
0.0030095327272727274,0.015621487840748856,-0.31341663904888906,0.31341663904888906
0.0030095427272727273,0.018268522334825364,-0.31608041995250019,0.31608041995250019
0.0030095527272727273,0.014959729217211296,-0.31508150211364239,0.31508150211364239
0.0030095627272727272,0.014959729217199258,-0.31474852950068738,0.31474852950068738
0.0030095727272727271,0.016945005087748741,-0.31574744733953247,0.31574744733953247
0.0030095827272727271,0.014297970593729108,-0.31341663904891581,0.31341663904891581
0.0030095927272727275,0.016614125776064824,-0.31008691291933138,0.31008691291933138
0.0030096027272727274,0.019592039581826752,-0.31075285814526288,0.31075285814526288
0.0030096127272727273,0.013636211970157996,-0.31408258427477653,0.31408258427477653
0.0030096227272727273,0.016614125776010655,-0.3144155568877291,0.3144155568877291
0.0030096327272727272,0.015952367152494464,-0.31574744733953763,0.31574744733953763
0.0030096427272727272,0.016614125776007044,-0.31841122824314799,0.31841122824314799
0.0030096527272727271,0.016614125776016071,-0.32207392698561282,0.32207392698561282
0.0030096627272727275,0.013967091281956116,-0.32640257095409364,0.32640257095409364
0.0030096727272727274,0.016614125776047369,-0.32640257095412512,0.32640257095412512
0.0030096827272727274,0.019261160270115148,-0.32906635185775568,0.32906635185775568
0.0030096927272727273,0.017937643023069522,-0.3333949958261393,0.3333949958261393
0.0030097027272727272,0.015952367152501083,-0.33406094105204442,0.33406094105204442
0.0030097127272727272,0.016614125776008248,-0.33639174934270272,0.33639174934270272
0.0030097227272727271,0.018599401646561039,-0.33639174934273025,0.33639174934273025
0.0030097327272727275,0.016614125776035483,-0.33672472195573688,0.33672472195573688
0.0030097427272727274,0.017606763711283592,-0.33938850285931216,0.33938850285931216
0.0030097527272727274,0.015952367152517483,-0.33872255763339409,0.33872255763339409
0.0030097627272727273,0.01959203958188754,-0.33639174934273208,0.33639174934273208
0.0030097727272727273,0.020253798205410352,-0.33739066718158983,0.33739066718158983
0.0030097827272727272,0.018268522334852749,-0.33972147547225251,0.33972147547225251
0.0030097927272727271,0.015952367152526209,-0.34171931114997134,0.34171931114997134
0.0030098027272727271,0.015952367152489346,-0.33872255763347753,0.33872255763347753
0.0030098127272727274,0.018599401646621827,-0.33605877672981688,0.33605877672981688
0.0030098227272727274,0.020253798205400422,-0.33872255763348208,0.33872255763348208
0.0030098327272727273,0.018930280958354796,-0.34604795511842207,0.34604795511842207
0.0030098427272727273,0.017606763711309169,-0.3487117360220427,0.3487117360220427
0.0030098527272727272,0.016945005087784851,-0.35037659908680796,0.35037659908680796
0.0030098627272727272,0.017606763711296831,-0.35270740737747053,0.35270740737747053
0.0030098727272727271,0.01926116027008987,-0.35570416089403445,0.35570416089403445
0.0030098827272727275,0.01826852233479858,-0.35936685963659448,0.35936685963659448
0.0030098927272727274,0.016283246464271518,-0.35936685963659826,0.35936685963659826
0.0030099027272727273,0.017937643023060494,-0.3596998322495345,0.3596998322495345
0.0030099127272727273,0.016283246464253463,-0.35703605134591382,0.35703605134591382
0.0030099227272727272,0.019261160270104015,-0.3567030787329602,0.3567030787329602
0.0030099327272727272,0.018268522334845074,-0.35803496918475991,0.35803496918475991
0.0030099427272727271,0.018599401646590227,-0.35936685963657028,0.35936685963657028
0.0030099527272727275,0.018268522334858164,-0.36369550360497827,0.36369550360497827
0.0030099627272727274,0.019592039581877611,-0.36236361315319426,0.36236361315319426
0.0030099727272727274,0.018930280958366835,-0.36302955837912609,0.36302955837912609
0.0030099827272727273,0.019922918893647439,-0.36735820234750383,0.36735820234750383
0.0030099927272727272,0.018268522334840408,-0.36735820234750383,0.36735820234750383
0.0030100027272727272,0.019261160270112591,-0.36569333928274844,0.36569333928274844
0.0030100127272727271,0.01562148784078557,-0.36769117496042564,0.36769117496042564
0.0030100227272727275,0.01694500508784173,-0.37002198325110541,0.37002198325110541
0.0030100327272727274,0.019922918893644732,-0.36835712018634248,0.36835712018634248
0.0030100427272727274,0.019592039581883328,-0.3666922571216189,0.3666922571216189
0.0030100527272727273,0.019261160270113493,-0.36935603802525235,0.36935603802525235
0.0030100627272727273,0.016283246464260836,-0.37601549028430403,0.37601549028430403
0.0030100727272727272,0.018268522334815733,-0.36902306541233698,0.36902306541233698
0.0030100827272727271,0.017937643023074337,-0.36802414757342744,0.36802414757342744
0.0030100927272727271,0.016283246464286565,-0.36902306541225616,0.36902306541225616
0.0030101027272727275,0.015290608529040562,-0.36702522973443164,0.36702522973443164
0.0030101127272727274,0.019922918893682199,-0.36003280486251815,0.36003280486251815
0.0030101227272727273,0.022900832699498445,-0.36136469531433679,0.36136469531433679
0.0030101327272727273,0.018599401646600157,-0.3643614488309101,0.3643614488309101
0.0030101427272727272,0.016945005087790722,-0.36769117496043563,0.36769117496043563
0.0030101527272727272,0.018268522334816035,-0.36669225712160741,0.36669225712160741
0.0030101627272727271,0.01992291889361885,-0.36436144883095628,0.36436144883095628
0.0030101727272727275,0.0185994016465654,-0.36502739405679713,0.36502739405679713
0.0030101827272727274,0.016945005087813141,-0.3636955036049952,0.3636955036049952
0.0030101927272727274,0.019592039581902136,-0.36302955837910372,0.36302955837910372
0.0030102027272727273,0.02190819476422837,-0.36436144883092098,0.36436144883092098
0.0030102127272727272,0.020253798205421336,-0.37335170938064083,0.37335170938064083
0.0030102227272727272,0.0179376430230948,-0.38167602470445877,0.38167602470445877
0.0030102327272727271,0.018599401646585113,-0.3820089973174986,0.3820089973174986
0.0030102427272727275,0.020915556828953328,-0.38400683299530647,0.38400683299530647
0.0030102527272727274,0.021577315452447253,-0.38766953173780427,0.38766953173780427
0.0030102627272727274,0.020253798205413062,-0.39266412093206432,0.39266412093206432
0.0030102727272727273,0.020253798205413062,-0.39432898399682725,0.39432898399682725
0.0030102827272727273,0.020253798205413062,-0.39599384706159019,0.39599384706159019
0.0030102927272727272,0.018599401646611294,-0.39665979228749854,0.39665979228749854
0.0030103027272727271,0.021577315452421822,-0.39998951841700014,0.39998951841700014
0.0030103127272727271,0.020584677517197187,-0.40198735409473563,0.40198735409473563
0.0030103227272727275,0.020253798205429312,-0.40065546364297561,0.40065546364297561
0.0030103327272727274,0.02124643614074468,-0.40165438148182636,0.40165438148182636
0.0030103427272727273,0.025216987881852969,-0.40198735409478348,0.40198735409478348
0.0030103527272727273,0.022900832699523123,-0.40331924454659385,0.40331924454659385
0.0030103627272727272,0.02025379820543232,-0.40531708022430846,0.40531708022430846
0.0030103727272727272,0.018930280958377066,-0.40565005283727312,0.40565005283727312
0.0030103827272727271,0.020584677517144823,-0.4006554636430546,0.4006554636430546
0.0030103927272727275,0.025547867193530565,-0.39699276490051366,0.39699276490051366
0.0030104027272727274,0.020253798205376497,-0.39998951841708691,0.39998951841708691
0.0030104127272727274,0.01727588439955333,-0.40298627193363262,0.40298627193363262
0.0030104227272727273,0.018930280958360964,-0.40165438148182137,0.40165438148182137
0.0030104327272727272,0.021908194764213625,-0.3983246553522955,0.3983246553522955
0.0030104427272727272,0.02256995338774908,-0.40165438148178501,0.40165438148178501
0.0030104527272727271,0.018268522334909172,-0.40631599806310398,0.40631599806310398
0.0030104627272727275,0.017606763711352506,-0.40831383374083402,0.40831383374083402
0.0030104727272727274,0.019922918893645034,-0.40431816238544055,0.40431816238544055
0.0030104827272727274,0.019592039581878211,-0.40298627193364384,0.40298627193364384
0.0030104927272727273,0.018599401646594741,-0.40331924454658963,0.40331924454658963
0.0030105027272727273,0.017937643023071929,-0.40065546364296895,0.40065546364296895
0.0030105127272727272,0.02058467751714994,-0.3976587101263982,0.3976587101263982
0.0030105227272727271,0.021577315452450712,-0.39399601138392643,0.39399601138392643
0.0030105327272727271,0.018268522334905109,-0.39599384706155183,0.39599384706155183
0.0030105427272727274,0.016945005087837365,-0.39466195660975079,0.39466195660975079
0.0030105527272727274,0.020584677517183042,-0.39299709354499446,0.39299709354499446
0.0030105627272727273,0.021246436140703151,-0.39199817570615442,0.39199817570615442
0.0030105727272727273,0.021246436140703151,-0.39532790183567879,0.39532790183567879
0.0030105827272727272,0.019592039581899878,-0.39566087444863818,0.39566087444863818
0.0030105927272727272,0.020253798205403732,-0.39732573751339018,0.39732573751339018
0.0030106027272727271,0.020584677517169803,-0.3956608744486742,0.3956608744486742
0.0030106127272727275,0.020915556828898708,-0.398990600578216,0.398990600578216
0.0030106227272727274,0.018599401646607984,-0.40065546364297105,0.40065546364297105
0.0030106327272727273,0.019592039581902587,-0.40165438148180832,0.40165438148180832
0.0030106427272727273,0.022569953387755248,-0.39899060057818769,0.39899060057818769
0.0030106527272727272,0.022239074075995343,-0.40098843625590108,0.40098843625590108
0.0030106627272727272,0.019261160270159536,-0.40698194328902215,0.40698194328902215
0.0030106727272727271,0.019261160270122972,-0.40631599806319874,0.40631599806319874
0.0030106827272727275,0.021577315452498861,-0.40631599806318014,0.40631599806318014
0.0030106927272727274,0.023231712011257146,-0.40598302545025405,0.40598302545025405
0.0030107027272727274,0.021246436140688708,-0.4076478885150146,0.4076478885150146
0.0030107127272727273,0.019261160270123423,-0.40897977896681992,0.40897977896681992
0.0030107227272727272,0.019592039581884831,-0.4066489706761518,0.4066489706761518
0.0030107327272727272,0.019922918893646238,-0.40365221715958155,0.40365221715958155
0.0030107427272727271,0.020253798205407646,-0.40098843625595743,0.40098843625595743
0.0030107527272727275,0.018268522334818741,-0.40098843625587111,0.40098843625587111
0.0030107627272727274,0.017606763711375675,-0.3989906005781565,0.3989906005781565
0.0030107727272727274,0.022239074075990229,-0.3969927649004622,0.3969927649004622
0.0030107827272727273,0.02190819476422461,-0.39732573751342004,0.39732573751342004
0.0030107927272727273,0.020253798205417575,-0.39932357319113554,0.39932357319113554
0.0030108027272727272,0.021577315452455077,-0.39998951841704433,0.39998951841704433
0.0030108127272727271,0.022900832699500703,-0.39932357319115069,0.39932357319115069
0.0030108227272727271,0.02025379820546723,-0.40331924454651391,0.40331924454651391
0.0030108327272727275,0.018599401646612949,-0.40232032670768719,0.40232032670768719
0.0030108427272727274,0.019592039581918838,-0.39965654580410281,0.39965654580410281
0.0030108527272727273,0.022569953387759911,-0.400322491030008,0.400322491030008
0.0030108627272727273,0.023231712011282726,-0.40098843625591318,0.40098843625591318
0.0030108727272727272,0.019261160270150054,-0.40465113499838889,0.40465113499838889
0.0030108827272727272,0.017606763711327227,-0.40098843625596042,0.40098843625596042
0.0030108927272727271,0.020915556828878096,-0.39399601138399853,0.39399601138399853
0.0030109027272727275,0.020253798205413062,-0.39199817570612838,0.39199817570612838
0.0030109127272727274,0.020253798205387783,-0.39133223048026983,0.39133223048026983
0.0030109227272727274,0.018268522334848686,-0.3943289839968091,0.3943289839968091
0.0030109327272727273,0.020584677517176121,-0.39233114831909688,0.39233114831909688
0.0030109427272727272,0.020253798205414716,-0.39399601138385981,0.39399601138385981
0.0030109527272727272,0.0179376430230948,-0.3966597922874755,0.3966597922874755
0.0030109627272727271,0.018268522334827317,-0.39665979228750459,0.39665979228750459
0.0030109727272727275,0.018930280958393466,-0.39599384706157503,0.39599384706157503
0.0030109827272727274,0.020584677517142717,-0.39499492922277546,0.39499492922277546
0.0030109927272727274,0.018268522334838604,-0.39799168273937169,0.39799168273937169
0.0030110027272727273,0.018930280958363223,-0.40365221715954563,0.40365221715954563
0.0030110127272727273,0.02025379820540885,-0.4019873540947827,0.4019873540947827
0.0030110227272727272,0.022900832699495888,-0.4026532993206805,0.4026532993206805
0.0030110327272727271,0.022569953387761566,-0.40831383374082902,0.40831383374082902
0.0030110427272727271,0.01992291889370507,-0.4106446420315471,0.4106446420315471
0.0030110527272727275,0.017937643023080357,-0.41197653248331051,0.41197653248331051
0.0030110627272727274,0.018599401646617011,-0.40565005283724964,0.40565005283724964
0.0030110727272727273,0.020584677517162881,-0.40298627193364261,0.40298627193364261
0.0030110827272727273,0.017606763711310223,-0.40331924454659523,0.40331924454659523
0.0030110927272727272,0.01893028095834998,-0.39998951841707431,0.39998951841707431
0.0030111027272727272,0.017937643023082612,-0.39566087444869796,0.39566087444869796
0.0030111127272727271,0.020584677517125866,-0.39499492922274454,0.39499492922274454
0.0030111227272727275,0.019592039581910411,-0.39199817570619533,0.39199817570619533
0.0030111327272727274,0.020915556828919473,-0.39499492922268276,0.39499492922268276
0.0030111427272727274,0.01926116027012929,-0.39099925786729622,0.39099925786729622
0.0030111527272727273,0.020253798205412309,-0.39399601138386919,0.39399601138386919
0.0030111627272727272,0.018599401646605274,-0.39632681967453731,0.39632681967453731
0.0030111727272727272,0.020584677517153854,-0.39432898399684541,0.39432898399684541
0.0030111827272727271,0.021246436140691716,-0.3963268196745155,0.3963268196745155
0.0030111927272727275,0.017275884399542796,-0.39832465535231065,0.39832465535231065
0.0030112027272727274,0.017275884399575447,-0.39998951841699848,0.39998951841699848
0.0030112127272727274,0.019592039581886336,-0.39632681967455274,0.39632681967455274
0.0030112227272727273,0.019592039581886336,-0.39665979228750609,0.39665979228750609
0.0030112327272727273,0.019592039581886336,-0.39732573751341121,0.39732573751341121
0.0030112427272727272,0.017606763711325121,-0.39732573751341366,0.39732573751341366
0.0030112527272727271,0.020584677517130379,-0.39466195660981845,0.39466195660981845
0.0030112627272727271,0.02190819476420159,-0.39499492922272472,0.39499492922272472
0.0030112727272727275,0.021246436140634688,-0.39333006615795374,0.39333006615795374
0.0030112827272727274,0.016945005087805918,-0.39299709354498447,0.39299709354498447
0.0030112927272727273,0.019592039581891752,-0.39099925786725942,0.39099925786725942
0.0030113027272727273,0.020915556828937379,-0.3866706138988758,0.3866706138988758
0.0030113127272727272,0.01893028095837496,-0.38433980560820413,0.38433980560820413
0.0030113227272727272,0.014959729217253425,-0.38467277822113605,0.38467277822113605
0.0030113327272727271,0.01396709128192858,-0.38200899731755628,0.38200899731755628
0.0030113427272727275,0.01859940164658451,-0.3753495450583777,0.3753495450583777
0.0030113527272727274,0.017937643023049961,-0.37335170938066214,0.37335170938066214
0.0030113627272727274,0.016283246464254667,-0.37135387370294864,0.37135387370294864
0.0030113727272727273,0.016614125776016071,-0.36968901063818566,0.36968901063818566
