L5A3/L5A3p1FunkyTriangleWave.csv

#Digilent WaveForms Oscilloscope Acquisition
#Device Name: Alan
#Serial Number: SN:210321A3716A
#Date Time: 2024-03-14 16:08:24.454
#Sample rate: 1.51515e+06Hz
#Samples: 8192
#Trigger: Source: Channel 1 Type: Edge Condition: Rising Level: 0 V Hyst.: Auto HoldOff: 0 s
#Channel 1: Range: 50 mV/div Offset: 0 V
#Math 1: Function: C2*-1

Time (s),Channel 1 (V),Math 1 (V)
0.00034716,0.061282832864070033,-0.34154049063274211
0.00034781999999999999,0.060951953552306676,-0.39781286222206175
0.00034847999999999997,0.060951953552306676,-0.41812419161228959
0.00034913999999999995,0.05929755699349061,-0.46573927526476916
0.00034979999999999994,0.059628436305253073,-0.40214150619049988
0.00035045999999999992,0.060290194928779649,-0.36951019012093944
0.0003511199999999999,0.059959315617016735,-0.27161624191233025
0.00035178000000000032,0.05995931561701643,-0.27527894065479536
0.00035244000000000031,0.059628436305253378,-0.29625621527088625
0.00035310000000000029,0.059959315617016132,-0.21600981554888865
0.00035376000000000027,0.058966677681726198,-0.24564437810184744
0.00035442000000000026,0.058304919058199775,-0.28293731075274053
0.00035508000000000024,0.057643160434673046,-0.35019777856956052
0.00035574000000000022,0.057974039746436411,-0.32522483259796892
0.00035640000000000021,0.057312281122909682,-0.33188428485706001
0.00035706000000000019,0.056981401811146318,-0.28160542030092234
0.00035772000000000017,0.057312281122909682,-0.19203578741614727
0.00035838000000000016,0.056981401811146318,-0.19936118490114746
0.00035904000000000014,0.056319643187619596,-0.23598817232614841
0.00035970000000000012,0.055988763875856232,-0.2652897622661492
0.00036036000000000011,0.055657884564092867,-0.22866277484114822
0.00036102000000000009,0.05532700525232951,-0.2875989273341043
0.00036168000000000007,0.055657884564092867,-0.24797518639251237
0.00036234000000000006,0.05532700525232951,-0.23732006277796663
0.00036300000000000004,0.05532700525232951,-0.16173527963728282
0.00036366000000000002,0.054996125940566146,-0.19436659570682913
0.00036432000000000001,0.054996125940566146,-0.19736334922342014
0.00036497999999999999,0.05400348800527606,-0.2316595283577392
0.00036563999999999998,0.054334367317039417,-0.28127244768796777
0.00036629999999999996,0.054334367317039417,-0.25430166603866117
0.00036695999999999994,0.054003488005276212,-0.25796436478114732
0.00036761999999999993,0.054334367317039264,-0.17172445802595868
0.00036827999999999991,0.054003488005276212,-0.18637525299591318
0.00036894000000000033,0.052679970758222304,-0.30724431149842635
0.00036960000000000031,0.052018212134695881,-0.31456970898340969
0.00037026000000000029,0.052018212134695881,-0.28493514643041001
0.00037092000000000028,0.052018212134696033,-0.15773960828183242
0.00037158000000000026,0.052349091446459245,-0.16706284144455569
0.00037224000000000024,0.051687332822932516,-0.16839473189637391
0.00037290000000000023,0.05069469488764243,-0.2942583795931954
0.00037356000000000021,0.051356453511169152,-0.31823240772592332
0.00037422000000000019,0.05069469488764243,-0.31690051727410506
0.00037488000000000018,0.050032936264115702,-0.30557944843365026
0.00037554000000000016,0.050032936264115702,-0.16306717008910104
0.00037620000000000015,0.050032936264115702,-0.2556335564904671
0.00037686000000000013,0.050363815575879066,-0.18237958164046519
0.00037752000000000011,0.050032936264115702,-0.25729841955523985
0.0003781800000000001,0.04937117764058898,-0.2985870235616046
0.00037884000000000008,0.04937117764058898,-0.26995137884751291
0.00037950000000000006,0.049702056952352344,-0.28127244768796777
0.00038016000000000005,0.048709419017062251,-0.25097193990910333
0.00038082000000000003,0.048378539705298894,-0.26828651578274015
0.00038148000000000001,0.048378539705298894,-0.1640660879279647
0.00038214,0.047716781081772165,-0.24497843287592139
0.00038279999999999998,0.04804766039353553,-0.15241204647455531
0.00038345999999999996,0.047055022458245888,-0.24531140548883368
0.00038411999999999995,0.046062384522955802,-0.32156213385543414
0.00038477999999999993,0.046724143146481781,-0.24897410423140903
0.00038543999999999991,0.046724143146482079,-0.27028435146045776
0.00038610000000000033,0.046724143146481781,-0.20368982886958317
0.00038676000000000032,0.046062384522955052,-0.26196003613662167
0.0003874200000000003,0.04540062589942833,-0.30158377707821576
0.00038808000000000028,0.0447388672759019,-0.34586913460114649
0.00038874000000000027,0.0447388672759019,-0.33521401098660558
0.00038940000000000025,0.044407987964138536,-0.32222807908137796
0.00039006000000000023,0.0447388672759019,-0.27294813236410392
0.00039072000000000022,0.044407987964138536,-0.2529697755868307
0.0003913800000000002,0.044407987964138536,-0.25796436478114898
0.00039204000000000018,0.044407987964138536,-0.19003795173841992
0.00039270000000000017,0.044407987964138536,-0.21367900725819328
0.00039336000000000015,0.044407987964138536,-0.17738499244614686
0.00039402000000000013,0.04341535002884845,-0.28060650246205865
0.00039468000000000012,0.042422712093558364,-0.36717938183024279
0.0003953400000000001,0.042091832781794999,-0.30691133888546845
0.00039600000000000008,0.041760953470031635,-0.39814583483501631
0.00039666000000000007,0.041099194846504913,-0.46374143958706349
0.00039732000000000005,0.041099194846504913,-0.41812419161228959
0.00039798000000000004,0.041430074158268271,-0.42178689035478967
0.00039864000000000002,0.041099194846504913,-0.36018695695819714
0.0003993,0.040437436222978185,-0.44176524713206289
0.00039995999999999999,0.040437436222978185,-0.4504225350688813
0.00040061999999999997,0.04010655691121482,-0.49304302952706425
0.00040127999999999995,0.039775677599451616,-0.45708198732798877
0.00040193999999999994,0.040106556911214668,-0.38948854689822865
0.00040259999999999992,0.039444798287688397,-0.39082043735001548
0.0004032599999999999,0.039113918975924887,-0.44975658984294542
0.00040392000000000032,0.038783039664161523,-0.3958150265443347
0.0004045800000000003,0.039113918975924582,-0.39648097177027414
0.00040524000000000029,0.038783039664161072,-0.46374143958705877
0.00040590000000000027,0.038121281040634801,-0.45341928858548791
0.00040656000000000025,0.038452160352398013,-0.48771546771979141
0.00040722000000000024,0.03878303966416137,-0.36984316273387918
0.00040788000000000022,0.03745952241710792,-0.40114258835160732
0.00040854000000000021,0.037128643105344562,-0.43876849361547193
0.00040920000000000019,0.037128643105344562,-0.43743660316365368
0.00040986000000000017,0.036466884481817834,-0.53799433227592908
0.00041052000000000016,0.036466884481817834,-0.4504225350688813
0.00041118000000000014,0.035805125858291105,-0.5329997430816108
0.00041184000000000012,0.035474246546527748,-0.50303220791570091
0.00041250000000000011,0.035143367234764383,-0.49237708430115512
0.00041316000000000009,0.035474246546527748,-0.5083597697229737
0.00041382000000000007,0.035143367234764383,-0.51368733153024659
0.00041448000000000006,0.034812487923001019,-0.53466460614638356
0.00041514000000000004,0.034481608611237655,-0.50636193404524643
0.00041580000000000002,0.034150729299474297,-0.54798351066456574
0.00041646000000000001,0.034481608611237655,-0.56330025086047519
0.00041711999999999999,0.034150729299474297,-0.51568516720797397
0.00041777999999999997,0.033158091364184204,-0.54631864759979287
0.00041843999999999996,0.032827212052421,-0.55797268905319697
0.00041909999999999994,0.032165453428894417,-0.58760725160614424
0.00041975999999999992,0.03249633274065733,-0.56396619608639509
0.00042041999999999991,0.031834574117131052,-0.52800515388730873
0.00042108000000000033,0.031503694805367549,-0.53299974308159626
0.00042174000000000031,0.031834574117130601,-0.50103437223799718
0.00042240000000000029,0.031503694805367244,-0.55297809985887936
0.00042306000000000028,0.031172815493604181,-0.54265594885726531
0.00042372000000000026,0.031503694805367397,-0.48205493329956395
0.00042438000000000024,0.030511056870077304,-0.52900407172615616
0.00042504000000000023,0.030511056870077304,-0.43710363055069917
0.00042570000000000021,0.029849298246550578,-0.42178689035478967
0.00042636000000000019,0.029849298246550578,-0.38882260167228877
0.00042702000000000018,0.029518418934787218,-0.43543876748592636
0.00042768000000000016,0.029187539623023853,-0.41512743809569858
0.00042834000000000014,0.029187539623023853,-0.43443984964706273
0.00042900000000000013,0.028525780999497128,-0.42178689035478967
0.00042966000000000011,0.028525780999497128,-0.40447231448115284
0.00043032000000000009,0.028856660311260492,-0.31290484591865042
0.00043098000000000008,0.028525780999497128,-0.33021942179228725
0.00043164000000000006,0.027864022375970403,-0.371508025798652
0.00043230000000000005,0.027202263752443678,-0.39481610870547079
0.00043296000000000003,0.026540505128916952,-0.45907982300569972
0.00043362000000000001,0.026209625817153588,-0.4171252737734259
0.00043428,0.026871384440680317,-0.36251776524887902
0.00043493999999999998,0.026540505128916952,-0.38682476599456145
0.00043559999999999996,0.026871384440680168,-0.38316206725206303
0.00043625999999999995,0.025878746505390678,-0.44476200064862587
0.00043691999999999993,0.024886108570100589,-0.46940197400727968
0.00043757999999999991,0.025216987881863353,-0.43710363055071388
0.00043824000000000033,0.024555229258336475,-0.34220643585871552
0.00043890000000000031,0.023893470634810354,-0.48371979636434087
0.0004395600000000003,0.024555229258336777,-0.49271005691408076
0.00044022000000000028,0.024555229258336475,-0.42911228783979799
0.00044088000000000026,0.023893470634810052,-0.44709280893933578
0.00044154000000000025,0.023893470634810052,-0.41346257503092582
0.00044220000000000023,0.023562591323046687,-0.45108848029479043
0.00044286000000000022,0.022569953387756601,-0.44809172677819942
0.0004435200000000002,0.023231712011283327,-0.42744742477501707
0.00044418000000000018,0.022900832699519962,-0.45508415165024507
0.00044484000000000017,0.022239074075993237,-0.48238790591251851
0.00044550000000000015,0.021908194764229876,-0.51035760540070108
0.00044616000000000013,0.022239074075993237,-0.47073386445910914
0.00044682000000000012,0.021908194764229876,-0.48771546771979141
0.0004474800000000001,0.022239074075993237,-0.5359964965982017
0.00044814000000000008,0.021577315452466512,-0.48704952249388228
0.00044880000000000007,0.019592039581886336,-0.66918554178002343
0.00044946000000000005,0.019922918893649697,-0.69682226865525143
0.00045012000000000003,0.020253798205413062,-0.60825155360934002
0.00045078000000000002,0.020915556828939787,-0.53433163353342894
0.00045144,0.020584677517176422,-0.51002463278774657
0.00045209999999999998,0.020584677517176422,-0.56563105915115708
0.00045275999999999997,0.020584677517176422,-0.43876849361547193
0.00045341999999999995,0.019261160270123576,-0.50935868756180536
0.00045407999999999994,0.018268522334833337,-0.61091533451293023
0.00045473999999999992,0.017937643023069671,-0.64288070535659914
0.0004553999999999999,0.017937643023069522,-0.69315956991272842
0.00045606000000000032,0.018268522334832584,-0.66951851439297716
0.0004567200000000003,0.017606763711306012,-0.66785365132816321
0.00045738000000000029,0.017275884399542647,-0.57562023753979663
0.00045804000000000027,0.016945005087779134,-0.58194671718593494
0.00045870000000000025,0.01628324646425271,-0.59226886818752145
0.00045936000000000024,0.015621487840725985,-0.66052825384320502
0.00046002000000000022,0.01628324646425271,-0.64920718500275021
0.0004606800000000002,0.015290608528962621,-0.68050661062047824
0.00046134000000000019,0.014959729217199258,-0.63488936264570439
0.00046200000000000017,0.014959729217199258,-0.59093697773570319
0.00046266000000000015,0.014628849905435896,-0.62323532119229497
0.00046332000000000014,0.014628849905435896,-0.54365486669615648
0.00046398000000000012,0.014959729217199258,-0.48571763204206408
0.00046464000000000011,0.013967091281909171,-0.50203329007683717
0.00046530000000000009,0.013967091281909171,-0.55730674382729317
0.00046596000000000007,0.013967091281909171,-0.52234461946706501
0.00046662000000000006,0.013967091281909171,-0.5110235506266102
0.00046728000000000004,0.013636211970145808,-0.52700623604842878
0.00046794000000000002,0.013636211970145808,-0.50170031746388266
0.00046860000000000001,0.012974453346619081,-0.55131323679411126
0.00046925999999999999,0.012974453346619081,-0.47672737149229111
0.00046991999999999997,0.011981815411328993,-0.48072304284774575
0.00047057999999999996,0.012312694723092205,-0.4251166164843605
0.00047123999999999994,0.012312694723092356,-0.45275334335955064
0.00047189999999999992,0.011650936099565933,-0.48738249510682108
0.00047255999999999991,0.011981815411328842,-0.40580420493300812
0.00047322000000000032,0.010989177476038755,-0.49537383781774691
0.00047388000000000031,0.010658298164275543,-0.49703870088253782
0.00047454000000000029,0.010658298164275243,-0.53866027750180523
0.00047520000000000027,0.0099965395407489686,-0.46607224787772206
0.00047586000000000026,0.01032741885251218,-0.41479446548274401
0.00047652000000000024,0.0096656602289854551,-0.51968083856342862
0.00047718000000000023,0.0090039016054587299,-0.54631864759979287
0.00047784000000000021,0.0090039016054587299,-0.54864945589047476
0.00047850000000000019,0.0093347809172220925,-0.45907982300569972
0.00047916000000000018,0.0086730222936953674,-0.55197918202002039
0.00047982000000000016,0.0076803843584052796,-0.58993805989683956
0.00048048000000000014,0.0076803843584052796,-0.57029267573252085
0.00048114000000000013,0.0076803843584052796,-0.55131323679411126
0.00048180000000000011,0.0073495050466419161,-0.5413240584054746
0.00048246000000000009,0.0063568671113518275,-0.63555530787161341
0.00048312000000000008,0.0070186257348785535,-0.47539548104047286
0.00048378000000000006,0.0063568671113518275,-0.5856094159284303
0.00048444000000000004,0.0063568671113518275,-0.56429916869933883
0.00048510000000000003,0.0060259877995884649,-0.6185737046109312
0.00048576000000000001,0.0060259877995884649,-0.48738249510683684
0.00048641999999999999,0.0060259877995884649,-0.45475117903729051
0.00048707999999999998,0.0056951084878251023,-0.49903653656024621
0.00048773999999999996,0.0053642291760618906,-0.48738249510684212
0.00048839999999999995,0.0047024705525353155,-0.55098026418112767
0.00048905999999999993,0.0040407119290085903,-0.67251526790951366
0.00048971999999999991,0.0047024705525347136,-0.55863863427916316
0.00049038000000000033,0.0047024705525348645,-0.56829484005481179
0.00049104000000000031,0.0043715912407716519,-0.60858452622230363
0.0004917000000000003,0.004371591240771351,-0.62856288299953544
0.00049236000000000028,0.0037098326172449268,-0.55730674382729817
0.00049302000000000026,0.0037098326172449268,-0.56829484005479347
0.00049368000000000025,0.0030480739937182007,-0.59693048476888522
0.00049434000000000023,0.0023863153701914755,-0.59260184080047595
0.00049500000000000021,0.0017245567466647503,-0.64720934932502283
0.0004956600000000002,0.0023863153701914755,-0.64321367796956819
0.00049632000000000018,0.0017245567466647503,-0.68716606287956938
0.00049698000000000016,0.0010627981231380247,-0.64687637671206832
0.00049764000000000015,0.0010627981231380247,-0.6408828696788863
0.00049830000000000013,0.0010627981231380247,-0.65053907545456835
0.00049896000000000012,0.00073191881137466214,-0.70248280307547883
0.0004996200000000001,7.0160187847936634e-05,-0.75376058547048019
0.00050028000000000008,0.00073191881137466214,-0.71147306362525187
0.00050094000000000007,7.0160187847936634e-05,-0.72412602291752493
0.00050160000000000005,-0.00026071912391542607,-0.7291206121118432
0.00050226000000000003,-0.00026071912391542607,-0.65686555510070488
0.00050292000000000002,-0.00059159843567878876,-0.70914225533456998
0.00050358,-0.0012533570592055143,-0.70847631010866086
0.00050423999999999998,-0.0012533570592055143,-0.79504918947684489
0.00050489999999999997,-0.0012533570592055143,-0.76741246260162943
0.00050555999999999995,-0.0012533570592055143,-0.67151635007074895
0.00050621999999999993,-0.0015842363709687264,-0.71879846111023049
0.00050687999999999992,-0.0025768743062585136,-0.77507083269954613
0.0005075399999999999,-0.0039003915533118139,-0.86963505477862213
0.00050820000000000032,-0.0042312708650757789,-0.79638107992865026
0.0005088600000000003,-0.0042312708650757789,-0.76807840782751713
0.00050952000000000029,-0.0042312708650756288,-0.74843302366319009
0.00051018000000000027,-0.0039003915533122654,-0.71047414578634482
0.00051084000000000025,-0.0035695122415490528,-0.61524397848138568
0.00051150000000000024,-0.0042312708650757789,-0.64421259580843182
0.00051216000000000022,-0.0048930294886025041,-0.69915307694593332
0.0005128200000000002,-0.0045621501768391415,-0.62723099254774961
0.00051348000000000019,-0.0052239088003658667,-0.6848352545888875
0.00051414000000000017,-0.0058856674238925918,-0.70314874830138796
0.00051480000000000015,-0.0062165467356559544,-0.77274002440888978
0.00051546000000000014,-0.0062165467356559544,-0.66352500735979603
0.00051612000000000012,-0.0052239088003658667,-0.52134570162820137
0.0005167800000000001,-0.0058856674238925918,-0.58128077196002115
0.00051744000000000009,-0.006547426047419317,-0.65053907545456835
0.00051810000000000007,-0.0075400639827094057,-0.69216065207388766
0.00051876000000000005,-0.0082018226062361317,-0.65553366464888674
0.00051942000000000004,-0.0075400639827094057,-0.65819744555252313
0.00052008000000000002,-0.0075400639827094057,-0.53965919534070184
0.00052074,-0.0082018226062361317,-0.6159099237072948
0.00052139999999999999,-0.0088635812297628569,-0.60658669054456726
0.00052205999999999997,-0.0085327019179994943,-0.63788611616229529
0.00052271999999999996,-0.0085327019179994943,-0.60492182747980949
0.00052337999999999994,-0.0085327019179994943,-0.5486494558905004
0.00052403999999999992,-0.008863581229762706,-0.54765053805161157
0.00052469999999999991,-0.0088635812297628569,-0.56829484005478403
0.00052536000000000032,-0.0095253398532898822,-0.62623207470887965
0.00052602000000000031,-0.010187098476816307,-0.61224722496480422
0.00052668000000000029,-0.010187098476816307,-0.63322449958092664
0.00052734000000000027,-0.010187098476816607,-0.6225693759663975
0.00052800000000000026,-0.010848857100343032,-0.64820826716388646
0.00052866000000000024,-0.010848857100343032,-0.61457803325547655
0.00052932000000000022,-0.011510615723869758,-0.64787529455093196
0.00052998000000000021,-0.012172374347396483,-0.71280495407707001
0.00053064000000000019,-0.011179736412106395,-0.55630782598842954
0.00053130000000000017,-0.01184149503563312,-0.60825155360934002
0.00053196000000000016,-0.011179736412106395,-0.54365486669615648
0.00053262000000000014,-0.012172374347396483,-0.58760725160615768
0.00053328000000000013,-0.012834132970923208,-0.70314874830138796
0.00053394000000000011,-0.012503253659159845,-0.69748821388116056
0.00053460000000000009,-0.012834132970923208,-0.69515740559047867
0.00053526000000000008,-0.013165012282686571,-0.64820826716388646
0.00053592000000000006,-0.013495891594449933,-0.67884174755570548
0.00053658000000000004,-0.014819408841503385,-0.73844384527457074
0.00053724000000000003,-0.014819408841503385,-0.76042003772957123
0.00053790000000000001,-0.014488529529740023,-0.7484330236632073
0.00053855999999999999,-0.014488529529740023,-0.68883092594434214
0.00053921999999999998,-0.014819408841503385,-0.72512494075638856
0.00053987999999999996,-0.015150288153266597,-0.80403945002658206
0.00054053999999999994,-0.015150288153266748,-0.78972162766957865
0.00054119999999999993,-0.015812046776793171,-0.69682226865529362
0.00054185999999999991,-0.016142926088556688,-0.75142977717977344
0.00054252000000000033,-0.016142926088556987,-0.76608057214981784
0.00054318000000000031,-0.016473805400320198,-0.80803512138204503
0.0005438400000000003,-0.0164738054003205,-0.74743410582437109
0.00054450000000000028,-0.017135564023847225,-0.80770214876910618
0.00054516000000000026,-0.017797322647373649,-0.7817302849586627
0.00054582000000000025,-0.018128201959137013,-0.78506001108820833
