L5A3/L5A3p1TriangleWave.csv

#Digilent WaveForms Oscilloscope Acquisition
#Device Name: Alan
#Serial Number: SN:210321A3716A
#Date Time: 2024-03-14 15:50:47.158
#Sample rate: 1e+08Hz
#Samples: 8192
#Trigger: Source: Channel 1 Type: Edge Condition: Rising Level: 0 V Hyst.: Auto HoldOff: 0 s
#Channel 1: Range: 7 mV/div Offset: 0 V
#Channel 2: Range: 1 V/div Offset: 0 V
#Math 1: Function: C2*-1

Time (s),Channel 1 (V),Channel 2 (V),Math 1 (V)
0.0044175310000000006,-0.021436995076628298,2.6481388332832094,-2.6481388332832094
0.0044175410000000005,-0.017797322647384633,2.6444757457585388,-2.6444757457585388
0.0044175510000000005,-0.018128201959155068,2.6261603081379121,-2.6261603081379121
0.0044175610000000004,-0.01878996058271324,2.6188341330896989,-2.6188341330896989
0.0044175710000000003,-0.021106115764951,2.618834133089246,-2.618834133089246
0.0044175810000000003,-0.017466443335613448,2.589529432895834,-2.589529432895834
0.0044175910000000002,-0.01779732264738328,2.5675509077507499,-2.5675509077507499
0.0044176010000000002,-0.02044435714147453,2.5528985576540086,-2.5528985576540086
0.0044176110000000001,-0.019451719206198589,2.5455723826056222,-2.5455723826056222
0.004417621,-0.018459081270914366,2.5455723826055623,-2.5455723826055623
0.004417631,-0.01746644333563015,2.5492354701296951,-2.5492354701296951
0.0044176409999999999,-0.018459081270874644,2.5565616451779922,-2.5565616451779922
0.0044176509999999999,-0.018789960582653205,2.5345831200336408,-2.5345831200336408
0.0044176609999999998,-0.01912083989441446,2.519930769936674,-2.519930769936674
0.0044176710000000006,-0.017135564023804492,2.5272569449845275,-2.5272569449845275
0.0044176810000000006,-0.016142926088556837,2.5272569449842575,-2.5272569449842575
0.0044176910000000005,-0.016142926088648923,2.5199307699350948,-2.5199307699350948
0.0044177010000000004,-0.019120839894393997,2.4869629822180692,-2.4869629822180692
0.0044177110000000004,-0.017797322647392606,2.4796368071699089,-2.4796368071699089
0.0044177210000000003,-0.018789960582663738,2.4832998946937557,-2.4832998946937557
0.0044177310000000003,-0.018789960582658922,2.4613213695487515,-2.4613213695487515
0.0044177410000000002,-0.018128201959138366,2.4539951945003708,-2.4539951945003708
0.0044177510000000001,-0.019120839894422585,2.4393428444036305,-2.4393428444036305
0.0044177610000000001,-0.019120839894427099,2.428353581831058,-2.428353581831058
0.004417771,-0.016473805400363532,2.435679756879237,-2.435679756879237
0.004417781,-0.016804684712076041,2.424690494306986,-2.424690494306986
0.0044177909999999999,-0.016804684712083563,2.4027119691621248,-2.4027119691621248
0.0044178009999999998,-0.017135564023835488,2.3990488816374147,-2.3990488816374147
0.0044178109999999998,-0.016473805400346982,2.384396531541054,-2.384396531541054
0.0044178210000000006,-0.016142926088583621,2.3770703564916023,-2.3770703564916023
0.0044178310000000005,-0.01680468471224366,2.3660810939193007,-2.3660810939193007
0.0044178410000000005,-0.021436995076656886,2.3624180063951155,-2.3624180063951155
0.0044178510000000004,-0.01746644333548239,2.3587549188706802,-2.3587549188706802
0.0044178610000000004,-0.011841495035711061,2.3441025687740629,-2.3441025687740629
0.0044178710000000003,-0.016473805400349088,2.3367763937257724,-2.3367763937257724
0.0044178810000000002,-0.01912083989441386,2.3367763937257173,-2.3367763937257173
0.0044178910000000002,-0.016473805400322606,2.3257871311531617,-2.3257871311531617
0.0044179010000000001,-0.013495891594470247,2.3074716935322424,-2.3074716935322424
0.0044179110000000001,-0.015481167465003928,2.2891562559113252,-2.2891562559113252
0.004417921,-0.018789960582600542,2.2745039058145355,-2.2745039058145355
0.0044179309999999999,-0.015481167465112867,2.2598515557177952,-2.2598515557177952
0.0044179409999999999,-0.013826770906264456,2.2561884681933351,-2.2561884681933351
0.0044179509999999998,-0.014488529529715646,2.2195575929525031,-2.2195575929525031
0.0044179609999999998,-0.016473805400235336,2.2268837679992539,-2.2268837679992539
0.0044179710000000006,-0.015812046776704999,2.2049052428540463,-2.2049052428540463
0.0044179810000000005,-0.013495891594449933,2.1975790678047304,-2.1975790678047304
0.0044179910000000005,-0.013495891594545931,2.1609481925637475,-2.1609481925637475
0.0044180010000000004,-0.017135564023840151,2.1572851050391124,-2.1572851050391124
0.0044180110000000003,-0.016804684712049857,2.1316434923703493,-2.1316434923703493
0.0044180210000000003,-0.01448852952972287,2.1426327549425888,-2.1426327549425888
0.0044180310000000002,-0.012503253659164359,2.1169911422733376,-2.1169911422733376
0.0044180410000000002,-0.014488529529732799,2.1060018797007816,-2.1060018797007816
0.0044180510000000001,-0.015150288153260428,2.1096649672249135,-2.1096649672249135
0.004418061,-0.015812046776783242,2.091349529604198,-2.091349529604198
0.004418071,-0.012834132970986855,2.0913495296039146,-2.0913495296039146
0.0044180809999999999,-0.012503253659168873,2.0876864420798076,-2.0876864420798076
0.0044180909999999999,-0.014488529529674119,2.0693710044592817,-2.0693710044592817
0.0044181009999999998,-0.016473805400242559,2.0583817418864827,-2.0583817418864827
0.0044181110000000006,-0.014488529529643123,2.0510555668370261,-2.0510555668370261
0.0044181210000000005,-0.012172374347348936,2.0364032167396275,-2.0364032167396275
0.0044181310000000005,-0.010848857100482064,2.0034354290226202,-2.0034354290226202
0.0044181410000000004,-0.015481167465046059,1.9924461664492705,-1.9924461664492705
0.0044181510000000004,-0.016142926088521629,1.9484891161594582,-1.9484891161594582
0.0044181610000000003,-0.014157650217968836,1.9265105910145637,-1.9265105910145637
0.0044181710000000003,-0.013495891594438196,1.9228475034903567,-1.9228475034903567
0.0044181810000000002,-0.011510615723869758,1.9155213284419865,-1.9155213284419865
0.0044181910000000001,-0.013826770906199605,1.9045320658694309,-1.9045320658694309
0.0044182010000000001,-0.012834132970934945,1.8972058908210387,-1.8972058908210387
0.004418211,-0.013826770906195694,1.8898797157726686,-1.8898797157726686
0.004418221,-0.011179736412168989,1.8788904532001778,-1.8788904532001778
0.0044182309999999999,-0.011179736412106395,1.871564278151721,-1.871564278151721
0.0044182409999999998,-0.015481167464877536,1.8788904531996582,-1.8788904531996582
0.0044182509999999998,-0.013165012282782418,1.849585753007476,-1.849585753007476
0.0044182610000000006,-0.011179736412080215,1.867901190626573,-1.867901190626573
0.0044182710000000005,-0.010517977788713283,1.8495857530058937,-1.8495857530058937
0.0044182810000000005,-0.014488529529740023,1.8385964904330432,-1.8385964904330432
0.0044182910000000004,-0.014488529529718807,1.8166179652882453,-1.8166179652882453
0.0044183010000000003,-0.01349589159442947,1.8092917902398751,-1.8092917902398751
0.0044183110000000003,-0.012172374347390163,1.8019656151913648,-1.8019656151913648
0.0044183210000000002,-0.011510615723864942,1.7799870900463068,-1.7799870900463068
0.0044183310000000002,-0.010187098476819317,1.7726609149979364,-1.7726609149979364
0.0044183410000000001,-0.010187098476816307,1.7323669522319745,-1.7323669522319745
0.004418351,-0.012503253659127194,1.7067253395625583,-1.7067253395625583
0.004418361,-0.011841495035646361,1.6810837268932621,-1.6810837268932621
0.0044183709999999999,-0.012503253659142692,1.6847468144168609,-1.6847468144168609
0.0044183809999999999,-0.013165012282665506,1.6517790267001438,-1.6517790267001438
0.0044183909999999998,-0.0095253398534269583,1.6334635890787514,-1.6334635890787514
0.0044184010000000006,-0.011510615723912189,1.6334635890780602,-1.6334635890780602
0.0044184110000000006,-0.012503253659098906,1.6334635890777904,-1.6334635890777904
0.0044184210000000005,-0.010848857100363495,1.6261374140299862,-1.6261374140299862
0.0044184310000000004,-0.011510615723861481,1.6371266766020838,-1.6371266766020838
0.0044184410000000004,-0.011179736412125354,1.6298005015536434,-1.6298005015536434
0.0044184510000000003,-0.0121723743474183,1.6188112389813294,-1.6188112389813294
0.0044184610000000003,-0.013826770906198852,1.6261374140296199,-1.6261374140296199
0.0044184710000000002,-0.011841495035632669,1.6224743265054198,-1.6224743265054198
0.0044184810000000001,-0.011510615723871262,1.607821976408679,-1.607821976408679
0.0044184910000000001,-0.012172374347389561,1.6114850639327807,-1.6114850639327807
0.004418501,-0.0095253398533329155,1.5968327138362317,-1.5968327138362317
0.004418511,-0.013165012282605469,1.6041588888842424,-1.6041588888842424
0.0044185209999999999,-0.0085327019181300999,1.5785172762156807,-1.5785172762156807
0.0044185309999999998,-0.0088635812297515725,1.5748541886908758,-1.5748541886908758
0.0044185409999999998,-0.0095253398532630998,1.56020183859451,-1.56020183859451
0.0044185510000000006,-0.010848857100369815,1.5308971383987862,-1.5308971383987862
0.0044185610000000005,-0.011510615723709662,1.4942662631579473,-1.4942662631579473
0.0044185710000000005,-0.0068783053592111178,1.4869400881093668,-1.4869400881093668
0.0044185810000000004,-0.0078709432945931398,1.4722877380129595,-1.4722877380129595
0.0044185910000000004,-0.013165012282642033,1.4722877380125281,-1.4722877380125281
0.0044186010000000003,-0.010517977788558003,1.4466461253435916,-1.4466461253435916
0.0044186110000000002,-0.0085327019180011492,1.4539723003918521,-1.4539723003918521
0.0044186210000000002,-0.0088635812297625568,1.4393199502951113,-1.4393199502951113
0.0044186310000000001,-0.01018709847680728,1.4283306877225526,-1.4283306877225526
0.0044186410000000001,-0.011841495035612055,1.4136783376258366,-1.4136783376258366
0.004418651,-0.012503253659147506,1.3953629000049574,-1.3953629000049574
0.0044186609999999999,-0.0088635812298522333,1.4100152501010836,-1.4100152501010836
0.0044186709999999999,-0.0062165467357366043,1.421004512673729,-1.421004512673729
0.0044186809999999998,-0.010517977788423186,1.4063521625777695,-1.4063521625777695
0.0044186909999999998,-0.011179736412078107,1.3807105499088845,-1.3807105499088845
0.0044187010000000006,-0.011179736412068477,1.377047462383022,-1.377047462383022
0.0044187110000000005,-0.010187098476741525,1.362395112286636,-1.362395112286636
0.0044187210000000005,-0.0078709432945076752,1.3587320247622579,-1.3587320247622579
0.0044187310000000004,-0.0091944605415533037,1.3477427621894025,-1.3477427621894025
0.0044187410000000003,-0.01051797778857967,1.3221011495201596,-1.3221011495201596
0.0044187510000000003,-0.010517977788573952,1.3001226243750166,-1.3001226243750166
0.0044187610000000002,-0.009856219165049333,1.2744810117057903,-1.2744810117057903
0.0044187710000000002,-0.0085327019180037079,1.2744810117057903,-1.2744810117057903
0.0044187810000000001,-0.010517977788561613,1.2634917491332698,-1.2634917491332698
0.004418791,-0.0095253398533044781,1.2598286616090182,-1.2598286616090182
0.004418801,-0.0085327019180202589,1.2634917491330933,-1.2634917491330933
0.0044188109999999999,-0.0068783053592278197,1.2451763115126355,-1.2451763115126355
0.0044188209999999999,-0.0072091846709350588,1.2341870489398801,-1.2341870489398801
0.0044188309999999998,-0.0095253398531990018,1.2231977863673247,-1.2231977863673247
0.0044188410000000006,-0.008201822606166918,1.2085454362703738,-1.2085454362703738
0.0044188510000000005,-0.0065474260474549777,1.2158716113174284,-1.2158716113174284
0.0044188610000000005,-0.0075400639827491291,1.1865669111241668,-1.1865669111241668
0.0044188710000000004,-0.0088635812297229825,1.1645883859792323,-1.1645883859792323
0.0044188810000000004,-0.0072091846709099313,1.1499360358829578,-1.1499360358829578
0.0044188910000000003,-0.0052239088003821167,1.1609252984549738,-1.1609252984549738
0.0044189010000000003,-0.006547426047436169,1.1279575107374937,-1.1279575107374937
0.0044189110000000002,-0.0091944605415262195,1.1242944232133019,-1.1242944232133019
0.0044189210000000001,-0.0091944605415262195,1.1059789855923758,-1.1059789855923758
0.0044189310000000001,-0.006878305359209011,1.0840004604472848,-1.0840004604472848
0.004418941,-0.0052239088003952078,1.0656850228263257,-1.0656850228263257
0.004418951,-0.0075400639826546361,1.0510326727295198,-1.0510326727295198
0.0044189609999999999,-0.010517977788491647,1.0437064976809762,-1.0437064976809762
0.0044189709999999998,-0.0098562191650764172,1.0400434101566829,-1.0400434101566829
0.0044189809999999998,-0.0072091846710555831,1.0510326727287187,-1.0510326727287187
0.0044189910000000006,-0.0048930294886810471,1.0290541475833528,-1.0290541475833528
0.0044190010000000005,-0.0068783053592717559,1.0144017974867354,-1.0144017974867354
0.0044190110000000005,-0.0095253398531610842,1.003412534914383,-1.003412534914383
0.0044190210000000004,-0.0048930294886169491,0.99974944738947835,-0.99974944738947835
0.0044190310000000003,-0.0055547881121713596,0.96311857214803465,-0.96311857214803465
0.0044190410000000003,-0.0082018226062526827,0.95212930957540576,-0.95212930957540576
0.0044190510000000002,-0.0098562191650434661,0.93381387195449483,-0.93381387195449483
0.0044190610000000002,-0.0075400639827146714,0.91916152185776079,-0.91916152185776079
0.0044190710000000001,-0.0045621501768635169,0.91916152185772748,-0.91916152185772748
0.0044190810000000001,-0.005885667423873934,0.8788675590920203,-0.8788675590920203
0.004419091,-0.0075400639826763028,0.86055212147078464,-0.86055212147078464
0.0044191009999999999,-0.005554788112180689,0.82392124622929919,-0.82392124622929919
0.0044191109999999999,-0.0048930294886235697,0.80194272108380849,-0.80194272108380849
0.0044191209999999998,-0.0052239088003533784,0.80194272108310882,-0.80194272108310882
0.0044191309999999998,-0.0055547881121147842,0.77996419593882726,-0.77996419593882726
0.0044191410000000006,-0.0058856674237815479,0.74333332069566282,-0.74333332069566282
0.0044191510000000005,-0.0029077536181053854,0.73967023317124769,-0.73967023317124769
0.0044191610000000004,-0.0055547881121545076,0.72868097059831904,-0.72868097059831904
0.0044191710000000004,-0.0065474260474257867,0.70303935792938099,-0.70303935792938099
0.0044191810000000003,-0.0068783053591695894,0.6957131828812555,-0.6957131828812555
0.0044191910000000003,-0.0058856674238949996,0.70670244545365113,-0.70670244545365113
0.0044192010000000002,-0.0062165467356541486,0.69571318288110062,-0.69571318288110062
0.0044192110000000001,-0.0048930294886085227,0.68838700783273021,-0.68838700783273021
0.0044192210000000001,-0.0065474260474020132,0.69937627040520245,-0.69937627040520245
0.004419231,-0.0048930294886295883,0.69937627040531736,-0.69937627040531736
0.004419241,-0.0055547881121144832,0.69205009535706696,-0.69205009535706696
0.0044192509999999999,-0.0065474260473913307,0.66274539516407527,-0.66274539516407527
0.0044192609999999998,-0.0068783053591713944,0.65541922011508535,-0.65541922011508535
0.0044192709999999998,-0.003238632929931342,0.66640848268701613,-0.66640848268701613
0.0044192810000000006,-0.0029077536180900374,0.6517561325895791,-0.6517561325895791
0.0044192910000000005,-0.0045621501769086571,0.62611451992028289,-0.62611451992028289
0.0044193010000000005,-0.006547426047371168,0.60047290725183944,-0.60047290725183944
0.0044193110000000004,-0.0048930294885648875,0.60413599477544,-0.60413599477544
0.0044193210000000004,-0.0032386329298135265,0.58215746963063708,-0.58215746963063708
0.0044193310000000003,-0.0048930294886133374,0.57849438210605209,-0.57849438210605209
0.0044193410000000002,-0.0058856674238942468,0.53820041934023499,-0.53820041934023499
0.0044193510000000002,-0.0062165467356556535,0.5418635068644202,-0.5418635068644202
0.0044193610000000001,-0.0048930294886115316,0.54186350686442353,-0.54186350686442353
0.0044193710000000001,-0.00092247774749270803,0.53087424429194296,-0.53087424429194296
0.004419381,-0.002245994994470926,0.51255880667111031,-0.51255880667111031
0.0044193909999999999,-0.0045621501767822651,0.49058028152606759,-0.49058028152606759
0.0044194009999999999,-0.0058856674238522665,0.47592793142914691,-0.47592793142914691
0.0044194109999999998,-0.0048930294886386158,0.46127558133240626,-0.46127558133240626
0.0044194209999999998,-0.0029077536181062878,0.44296014371161357,-0.44296014371161357
0.0044194310000000006,-0.0029077536180728844,0.42830779361345195,-0.42830779361345195
0.0044194410000000005,-0.0042312708651185112,0.41365544351600159,-0.41365544351600159
0.0044194510000000005,-0.0055547881121205019,0.37702456827463293,-0.37702456827463293
0.0044194610000000004,-0.0052239088002710727,0.35870913065378202,-0.35870913065378202
0.0044194710000000003,-0.00059159843569804842,0.34405678055709454,-0.34405678055709454
0.0044194810000000003,-0.0019151156827408161,0.33306751798444406,-0.33306751798444406
0.0044194910000000002,-0.0029077536180241331,0.31108899283936298,-0.31108899283936298
0.0044195010000000002,-0.0035695122415469465,0.30009973026680742,-0.30009973026680742
0.0044195110000000001,-0.0058856674238715271,0.29643664274259895,-0.29643664274259895
0.004419521,-0.0025768743063086189,0.28178429264595817,-0.28178429264595817
0.004419531,0.00040103949954900606,0.28544738016986854,-0.28544738016986854
0.0044195409999999999,-0.0032386329296880375,0.25614267997707668,-0.25614267997707668
0.0044195509999999999,-0.00092247774751798642,0.27079503007263805,-0.27079503007263805
0.0044195609999999998,-0.0019151156826938704,0.23782724235653058,-0.23782724235653058
0.0044195710000000006,-0.00290775361793927,0.23782724235464325,-0.23782724235464325
0.0044195810000000006,-0.0009224777474659252,0.22317489225816572,-0.22317489225816572
0.0044195910000000005,-0.0015842363709490154,0.21584871720990534,-0.21584871720990534
0.0044196010000000004,-0.0009224777474899998,0.21218562968527871,-0.21218562968527871
0.0044196110000000004,-0.0029077536179801969,0.19020710454030088,-0.19020710454030088
0.0044196210000000003,-0.00059159843569503911,0.17555475444329033,-0.17555475444329033
0.0044196310000000003,-0.0019151156827259199,0.13892387920155513,-0.13892387920155513
0.0044196410000000002,-0.00092247774744260282,0.12060844158061759,-0.12060844158061759
0.0044196510000000001,-0.0019151156827268226,0.076651391290395415,-0.076651391290395415
0.0044196610000000001,-0.0022459949944918407,0.065662128717659987,-0.065662128717659987
0.004419671,-0.00092247774746502227,0.036357428524386781,-0.036357428524386781
0.004419681,-0.0022459949944649074,0.010715815855027223,-0.010715815855027223
0.0044196909999999999,-0.0022459949944956025,-0.0075996217660685844,0.0075996217660685844
0.0044197009999999998,-0.00026071912398494164,-0.036904321959230185,0.036904321959230185
0.0044197109999999998,-0.0015842363709147088,-0.058882847104597791,0.058882847104597791
0.0044197210000000006,-0.0012533570591531519,-0.069872109678407665,0.069872109678407665
0.0044197310000000005,7.016018781453307e-05,-0.07719828472776416,0.07719828472776416
0.0044197410000000005,-0.00092247774746050842,-0.11382915996809176,0.11382915996809176
0.0044197510000000004,-0.0015842363709688769,-0.095513722347725566,0.095513722347725566
0.0044197610000000003,-0.0015842363709688769,-0.10283989739597933,0.10283989739597933
0.0044197710000000003,-0.0015842363709721871,-0.10283989739594268,0.10283989739594268
0.0044197810000000002,-0.0019151156827349478,-0.099176809871772492,0.099176809871772492
0.0044197910000000002,-0.0025768743062577612,-0.099176809871772492,0.099176809871772492
0.0044198010000000001,-0.00059159843569413619,-0.099176809871772492,0.099176809871772492
0.0044198110000000001,0.0010627981231154547,-0.1174922474925568,0.1174922474925568
0.004419821,0.00073191881138113223,-0.11749224749280666,0.11749224749280666
0.0044198309999999999,-0.00092247774740002089,-0.13214459758926086,0.13214459758926086
0.0044198409999999999,-0.00092247774744215146,-0.14313386016190971,0.14313386016190971
0.0044198509999999998,7.0160187810470618e-05,-0.16511238530666594,0.16511238530666594
0.0044198610000000006,7.0160187805053687e-05,-0.15412312273614098,0.15412312273614098
0.0044198710000000006,-0.00092247774745448968,-0.18342782292921267,0.18342782292921267
0.0044198810000000005,-0.0012533570591328389,-0.20174326054990865,0.20174326054990865
