L5A3/L5A3p1FunkyTriangleWaveStable.csv

#Digilent WaveForms Oscilloscope Acquisition
#Device Name: Alan
#Serial Number: SN:210321A3716A
#Date Time: 2024-03-14 17:18:42.306
#Sample rate: 1e+08Hz
#Samples: 8192
#Trigger: Source: Channel 1 Type: Edge Condition: Rising Level: 18 mV Hyst.: Auto HoldOff: 0 s
#Channel 1: Range: 10 mV/div Offset: 0 V
#Channel 2: Range: 200 mV/div Offset: 0 V
#Math 1: Function: C2*-1

Time (s),Channel 1 (V),Channel 2 (V),Math 1 (V)
0.0048935489999999996,-0.0019151156826934192,0.0079019324523569145,-0.0079019324523569145
0.0048935589999999996,-0.00092247774753002388,0.009899768130039269,-0.009899768130039269
0.0048935689999999995,-0.003569512241521969,0.01089868596883343,-0.01089868596883343
0.0048935789999999995,-0.0025768743062377494,0.0095667955171298367,-0.0095667955171298367
0.0048935889999999994,-0.0015842363709535293,0.013229494259551651,-0.013229494259551651
0.0048935989999999993,-0.00059159843567878876,0.013229494259542111,-0.013229494259542111
0.0048936089999999993,-0.00059159843568841865,0.012230576420704947,-0.012230576420704947
0.0048936189999999992,-0.0032386329297796716,0.016892193002041148,-0.016892193002041148
0.0048936289999999992,-0.0032386329297856902,0.019888946518618205,-0.019888946518618205
0.0048936389999999991,-0.0029077536180269923,0.024217590486990917,-0.024217590486990917
0.004893648999999999,-0.001915115682752101,0.026215426164739288,-0.026215426164739288
0.004893658999999999,-0.0015842363709774533,0.029545152294238496,-0.029545152294238496
0.0048936689999999989,-0.0042312708649915182,0.03154298797198854,-0.03154298797198854
0.0048936789999999989,-0.0032386329298236078,0.035871631940295988,-0.035871631940295988
0.0048936889999999997,-0.00026071912385885066,0.037869467618202896,-0.037869467618202896
0.0048936989999999996,0.0010627981230405224,0.038202440231032829,-0.038202440231032829
0.0048937089999999996,-0.0015842363709381818,0.03520568671450075,-0.03520568671450075
0.0048937189999999995,-0.00059159843572016702,0.033540823649762803,-0.033540823649762803
0.0048937289999999994,-0.0022459949945208809,0.032874878423883064,-0.032874878423883064
0.0048937389999999994,-0.0035695122415490528,0.033540823649797019,-0.033540823649797019
0.0048937489999999993,-0.0035695122415370156,0.034872714101614632,-0.034872714101614632
0.0048937589999999993,-0.0019151156827326909,0.037203522392280461,-0.037203522392280461
0.0048937689999999992,-0.0022459949944940976,0.037869467618185639,-0.037869467618185639
0.0048937789999999991,7.0160187823711546e-05,0.035538659327531155,-0.035538659327531155
0.0048937889999999991,-0.0025768743062156308,0.034206768875710364,-0.034206768875710364
0.004893798999999999,-0.00092247774747976807,0.035871631940423483,-0.035871631940423483
0.004893808999999999,-0.00026071912393438486,0.03753649500518641,-0.03753649500518641
0.0048938189999999989,-0.001584236370923135,0.037536495005234108,-0.037536495005234108
0.0048938289999999988,-0.0025768743062187906,0.038868385456998417,-0.038868385456998417
0.0048938389999999997,-0.0025768743062589651,0.041199193747747678,-0.041199193747747678
0.0048938489999999996,-0.0025768743062589651,0.041532166360665743,-0.041532166360665743
0.0048938589999999995,-0.0025768743062968827,0.040866221134884577,-0.040866221134884577
0.0048938689999999995,-0.0039003915532522292,0.044528919877287312,-0.044528919877287312
0.0048938789999999994,-0.0012533570591943797,0.044861892490256711,-0.044861892490256711
0.0048938889999999994,-0.00059159843571128957,0.046193782942067052,-0.046193782942067052
0.0048938989999999993,-0.0035695122415672592,0.047525673393872397,-0.047525673393872397
0.0048939089999999992,-0.0072091846709427324,0.047858646006824983,-0.047858646006824983
0.0048939189999999992,-0.0022459949945294573,0.053852153039966377,-0.053852153039966377
0.0048939289999999991,-0.0009224777474596056,0.054185125652957425,-0.054185125652957425
0.0048939389999999991,-0.0029077536179844101,0.052520262588220845,-0.052520262588220845
0.004893948999999999,-0.0068783053590833719,0.053519180427027718,-0.053519180427027718
0.0048939589999999989,-0.0058856674239232869,0.058513769621216578,-0.058513769621216578
0.0048939689999999989,-0.0032386329298831926,0.06450727665433223,-0.06450727665433223
0.0048939789999999988,-0.0025768743062872528,0.065506194493373957,-0.065506194493373957
0.0048939889999999996,-0.002907753618047606,0.062176468363832962,-0.062176468363832962
0.0048939989999999996,-0.0035695122416452008,0.061177550525168718,-0.061177550525168718
0.0048940089999999995,-0.0065474260473669544,0.066172139719483852,-0.066172139719483852
0.0048940189999999995,-0.0045621501768323709,0.072165646752589518,-0.072165646752589518
0.0048940289999999994,-0.0042312708650757789,0.076161318108015699,-0.076161318108015699
0.0048940389999999993,-0.0042312708650729201,0.079824016850476881,-0.079824016850476881
0.0048940489999999993,-0.0039003915533206914,0.081488879915241313,-0.081488879915241313
0.0048940589999999992,-0.0075400639826961645,0.08415266081886201,-0.08415266081886201
0.0048940689999999992,-0.0058856674239083908,0.088481304787239562,-0.088481304787239562
0.0048940789999999991,-0.0065474260474090856,0.092144003529724364,-0.092144003529724364
0.004894088999999999,-0.006547426047419317,0.09547372965925538,-0.09547372965925538
0.004894098999999999,-0.0052239088004019784,0.09847048317583576,-0.09847048317583576
0.0048941089999999989,-0.0058856674238706233,0.10213318191829604,-0.10213318191829604
0.0048941189999999989,-0.0075400639826447048,0.10279912714430069,-0.10279912714430069
0.0048941289999999997,-0.0082018226061807593,0.10246615453166472,-0.10246615453166472
0.0048941389999999996,-0.0068783053591470189,0.1094585794035494,-0.1094585794035494
0.0048941489999999995,-0.0058856674240216917,0.11312127814582797,-0.11312127814582797
0.0048941589999999995,-0.010187098476800358,0.11012452462939915,-0.11012452462939915
0.0048941689999999994,-0.0095253398531839548,0.11312127814605373,-0.11312127814605373
0.0048941789999999994,-0.0035695122415451406,0.12077964824388053,-0.12077964824388053
0.0048941889999999993,-0.0032386329298111191,0.12144559346975027,-0.12144559346975027
0.0048941989999999993,-0.0075400639827094057,0.11611803166250891,-0.11611803166250891
0.0048942089999999992,-0.0098562191650392525,0.11545208643660373,-0.11545208643660373
0.0048942189999999991,-0.0045621501769017355,0.1214455934697109,-0.1214455934697109
0.0048942289999999991,-0.0015842363710216905,0.12277748392157636,-0.12277748392157636
0.004894238999999999,-0.0052239088002798001,0.11645100427561306,-0.11645100427561306
0.004894248999999999,-0.010187098476669602,0.11312127814601633,-0.11312127814601633
0.0048942589999999989,-0.0095253398533130546,0.12177856608242925,-0.12177856608242925
0.0048942689999999988,-0.0065474260475425492,0.1297699087933149,-0.1297699087933149
0.0048942789999999996,-0.0048930294886679569,0.13243368969708447,-0.13243368969708447
0.0048942889999999996,-0.0065474260474749895,0.12743910050300858,-0.12743910050300858
0.0048942989999999995,-0.00820182260620002,0.12877099095487279,-0.12877099095487279
0.0048943089999999995,-0.0068783053591473199,0.13210071708438442,-0.13210071708438442
0.0048943189999999994,-0.0052239088003812146,0.13476449798791762,-0.13476449798791762
0.0048943289999999993,-0.0062165467356749132,0.13176774447137293,-0.13176774447137293
0.0048943389999999993,-0.0082018226062337239,0.13176774447140321,-0.13176774447140321
0.0048943489999999992,-0.0075400639827109105,0.14009205979521788,-0.14009205979521788
0.0048943589999999992,-0.0052239088003848255,0.14208989547294779,-0.14208989547294779
0.0048943689999999991,-0.0062165467356419613,0.14175692286001426,-0.14175692286001426
0.004894378999999999,-0.0082018226061964083,0.13975908718232222,-0.13975908718232222
0.004894388999999999,-0.0088635812297457039,0.13809422411755265,-0.13809422411755265
0.0048943989999999989,-0.0085327019180100275,0.13909314195634134,-0.13909314195634134
0.0048944089999999989,-0.0075400639827468714,0.13576341582695328,-0.13576341582695328
0.0048944189999999997,-0.0085327019180277824,0.13842719673052095,-0.13842719673052095
0.0048944289999999996,-0.0091944605415262195,0.13975908718228225,-0.13975908718228225
0.0048944389999999996,-0.0091944605415159881,0.13975908718231314,-0.13975908718231314
0.0048944489999999995,-0.0088635812297876843,0.14075800502116256,-0.14075800502116256
0.0048944589999999994,-0.0098562191650087075,0.14142395024713134,-0.14142395024713134
0.0048944689999999994,-0.007540063982705042,0.1454196216024965,-0.1454196216024965
0.0048944789999999993,-0.0072091846709604881,0.14442070376364116,-0.14442070376364116
0.0048944889999999993,-0.0091944605415271215,0.14375475853773645,-0.14375475853773645
0.0048944989999999992,-0.0098562191650499349,0.14342178592478386,-0.14342178592478386
0.0048945089999999991,-0.0085327019180133374,0.14808340250609733,-0.14808340250609733
0.0048945189999999991,-0.0072091846709677106,0.1497482655708916,-0.1497482655708916
0.004894528999999999,-0.010187098476749951,0.15341096431333737,-0.15341096431333737
0.004894538999999999,-0.0085327019180461393,0.15607474521698031,-0.15607474521698031
0.0048945489999999989,-0.009194460541503649,0.15773960828177139,-0.15773960828177139
0.0048945589999999988,-0.011510615723777071,0.16106933441124047,-0.16106933441124047
0.0048945689999999997,-0.010187098476762741,0.16639689621872744,-0.16639689621872744
0.0048945789999999996,-0.0088635812298085981,0.16839473189648899,-0.16839473189648899
0.0048945889999999995,-0.010187098476863703,0.17172445802592901,-0.17172445802592901
0.0048945989999999995,-0.011841495035603026,0.17205743063898757,-0.17205743063898757
0.0048946089999999994,-0.010517977788546266,0.17705201983323154,-0.17705201983323154
0.0048946189999999994,-0.008532701918021161,0.17938282812388148,-0.17938282812388148
0.0048946289999999993,-0.010517977788578015,0.18004877334978164,-0.18004877334978164
0.0048946389999999992,-0.010187098476816607,0.17971580073682905,-0.17971580073682905
0.0048946489999999992,-0.010848857100338519,0.1783839102850196,-0.1783839102850196
0.0048946589999999991,-0.010187098476824733,0.18038174596271242,-0.18038174596271242
0.0048946689999999991,-0.0098562191650591133,0.18237958164042795,-0.18237958164042795
0.004894678999999999,-0.007209184671011044,0.18004877334984054,-0.18004877334984054
0.0048946889999999989,-0.0095253398532190135,0.18004877334978331,-0.18004877334978331
0.0048946989999999989,-0.01250325365905151,0.18071471857566818,-0.18071471857566818
0.0048947089999999988,-0.010848857100413752,0.18537633515685692,-0.18537633515685692
0.0048947189999999996,-0.010187098476828946,0.1847103899312488,-0.1847103899312488
0.0048947289999999996,-0.010517977788568987,0.18737417083483726,-0.18737417083483726
0.0048947389999999995,-0.01018709847686867,0.18903903389961774,-0.18903903389961774
0.0048947489999999995,-0.012172374347410024,0.19136984219030628,-0.19136984219030628
0.0048947589999999994,-0.012834132970889504,0.19469956831983215,-0.19469956831983215
0.0048947689999999993,-0.010517977788576811,0.19802929444934939,-0.19802929444934939
0.0048947789999999993,-0.010187098476819015,0.20036010274000204,-0.20036010274000204
0.0048947889999999992,-0.011179736412103236,0.19703037661047618,-0.19703037661047618
0.0048947989999999992,-0.013165012282668514,0.19703037661046557,-0.19703037661046557
0.0048948089999999991,-0.013165012282686571,0.20169199319175937,-0.20169199319175937
0.004894818999999999,-0.010187098476878601,0.20535469193425282,-0.20535469193425282
0.004894828999999999,-0.010517977788570642,0.20701955499905675,-0.20701955499905675
0.0048948389999999989,-0.01283413297084632,0.2073525276120457,-0.2073525276120457
0.0048948489999999989,-0.013165012282673631,0.21001630851558903,-0.21001630851558903
0.0048948589999999997,-0.011841495035646963,0.21168117158057739,-0.21168117158057739
0.0048948689999999996,-0.012172374347503465,0.21434495248418611,-0.21434495248418611
0.0048948789999999995,-0.015150288153127717,0.21667576077493417,-0.21667576077493417
0.0048948889999999995,-0.01051797778857967,0.22167034996912666,-0.22167034996912666
0.0048948989999999994,-0.010517977788597727,0.22266926780802077,-0.22266926780802077
0.0048949089999999994,-0.011510615723902258,0.22566602132452454,-0.22566602132452454
0.0048949189999999993,-0.01415765021797034,0.22300224042092714,-0.22300224042092714
0.0048949289999999993,-0.013165012282685216,0.22400115825978656,-0.22400115825978656
0.0048949389999999992,-0.010187098476832558,0.2286627748411228,-0.2286627748411228
0.0048949489999999991,-0.011510615723854711,0.22932872006704974,-0.22932872006704974
0.0048949589999999991,-0.014157650217929715,0.22799682961526274,-0.22799682961526274
0.004894968999999999,-0.013826770906221121,0.22932872006702582,-0.22932872006702582
0.004894978999999999,-0.01415765021796688,0.23132655574472558,-0.23132655574472558
0.0048949889999999989,-0.01051797778870877,0.23032763790595642,-0.23032763790595642
0.0048949989999999988,-0.014157650217826043,0.22666493916357247,-0.22666493916357247
0.0048950089999999996,-0.014819408841490295,0.22566602132466262,-0.22566602132466262
0.0048950189999999996,-0.014488529529717754,0.22832980222835053,-0.22832980222835053
0.0048950289999999995,-0.013826770906167405,0.23299141880934499,-0.23299141880934499
0.0048950389999999995,-0.012172374347374816,0.22533304871177712,-0.22533304871177712
0.0048950489999999994,-0.011179736412159058,0.23332439142255967,-0.23332439142255967
0.0048950589999999993,-0.014488529529733403,0.23632114493910297,-0.23632114493910297
0.0048950689999999993,-0.013826770906211943,0.23632114493911116,-0.23632114493911116
0.0048950789999999992,-0.013495891594450686,0.23831898061682574,-0.23831898061682574
0.0048950889999999992,-0.013495891594449933,0.24064978890749311,-0.24064978890749311
0.0048950989999999991,-0.012172374347415141,0.2413157341334119,-0.2413157341334119
0.0048951089999999991,-0.015481167464963905,0.24464546026290021,-0.24464546026290021
0.004895118999999999,-0.016473805400294469,0.24664329594064235,-0.24664329594064235
0.0048951289999999989,-0.014488529529803219,0.25030599468307768,-0.25030599468307768
0.0048951389999999989,-0.0134958915944874,0.25563355649026603,-0.25563355649026603
0.0048951489999999997,-0.013495891594578582,0.26196003613668994,-0.26196003613668994
0.0048951589999999996,-0.016473805400184477,0.26395787181434338,-0.26395787181434338
0.0048951689999999996,-0.01283413297093359,0.26429084442729595,-0.26429084442729595
0.0048951789999999995,-0.013165012282737127,0.26462381704019766,-0.26462381704019766
0.0048951889999999994,-0.015150288153305567,0.26295895397544128,-0.26295895397544128
0.0048951989999999994,-0.017135564023816378,0.26162706352367543,-0.26162706352367543
0.0048952089999999993,-0.014819408841496164,0.26362489920137394,-0.26362489920137394
0.0048952189999999993,-0.013826770906213749,0.26329192658841777,-0.26329192658841777
0.0048952289999999992,-0.014157650217975156,0.26029517307184447,-0.26029517307184447
0.0048952389999999991,-0.017135564023815778,0.26029517307183087,-0.26029517307183087
0.0048952489999999991,-0.016142926088573088,0.26062814568477999,-0.26062814568477999
0.004895258999999999,-0.012834132970996937,0.26295895397541535,-0.26295895397541535
0.004895268999999999,-0.013495891594431274,0.26262598136252213,-0.26262598136252213
0.0048952789999999989,-0.01713556402372279,0.26295895397545593,-0.26295895397545593
0.0048952889999999988,-0.016142926088596559,0.26329192658840855,-0.26329192658840855
0.0048952989999999997,-0.013826770906267466,0.26895246100866288,-0.26895246100866288
0.0048953089999999996,-0.015150288153301505,0.26928543362173207,-0.26928543362173207
0.0048953189999999995,-0.016142926088576096,0.27294813236420085,-0.27294813236420085
0.0048953289999999995,-0.016804684712053469,0.27627785849371761,-0.27627785849371761
0.0048953389999999994,-0.015481167465018975,0.27927461201031889,-0.27927461201031889
0.0048953489999999994,-0.014819408841510607,0.28393622859159334,-0.28393622859159334
0.0048953589999999993,-0.015481167465038387,0.28293731075274886,-0.28293731075274886
0.0048953689999999992,-0.017135564023845418,0.28460217381751185,-0.28460217381751185
0.0048953789999999992,-0.019782598517935769,0.28759892733408388,-0.28759892733408388
0.0048953889999999991,-0.017797322647398927,0.29226054391540873,-0.29226054391540873
0.0048953989999999991,-0.014488529529801713,0.29625621527084822,-0.29625621527084822
0.004895408999999999,-0.017797322647292398,0.29825405094860097,-0.29825405094860097
0.0048954189999999989,-0.019120839894386774,0.29758810572276123,-0.29758810572276123
0.0048954289999999989,-0.017797322647421798,0.30424755798158976,-0.30424755798158976
0.0048954389999999988,-0.015150288153378695,0.30624539365947484,-0.30624539365947484
0.0048954489999999996,-0.01812820195918757,0.30458053059485019,-0.30458053059485019
0.0048954589999999996,-0.019451719206233196,0.30624539365973136,-0.30624539365973136
0.0048954689999999995,-0.020775236453226459,0.31157295546699909,-0.31157295546699909
0.0048954789999999995,-0.020113477829642706,0.31789943511305052,-0.31789943511305052
0.0048954889999999994,-0.016473805400334642,0.32189510646846214,-0.32189510646846214
0.0048954989999999993,-0.017466443335624582,0.32455888737207134,-0.32455888737207134
0.0048955089999999993,-0.019120839894419876,0.3258907778238862,-0.3258907778238862
0.0048955189999999992,-0.016473805400328626,0.3288875313404595,-0.3288875313404595
0.0048955289999999992,-0.019451719206163381,0.32922050395342056,-0.32922050395342056
0.0048955389999999991,-0.017797322647398476,0.33055239440522183,-0.33055239440522183
0.004895548999999999,-0.016142926088591445,0.33288320269587496,-0.33288320269587496
0.004895558999999999,-0.018789960582592719,0.33421509314770614,-0.33421509314770614
0.0048955689999999989,-0.020444357141426381,0.3348810383736292,-0.3348810383736292
0.0048955789999999989,-0.019451719206228832,0.33787779189012612,-0.33787779189012612
0.0048955889999999997,-0.019782598517815397,0.33887670972921713,-0.33887670972921713
0.0048955989999999996,-0.016473805400355857,0.34154049063270625,-0.34154049063270625
0.0048956089999999996,-0.017466443335620217,0.34054157279379849,-0.34054157279379849
0.0048956189999999995,-0.017797322647429472,0.33787779189022593,-0.33787779189022593
0.0048956289999999994,-0.020113477829675059,0.33721184666441772,-0.33721184666441772
0.0048956389999999994,-0.01779732264734521,0.34187346324566398,-0.34187346324566398
0.0048956489999999993,-0.015481167465040644,0.33920968234203691,-0.33920968234203691
0.0048956589999999993,-0.017135564023849331,0.33554698359955998,-0.33554698359955998
0.0048956689999999992,-0.022429633012031838,0.33521401098660741,-0.33521401098660741
0.0048956789999999991,-0.019782598517983918,0.34120751801971944,-0.34120751801971944
0.0048956889999999991,-0.017797322647407954,0.34720102505286593,-0.34720102505286593
0.004895698999999999,-0.018789960582640718,0.34819994289181005,-0.34819994289181005
0.004895708999999999,-0.019451719206171204,0.35086372379539205,-0.35086372379539205
0.0048957189999999989,-0.020444357141445792,0.35219561424724122,-0.35219561424724122
0.0048957289999999988,-0.019120839894481267,0.3578561486672836,-0.3578561486672836
0.0048957389999999996,-0.020444357141428188,0.35719020344159297,-0.35719020344159297
0.0048957489999999996,-0.019120839894415965,0.35685723082870757,-0.35685723082870757
0.0048957589999999995,-0.018789960582627024,0.35852209389336898,-0.35852209389336898
0.0048957689999999995,-0.017466443335617511,0.35652425821579153,-0.35652425821579153
0.0048957789999999994,-0.017797322647421045,0.36085290218410626,-0.36085290218410626
0.0048957889999999993,-0.020775236453243914,0.36085290218411625,-0.36085290218411625
0.0048957989999999993,-0.020775236453243914,0.36185182002297128,-0.36185182002297128
0.0048958089999999992,-0.020775236453243914,0.36218479263592385,-0.36218479263592385
0.0048958189999999992,-0.018789960582679087,0.36318371047478037,-0.36318371047478037
